{
  "title": "BTVault Backup Demo",
  "stdout": [
    [
      0.008882,
      "\u001b[?1049h\u001b(B\u001b[m\u001b[?1l\u001b>\u001b[H\u001b[2J\u001b[?12l\u001b[?25h\u001b[?1000l\u001b[?1002l\u001b[?1006l\u001b[?1005l\u001b]112\u0007\u001b[?25l\u001b[1;1H\u001b[K\r\n\u001b[K\r\n\u001b[K\r\n\u001b[K\r\n\u001b[K\r\n\u001b[K\r\n\u001b[K\r\n\u001b[K\r\n\u001b[K\r\n\u001b[K\r\n\u001b[K\r\n\u001b[K\r\n\u001b[K\r\n\u001b[K\r\n\u001b[K\r\n\u001b[K\r\n\u001b[K\r\n\u001b[K\r\n\u001b[K\r\n\u001b[K\r\n\u001b[K\r\n\u001b[K\r\n\u001b[K\r\n\u001b[K\r\n\u001b[K\r\n\u001b[K\r\n\u001b[K\r\n\u001b[K\r\n\u001b[30m\u001b[42m[0] 0:bash*                                                                          \"t450-vmbox\" 00:25 05-Jun-17\u001b(B\u001b[m\u001b[29;1H\u001b[1;29r\u001b[H\u001b[?12l\u001b[?25h\u001b[?1006h\u001b[?1002h"
    ],
    [
      0.055556,
      "\u001b[1;28r$ \u001b[1;29r\u001b[H\u001b[2C"
    ],
    [
      0.5,
      "\u001b[1;28r\u001b[H\u001b[2Cb\u001b[1;29r\u001b[H\u001b[3C"
    ],
    [
      0.337147,
      "\u001b[1;28r\u001b[H\u001b[3Ct\u001b[1;29r\u001b[H\u001b[4C"
    ],
    [
      0.16976,
      "\u001b[1;28r\u001b[H\u001b[4Cv\u001b[1;29r\u001b[H\u001b[5C"
    ],
    [
      0.324422,
      "\u001b[1;28r\u001b[H\u001b[5C-\u001b[1;29r\u001b[H\u001b[6C"
    ],
    [
      0.181349,
      "\u001b[1;28r\u001b[H\u001b[6Cc\u001b[1;29r\u001b[H\u001b[7C"
    ],
    [
      0.119167,
      "\u001b[1;28r\u001b[H\u001b[7Cl\u001b[1;29r\u001b[H\u001b[8C"
    ],
    [
      0.181293,
      "\u001b[1;28r\u001b[H\u001b[8Ci\u001b[1;29r\u001b[H\u001b[9C"
    ],
    [
      0.136279,
      "\u001b[1;28r\u001b[H\u001b[9C \u001b[1;29r\u001b[H\u001b[10C"
    ],
    [
      0.5,
      "\u001b[1;28r\u001b[H\u001b[10C-\u001b[1;29r\u001b[H\u001b[11C"
    ],
    [
      0.153062,
      "\u001b[1;28r\u001b[H\u001b[11C-\u001b[1;29r\u001b[H\u001b[12C"
    ],
    [
      0.292391,
      "\u001b[1;28r\u001b[H\u001b[12Ch\u001b[1;29r\u001b[H\u001b[13C"
    ],
    [
      0.129292,
      "\u001b[1;28r\u001b[H\u001b[13Ce\u001b[1;29r\u001b[H\u001b[14C"
    ],
    [
      0.218796,
      "\u001b[1;28r\u001b[H\u001b[14Cl\u001b[1;29r\u001b[H\u001b[15C"
    ],
    [
      0.088489,
      "\u001b[1;28r\u001b[H\u001b[15Cp\u001b[1;29r\u001b[H\u001b[16C"
    ],
    [
      0.230604,
      "\r\n"
    ],
    [
      0.036392,
      "\u001b[1;28r\u001b[H\r\nThis application allows user to join the P2P network (e.g. signup) and to manage the user's locally running nodes.\u001b[1;29r\u001b[H\u001b[4B"
    ],
    [
      0.000621,
      "\u001b[1;28r\u001b[H\u001b[4BUsage:\r\n  btv-cli [command]\u001b[8;1HAvailable Commands:\r\n  backup      Create a new backup of files and/or directories\r\n  help        Help about any command\r\n  keygen      Create a new key pair for the user\r\n  list        Show the backed up files and their history\r\n  restore     Restore backups\r\n  signup      Register a new user in the BTVault network\r\n  version     Show version\u001b[17;1HFlags:\r\n      --config file   configuration file (default $HOME/.btvault/config.yaml)\u001b[20;1HUse \"btv-cli [command] --help\" for more information about a command.\u001b[1;29r\u001b[H\u001b[21d"
    ],
    [
      0.000837,
      "\u001b[1;28r\u001b[H\u001b[21d$ \u001b[1;29r\u001b[H\u001b[21;3H"
    ],
    [
      0.5,
      "\u001b[1;28r\u001b[H\u001b[21;3Hb\u001b[1;29r\u001b[H\u001b[21;4H"
    ],
    [
      0.128327,
      "\u001b[1;28r\u001b[H\u001b[21;4Ht\u001b[1;29r\u001b[H\u001b[21;5H"
    ],
    [
      0.062273,
      "\u001b[1;28r\u001b[H\u001b[21;5Hv\u001b[1;29r\u001b[H\u001b[21;6H"
    ],
    [
      0.5,
      "\u001b[1;28r\u001b[H\u001b[21;6H-\u001b[1;29r\u001b[H\u001b[21;7H"
    ],
    [
      0.360378,
      "\u001b[1;28r\u001b[H\u001b[21;7Hc\u001b[1;29r\u001b[H\u001b[21;8H"
    ],
    [
      0.114469,
      "\u001b[1;28r\u001b[H\u001b[21;8Hl\u001b[1;29r\u001b[H\u001b[21;9H"
    ],
    [
      0.164399,
      "\u001b[1;28r\u001b[H\u001b[21;9Hi\u001b[1;29r\u001b[H\u001b[21;10H"
    ],
    [
      0.119516,
      "\u001b[1;28r\u001b[H\u001b[21;10H \u001b[1;29r\u001b[H\u001b[21;11H"
    ],
    [
      0.267519,
      "\u001b[1;28r\u001b[H\u001b[21;11Hv\u001b[1;29r\u001b[H\u001b[21;12H"
    ],
    [
      0.118088,
      "\u001b[1;28r\u001b[H\u001b[21;12He\u001b[1;29r\u001b[H\u001b[21;13H"
    ],
    [
      0.124706,
      "\u001b[1;28r\u001b[H\u001b[21;13Hr\u001b[1;29r\u001b[H\u001b[21;14H"
    ],
    [
      0.218843,
      "\u001b[1;28r\u001b[H\u001b[21;14Hs\u001b[1;29r\u001b[H\u001b[21;15H"
    ],
    [
      0.103953,
      "\u001b[1;28r\u001b[H\u001b[21;15Hi\u001b[1;29r\u001b[H\u001b[21;16H"
    ],
    [
      0.145049,
      "\u001b[1;28r\u001b[H\u001b[21;16Ho\u001b[1;29r\u001b[H\u001b[21;17H"
    ],
    [
      0.132565,
      "\u001b[1;28r\u001b[H\u001b[21;17Hn\u001b[1;29r\u001b[H\u001b[21;18H"
    ],
    [
      0.241583,
      "\r\n"
    ],
    [
      0.01739,
      "\u001b[1;28r\u001b[H\u001b[23d    ____ _______    __            ____ \r\n   / __ )_  __/ |  / /___ ___  __/ / /_\r\n  / __  |/ /  | | / / __ ˇ/ / / / / __/\r\n / /_/ // /   | |/ / /_/ / /_/ / / /_  \r\n/_____//_/    |___/\\__,_/\\__,_/_/\\__/  \r\n\nversion: v0.0.1 (prototype)\r\n\u001b[1;29r\u001b[H\u001b[28d"
    ],
    [
      0.001441,
      "\u001b[1;28r\u001b[H\u001b[28d$ \u001b[1;29r\u001b[H\u001b[28;3H"
    ],
    [
      0.5,
      "\u001b[1;28r\u001b[H\u001b[28;3Hb\u001b[1;29r\u001b[H\u001b[28;4H"
    ],
    [
      0.149482,
      "\u001b[1;28r\u001b[H\u001b[28;4Ht\u001b[1;29r\u001b[H\u001b[28;5H"
    ],
    [
      0.147767,
      "\u001b[1;28r\u001b[H\u001b[28;5Hv\u001b[1;29r\u001b[H\u001b[28;6H"
    ],
    [
      0.223642,
      "\u001b[1;28r\u001b[H\u001b[28;6H-\u001b[1;29r\u001b[H\u001b[28;7H"
    ],
    [
      0.253142,
      "\u001b[1;28r\u001b[H\u001b[28;7Hc\u001b[1;29r\u001b[H\u001b[28;8H"
    ],
    [
      0.100926,
      "\u001b[1;28r\u001b[H\u001b[28;8Hl\u001b[1;29r\u001b[H\u001b[28;9H"
    ],
    [
      0.206081,
      "\u001b[1;28r\u001b[H\u001b[28;9Hi\u001b[1;29r\u001b[H\u001b[28;10H"
    ],
    [
      0.11857,
      "\u001b[1;28r\u001b[H\u001b[28;10H \u001b[1;29r\u001b[H\u001b[28;11H"
    ],
    [
      0.356021,
      "\u001b[1;28r\u001b[H\u001b[28;11Hs\u001b[1;29r\u001b[H\u001b[28;12H"
    ],
    [
      0.133971,
      "\u001b[1;28r\u001b[H\u001b[28;12Hi\u001b[1;29r\u001b[H\u001b[28;13H"
    ],
    [
      0.349966,
      "\u001b[1;28r\u001b[H\u001b[28;13Hg\u001b[1;29r\u001b[H\u001b[28;14H"
    ],
    [
      0.24631,
      "\u001b[1;28r\u001b[H\u001b[28;14Hn\u001b[1;29r\u001b[H\u001b[28;15H"
    ],
    [
      0.183171,
      "\u001b[1;28r\u001b[H\u001b[28;15Hu\u001b[1;29r\u001b[H\u001b[28;16H"
    ],
    [
      0.379158,
      "\u001b[1;28r\u001b[H\u001b[28;16Hp\u001b[1;29r\u001b[H\u001b[28;17H"
    ],
    [
      0.145564,
      "\u001b[1;28r\u001b[H\u001b[28;17H \u001b[1;29r\u001b[H\u001b[28;18H"
    ],
    [
      0.5,
      "\u001b[1;28r\u001b[H\u001b[28;18H-\u001b[1;29r\u001b[H\u001b[28;19H"
    ],
    [
      0.186889,
      "\u001b[1;28r\u001b[H\u001b[28;19H-\u001b[1;29r\u001b[H\u001b[28;20H"
    ],
    [
      0.5,
      "\u001b[1;28r\u001b[H\u001b[28;20Hd\u001b[1;29r\u001b[H\u001b[28;21H"
    ],
    [
      0.120918,
      "\u001b[1;28r\u001b[H\u001b[28;21Hh\u001b[1;29r\u001b[H\u001b[28;22H"
    ],
    [
      0.163424,
      "\u001b[1;28r\u001b[H\u001b[28;22Ht\u001b[1;29r\u001b[H\u001b[28;23H"
    ],
    [
      0.5,
      "\u001b[1;28r\u001b[H\u001b[28;23H=\u001b[1;29r\u001b[H\u001b[28;24H"
    ],
    [
      0.5,
      "\u001b[1;28r\u001b[H\u001b[28;24H:\u001b[1;29r\u001b[H\u001b[28;25H"
    ],
    [
      0.100752,
      "\u001b[?25l\r\n\u001b[30m\u001b[42m[0] 0:bash*                                                                          \"t450-vmbox\" 00:26 05-Jun-17\u001b(B\u001b[m\u001b[28;25H\u001b[?12l\u001b[?25h"
    ],
    [
      0.5,
      "\b\u001b[K"
    ],
    [
      0.5,
      "\u001b[1;28r\u001b[H\u001b[28;24H1\u001b[1;29r\u001b[H\u001b[28;25H"
    ],
    [
      0.5,
      "\u001b[1;28r\u001b[H\u001b[28;25H0\u001b[1;29r\u001b[H\u001b[28;26H"
    ],
    [
      0.5,
      "\u001b[1;28r\u001b[H\u001b[28;26H.\u001b[1;29r\u001b[H\u001b[28;27H"
    ],
    [
      0.205595,
      "\u001b[1;28r\u001b[H\u001b[28;27H0\u001b[1;29r\u001b[H\u001b[28;28H"
    ],
    [
      0.149293,
      "\u001b[1;28r\u001b[H\u001b[28;28H.\u001b[1;29r\u001b[H\u001b[28;29H"
    ],
    [
      0.150974,
      "\u001b[1;28r\u001b[H\u001b[28;29H0\u001b[1;29r\u001b[H\u001b[28;30H"
    ],
    [
      0.5,
      "\u001b[1;28r\u001b[H\u001b[28;30H.\u001b[1;29r\u001b[H\u001b[28;31H"
    ],
    [
      0.5,
      "\u001b[1;28r\u001b[H\u001b[28;31H8\u001b[1;29r\u001b[H\u001b[28;32H"
    ],
    [
      0.5,
      "\u001b[1;28r\u001b[H\u001b[28;32H:\u001b[1;29r\u001b[H\u001b[28;33H"
    ],
    [
      0.5,
      "\u001b[1;28r\u001b[H\u001b[28;33H7\u001b[1;29r\u001b[H\u001b[28;34H"
    ],
    [
      0.181397,
      "\u001b[1;28r\u001b[H\u001b[28;34H7\u001b[1;29r\u001b[H\u001b[28;35H"
    ],
    [
      0.484997,
      "\u001b[1;28r\u001b[H\u001b[28;35H7\u001b[1;29r\u001b[H\u001b[28;36H"
    ],
    [
      0.43542,
      "\u001b[1;28r\u001b[H\u001b[28;36H3\u001b[1;29r\u001b[H\u001b[28;37H"
    ],
    [
      0.408144,
      "\u001b[1;28r\u001b[H\u001b[28;37H \u001b[1;29r\u001b[H\u001b[28;38H"
    ],
    [
      0.252548,
      "\u001b[1;28r\u001b[H\u001b[28;38H-\u001b[1;29r\u001b[H\u001b[28;39H"
    ],
    [
      0.183542,
      "\u001b[1;28r\u001b[H\u001b[28;39H-\u001b[1;29r\u001b[H\u001b[28;40H"
    ],
    [
      0.232964,
      "\u001b[1;28r\u001b[H\u001b[28;40Hs\u001b[1;29r\u001b[H\u001b[28;41H"
    ],
    [
      0.206617,
      "\u001b[1;28r\u001b[H\u001b[28;41He\u001b[1;29r\u001b[H\u001b[28;42H"
    ],
    [
      0.5,
      "\u001b[1;28r\u001b[H\u001b[28;42Hr\u001b[1;29r\u001b[H\u001b[28;43H"
    ],
    [
      0.155525,
      "\u001b[1;28r\u001b[H\u001b[28;43Hv\u001b[1;29r\u001b[H\u001b[28;44H"
    ],
    [
      0.141617,
      "\u001b[1;28r\u001b[H\u001b[28;44He\u001b[1;29r\u001b[H\u001b[28;45H"
    ],
    [
      0.135364,
      "\u001b[1;28r\u001b[H\u001b[28;45Hr\u001b[1;29r\u001b[H\u001b[28;46H"
    ],
    [
      0.5,
      "\u001b[1;28r\u001b[H\u001b[28;46H=\u001b[1;29r\u001b[H\u001b[28;47H"
    ],
    [
      0.5,
      "\u001b[1;28r\u001b[H\u001b[28;47H1\u001b[1;29r\u001b[H\u001b[28;48H"
    ],
    [
      0.173692,
      "\u001b[1;28r\u001b[H\u001b[28;48H0\u001b[1;29r\u001b[H\u001b[28;49H"
    ],
    [
      0.5,
      "\u001b[1;28r\u001b[H\u001b[28;49H.\u001b[1;29r\u001b[H\u001b[28;50H"
    ],
    [
      0.28493,
      "\u001b[1;28r\u001b[H\u001b[28;50H0\u001b[1;29r\u001b[H\u001b[28;51H"
    ],
    [
      0.188441,
      "\u001b[1;28r\u001b[H\u001b[28;51H.\u001b[1;29r\u001b[H\u001b[28;52H"
    ],
    [
      0.16774,
      "\u001b[1;28r\u001b[H\u001b[28;52H0\u001b[1;29r\u001b[H\u001b[28;53H"
    ],
    [
      0.349677,
      "\u001b[1;28r\u001b[H\u001b[28;53H.\u001b[1;29r\u001b[H\u001b[28;54H"
    ],
    [
      0.5,
      "\u001b[1;28r\u001b[H\u001b[28;54H8\u001b[1;29r\u001b[H\u001b[28;55H"
    ],
    [
      0.5,
      "\u001b[1;28r\u001b[H\u001b[28;55H:\u001b[1;29r\u001b[H\u001b[28;56H"
    ],
    [
      0.5,
      "\u001b[1;28r\u001b[H\u001b[28;56H7\u001b[1;29r\u001b[H\u001b[28;57H"
    ],
    [
      0.152162,
      "\u001b[1;28r\u001b[H\u001b[28;57H7\u001b[1;29r\u001b[H\u001b[28;58H"
    ],
    [
      0.162028,
      "\u001b[1;28r\u001b[H\u001b[28;58H3\u001b[1;29r\u001b[H\u001b[28;59H"
    ],
    [
      0.5,
      "\b\u001b[K"
    ],
    [
      0.5,
      "\u001b[1;28r\u001b[H\u001b[28;58H7\u001b[1;29r\u001b[H\u001b[28;59H"
    ],
    [
      0.45899,
      "\u001b[1;28r\u001b[H\u001b[28;59H1\u001b[1;29r\u001b[H\u001b[28;60H"
    ],
    [
      0.5,
      "\u001b[1;28r\u001b[H\u001b[28;60H \u001b[1;29r\u001b[H\u001b[28;61H"
    ],
    [
      0.5,
      "\u001b[1;28r\u001b[H\u001b[28;61H-\u001b[1;29r\u001b[H\u001b[28;62H"
    ],
    [
      0.5,
      "\u001b[1;28r\u001b[H\u001b[28;62Hf\u001b[1;29r\u001b[H\u001b[28;63H"
    ],
    [
      0.306768,
      "\u001b[1;28r\u001b[H\u001b[28d\n\u001b[1;29r\u001b[H\u001b[28d"
    ],
    [
      0.016083,
      "\u001b[1;28r\u001b[H\u001b[28dUsername: \u001b[1;29r\u001b[H\u001b[28;11H"
    ],
    [
      0.5,
      "\u001b[?25l\r\n\u001b[30m\u001b[42m[0] 0:btv-cli*                                                                       \"t450-vmbox\" 00:26 05-Jun-17\u001b(B\u001b[m\u001b[28;11H\u001b[?12l\u001b[?25h"
    ],
    [
      0.000391,
      "\u001b[1;28r\u001b[H\u001b[28;11Hm\u001b[1;29r\u001b[H\u001b[28;12H"
    ],
    [
      0.096784,
      "\u001b[1;28r\u001b[H\u001b[28;12Ha\u001b[1;29r\u001b[H\u001b[28;13H"
    ],
    [
      0.131219,
      "\u001b[1;28r\u001b[H\u001b[28;13Hns\u001b[1;29r\u001b[H\u001b[28;15H"
    ],
    [
      0.161851,
      "\u001b[1;28r\u001b[H\u001b[28;15Hu\u001b[1;29r\u001b[H\u001b[28;16H"
    ],
    [
      0.17538,
      "\u001b[1;28r\u001b[H\u001b[28;16Hm\u001b[1;29r\u001b[H\u001b[28;17H"
    ],
    [
      0.128158,
      "\u001b[1;28r\u001b[H\u001b[28;17Ha\u001b[1;29r\u001b[H\u001b[28;18H"
    ],
    [
      0.039083,
      "\u001b[1;28r\u001b[H\u001b[28;18Hx\u001b[1;29r\u001b[H\u001b[28;19H"
    ],
    [
      0.398253,
      "\u001b[1;28r\u001b[H\u001b[28;19H@\u001b[1;29r\u001b[H\u001b[28;20H"
    ],
    [
      0.5,
      "\u001b[1;28r\u001b[H\u001b[28;20Hf\u001b[1;29r\u001b[H\u001b[28;21H"
    ],
    [
      0.121783,
      "\u001b[1;28r\u001b[H\u001b[28;21He\u001b[1;29r\u001b[H\u001b[28;22H"
    ],
    [
      0.154635,
      "\u001b[1;28r\u001b[H\u001b[28;22Hl\u001b[1;29r\u001b[H\u001b[28;23H"
    ],
    [
      0.187517,
      "\u001b[1;28r\u001b[H\u001b[28;23H.\u001b[1;29r\u001b[H\u001b[28;24H"
    ],
    [
      0.211422,
      "\u001b[1;28r\u001b[H\u001b[28;24Hc\u001b[1;29r\u001b[H\u001b[28;25H"
    ],
    [
      0.200941,
      "\u001b[1;28r\u001b[H\u001b[28;25Hv\u001b[1;29r\u001b[H\u001b[28;26H"
    ],
    [
      0.09928,
      "\u001b[1;28r\u001b[H\u001b[28;26Hu\u001b[1;29r\u001b[H\u001b[28;27H"
    ],
    [
      0.13363,
      "\u001b[1;28r\u001b[H\u001b[28;27Ht\u001b[1;29r\u001b[H\u001b[28;28H"
    ],
    [
      0.5,
      "\u001b[1;28r\u001b[H\u001b[28;28H.\u001b[1;29r\u001b[H\u001b[28;29H"
    ],
    [
      0.140361,
      "\u001b[1;28r\u001b[H\u001b[28;29Hc\u001b[1;29r\u001b[H\u001b[28;30H"
    ],
    [
      0.077949,
      "\u001b[1;28r\u001b[H\u001b[28;30Hz\u001b[1;29r\u001b[H\u001b[28;31H"
    ],
    [
      0.5,
      "\u001b[1;28r\u001b[H\u001b[28d\n\u001b[1;29r\u001b[H\u001b[28d"
    ],
    [
      0.041219,
      "\u001b[1;28r\u001b[H\u001b[28dBTVault private/public key pair written to:\r\n\u001b[8C/home/txmns/.ssh/public.btvkey\r\n\u001b[8C/home/txmns/.ssh/secret.btvkey\r\nThis key pair provides access to your BTVault identity and data.\r\nIf you lose the keys you can re-create them by running this command:\r\n\u001b[8Cbtv-cli keygen --secretseed pupal-rupok-ruzik-nakod-mitoj-sofah-pufar-zubak\r\nWrite this command down and store it in a secure, private place.\r\nDo not share your private key or this command with anyone.\r\n\n\u001b[1;29r\u001b[H\u001b[28d"
    ],
    [
      0.003987,
      "\u001b[1;28r\u001b[H\u001b[28dA signup email with confirmation code has been sent to \"mansumax@fel.cvut.cz\",\r\nIn order to complete the signup process, please, enter the confirmation code from that email.\r\nConfirmation code (... or just press <ENTER>): \u001b[1;29r\u001b[H\u001b[28;48H"
    ],
    [
      0.5,
      "\u001b[1;28r\u001b[H\u001b[28;48H7\u001b[1;29r\u001b[H\u001b[28;49H"
    ],
    [
      0.292005,
      "\u001b[1;28r\u001b[H\u001b[28;49H3\u001b[1;29r\u001b[H\u001b[28;50H"
    ],
    [
      0.359037,
      "\u001b[1;28r\u001b[H\u001b[28;50H9\u001b[1;29r\u001b[H\u001b[28;51H"
    ],
    [
      0.1467,
      "\u001b[1;28r\u001b[H\u001b[28;51H9\u001b[1;29r\u001b[H\u001b[28;52H"
    ],
    [
      0.135269,
      "\u001b[1;28r\u001b[H\u001b[28;52H4\u001b[1;29r\u001b[H\u001b[28;53H"
    ],
    [
      0.5,
      "\u001b[1;28r\u001b[H\u001b[28d\n\u001b[1;29r\u001b[H\u001b[28d"
    ],
    [
      0.437275,
      "\u001b[1;28r\u001b[H\u001b[28dConfiguration file written to:\r\n\u001b[8C/home/txmns/.btvault/config.yaml\r\n\n\u001b[1;29r\u001b[H\u001b[28d"
    ],
    [
      0.003126,
      "\u001b[1;28r\u001b[H\u001b[28d$ \u001b[1;29r\u001b[H\u001b[28;3H"
    ],
    [
      0.5,
      "\u001b[?25l\r\n\u001b[30m\u001b[42m[0] 0:bash*                                                                          \"t450-vmbox\" 00:26 05-Jun-17\u001b(B\u001b[m\u001b[28;3H\u001b[?12l\u001b[?25h"
    ],
    [
      0.42291,
      "\u001b[?25l\u001b[15;1H─────────────────────────────────────────────────────────\u001b[32m────────────────────────────────────────────────────────\u001b[1;1H\u001b(B\u001b[m        /home/txmns/.ssh/secret.btvkey\u001b[K\r\nThis key pair provides access to your BTVault identity and data.\u001b[K\r\nIf you lose the keys you can re-create them by running this command:\u001b[K\r\n        btv-cli keygen --secretseed pupal-rupok-ruzik-nakod-mitoj-sofah-pufar-zubak\u001b[K\r\nWrite this command down and store it in a secure, private place.\u001b[K\r\nDo not share your private key or this command with anyone.\u001b[K\r\n\u001b[K\r\nA signup email with confirmation code has been sent to \"mansumax@fel.cvut.cz\",\u001b[K\r\nIn order to complete the signup process, please, enter the confirmation code from that email.\u001b[K\r\nConfirmation cod"
    ],
    [
      0.000183,
      "e (... or just press <ENTER>): 73994\u001b[K\r\nConfiguration file written to:\u001b[K\r\n        /home/txmns/.btvault/config.yaml\u001b[K\r\n\u001b[K\r\n$ \u001b[K\u001b[16;1H\u001b[K\r\n\u001b[K\r\n\u001b[K\r\n\u001b[K\r\n\u001b[K\r\n\u001b[K\r\n\u001b[K\r\n\u001b[K\r\n\u001b[K\r\n\u001b[K\r\n\u001b[K\r\n\u001b[K\r\n\u001b[K\r\n\u001b[30m\u001b[42m[0] 0:bash*                                                                          \"t450-vmbox\" 00:26 05-Jun-17\u001b(B\u001b[m\u001b[16;1H\u001b[?12l\u001b[?25h"
    ],
    [
      0.051532,
      "\u001b[16;28r\u001b[H\u001b[16d$ \u001b[1;29r\u001b[H\u001b[16;3H"
    ],
    [
      0.5,
      "\u001b[16;28r\u001b[H\u001b[16;3Hb\u001b[1;29r\u001b[H\u001b[16;4H"
    ],
    [
      0.120621,
      "\u001b[16;28r\u001b[H\u001b[16;4Ht\u001b[1;29r\u001b[H\u001b[16;5H"
    ],
    [
      0.141898,
      "\u001b[16;28r\u001b[H\u001b[16;5Hv\u001b[1;29r\u001b[H\u001b[16;6H"
    ],
    [
      0.248586,
      "\u001b[16;28r\u001b[H\u001b[16;6H-\u001b[1;29r\u001b[H\u001b[16;7H"
    ],
    [
      0.5,
      "\u001b[16;28r\u001b[H\u001b[16;7Hn\u001b[1;29r\u001b[H\u001b[16;8H"
    ],
    [
      0.149861,
      "\u001b[16;28r\u001b[H\u001b[16;8Ho\u001b[1;29r\u001b[H\u001b[16;9H"
    ],
    [
      0.1171,
      "\u001b[16;28r\u001b[H\u001b[16;9Hd\u001b[1;29r\u001b[H\u001b[16;10H"
    ],
    [
      0.085345,
      "\u001b[16;28r\u001b[H\u001b[16;10He\u001b[1;29r\u001b[H\u001b[16;11H"
    ],
    [
      0.292418,
      "\u001b[16;28r\u001b[H\u001b[16;11H \u001b[1;29r\u001b[H\u001b[16;12H"
    ],
    [
      0.20079,
      "\u001b[16;28r\u001b[H\u001b[16;12H-\u001b[1;29r\u001b[H\u001b[16;13H"
    ],
    [
      0.5,
      "\u001b[16;28r\u001b[H\u001b[16;13Hv\u001b[1;29r\u001b[H\u001b[16;14H"
    ],
    [
      0.5,
      "\r\n"
    ],
    [
      0.000414,
      "\u001b[?25l\u001b[29d\u001b[30m\u001b[42m[0] 0:btv-node*                                                                      \"t450-vmbox\" 00:26 05-Jun-17\u001b(B\u001b[m\u001b[17;1H\u001b[?12l\u001b[?25h"
    ],
    [
      0.030475,
      "\u001b[16;28r\u001b[H\u001b[17dbvt-node: initializing node: bV1SneDwxv4gZmKfnZBHhipOYQ8\u001b[1;29r\u001b[H\u001b[18d"
    ],
    [
      0.03391,
      "\u001b[16;28r\u001b[H\u001b[18dbvt-node: starting transmission-daemon on port 41721\u001b[1;29r\u001b[H\u001b[19d"
    ],
    [
      0.00145,
      "\u001b[16;28r\u001b[H\u001b[19dbvt-node: starting heartbeat\u001b[1;29r\u001b[H\u001b[20d"
    ],
    [
      0.001153,
      "\u001b[16;28r\u001b[H\u001b[20dbvt-node: starting RPC server on 127.0.0.1:7774\r\nbvt-node: starting communicator on 0.0.0.0:33187\u001b[1;29r\u001b[H\u001b[22d"
    ],
    [
      0.5,
      "\u001b[?25l\u001b[32m\u001b[7A─────────────────────────────────────────────────────────\u001b[39m────────────────────────────────────────────────────────\u001b(B\u001b[m\u001b[14;3H\u001b[?12l\u001b[?25h\u001b[?25l\u001b[29;1H\u001b[30m\u001b[42m[0] 0:bash*                                                                          \"t450-vmbox\" 00:26 05-Jun-17\u001b(B\u001b[m\u001b[14;3H\u001b[?12l\u001b[?25h"
    ],
    [
      0.5,
      "\r\u001b[K\u001b[1;14r\u001b[H\u001b[14d$ t\u001b[1;29r\u001b[H\u001b[14;4H"
    ],
    [
      0.141218,
      "\u001b[1;14r\u001b[H\u001b[14;4Hr\u001b[1;29r\u001b[H\u001b[14;5H"
    ],
    [
      0.285016,
      "\u001b[1;14r\u001b[H\u001b[14;5He\u001b[1;29r\u001b[H\u001b[14;6H"
    ],
    [
      0.170722,
      "\u001b[1;14r\u001b[H\u001b[14;6He\u001b[1;29r\u001b[H\u001b[14;7H"
    ],
    [
      0.5,
      "\u001b[1;14r\u001b[H\u001b[14d\n\u001b[1;29r\u001b[H\u001b[13B"
    ],
    [
      0.002305,
      "\u001b[1;14r\u001b[H\u001b[14d.\r\n├── img\r\n│   ├── cat.png\r\n│   └── tux.png\r\n├── linux-4.11.3.tar.xz\r\n└── README.txt\r\n\n1 directory, 4 files\r\n\u001b[1;29r\u001b[H\u001b[13B"
    ],
    [
      0.000676,
      "\u001b[1;14r\u001b[H\u001b[14d$ \u001b[1;29r\u001b[H\u001b[14;3H"
    ],
    [
      0.5,
      "\u001b[?25l\u001b[29;1H\u001b[30m\u001b[42m[0] 0:bash*                                                                          \"t450-vmbox\" 00:27 05-Jun-17\u001b(B\u001b[m\u001b[14;3H\u001b[?12l\u001b[?25h"
    ],
    [
      0.5,
      "\u001b[1;14r\u001b[H\u001b[14;3Hb\u001b[1;29r\u001b[H\u001b[14;4H"
    ],
    [
      0.184896,
      "\u001b[1;14r\u001b[H\u001b[14;4Ht\u001b[1;29r\u001b[H\u001b[14;5H"
    ],
    [
      0.19704,
      "\u001b[1;14r\u001b[H\u001b[14;5Hv\u001b[1;29r\u001b[H\u001b[14;6H"
    ],
    [
      0.220662,
      "\u001b[1;14r\u001b[H\u001b[14;6H-\u001b[1;29r\u001b[H\u001b[14;7H"
    ],
    [
      0.341852,
      "\u001b[1;14r\u001b[H\u001b[14;7Hc\u001b[1;29r\u001b[H\u001b[14;8H"
    ],
    [
      0.107415,
      "\u001b[1;14r\u001b[H\u001b[14;8Hl\u001b[1;29r\u001b[H\u001b[14;9H"
    ],
    [
      0.197951,
      "\u001b[1;14r\u001b[H\u001b[14;9Hi\u001b[1;29r\u001b[H\u001b[14;10H"
    ],
    [
      0.180217,
      "\u001b[1;14r\u001b[H\u001b[14;10H \u001b[1;29r\u001b[H\u001b[14;11H"
    ],
    [
      0.308164,
      "\u001b[1;14r\u001b[H\u001b[14;11Hb\u001b[1;29r\u001b[H\u001b[14;12H"
    ],
    [
      0.142314,
      "\u001b[1;14r\u001b[H\u001b[14;12Ha\u001b[1;29r\u001b[H\u001b[14;13H"
    ],
    [
      0.5,
      "\u001b[1;14r\u001b[H\u001b[14;13Hc\u001b[1;29r\u001b[H\u001b[14;14H"
    ],
    [
      0.142829,
      "\u001b[1;14r\u001b[H\u001b[14;14Hk\u001b[1;29r\u001b[H\u001b[14;15H"
    ],
    [
      0.181274,
      "\u001b[1;14r\u001b[H\u001b[14;15Hu\u001b[1;29r\u001b[H\u001b[14;16H"
    ],
    [
      0.35904,
      "\u001b[1;14r\u001b[H\u001b[14;16Hp\u001b[1;29r\u001b[H\u001b[14;17H"
    ],
    [
      0.339966,
      "\u001b[1;14r\u001b[H\u001b[14;17H \u001b[1;29r\u001b[H\u001b[14;18H"
    ],
    [
      0.5,
      "\u001b[1;14r\u001b[H\u001b[14;18H.\u001b[1;29r\u001b[H\u001b[14;19H"
    ],
    [
      0.5,
      "\u001b[1;14r\u001b[H\u001b[14d\n\u001b[1;29r\u001b[H\u001b[13B"
    ],
    [
      0.000149,
      "\u001b[?25l\u001b[29d\u001b[30m\u001b[42m[0] 0:btv-cli*                                                                       \"t450-vmbox\" 00:27 05-Jun-17\u001b(B\u001b[m\u001b[14;1H\u001b[?12l\u001b[?25h"
    ],
    [
      0.047204,
      "\u001b[1;14r\u001b[H\u001b[14d\u001b[37m|\u001b[39m \u001b[1;29r\u001b[H\u001b[14;3H"
    ],
    [
      7.9e-05,
      "\u001b[1;14r\u001b[H\u001b[14d  \rFound 2 directories and 4 files [97.4M]\r\n\u001b[1;29r\u001b[H\u001b[13B"
    ],
    [
      0.00151,
      "\u001b[16;28r\u001b[H\u001b[22dbvt-node: looking in DHT:  NGMqwDzORwuxiPxsBSWW-w12Q33hgtnVGDbeuK2_Ha0\u001b[1;29r\u001b[H\u001b[13B"
    ],
    [
      0.004449,
      "\u001b[16;28r\u001b[H\u001b[23dbvt-node: looking in DHT:  kWVqhKATjCH7DkKjQq8N0ed_enw8gIvxKbVPW8KSoyY\u001b[1;29r\u001b[H\u001b[13B"
    ],
    [
      0.040819,
      "\u001b[16;28r\u001b[H\u001b[24dbvt-node: looking in DHT:  uZLS9n2v7KafsLmp-iR9WbzyXE836r-66zRD-ktBdfA\u001b[1;29r\u001b[H\u001b[13B"
    ],
    [
      0.053432,
      "\u001b[1;14r\u001b[H\u001b[14d\u001b[37m/\u001b[39m \u001b[1;29r\u001b[H\u001b[14;3H"
    ],
    [
      0.034922,
      "\u001b[16;28r\u001b[H\u001b[25dbvt-node: storing in DHT:  uZLS9n2v7KafsLmp-iR9WbzyXE836r-66zRD-ktBdfA\u001b[1;29r\u001b[H\u001b[14;3H"
    ],
    [
      0.024466,
      "\u001b[16;28r\u001b[H\u001b[26dbvt-node: looking in DHT:  i5FDLo7ZjHUm8-JeY1ehLiFxnPZai9Vgfmk74f-FLDE\u001b[1;29r\u001b[H\u001b[14;3H"
    ],
    [
      0.040963,
      "\u001b[1;14r\u001b[H\u001b[14d  \r\u001b[37m-\u001b[39m \u001b[1;29r\u001b[H\u001b[14;3H"
    ],
    [
      0.041461,
      "\u001b[16;28r\u001b[H\u001b[27dbvt-node: storing in DHT:  i5FDLo7ZjHUm8-JeY1ehLiFxnPZai9Vgfmk74f-FLDE\u001b[1;29r\u001b[H\u001b[14;3H"
    ],
    [
      0.018217,
      "\u001b[16;28r\u001b[H\u001b[28dbvt-node: looking in DHT:  mosCeHDODNNitw7RPMB7UNGGTRDcepdCWOGv1UproWs\r\n\u001b[1;29r\u001b[H\u001b[14;3H"
    ],
    [
      0.04092,
      "\u001b[1;14r\u001b[H\u001b[14d  \r\u001b[37m\\\u001b[39m \u001b[1;29r\u001b[H\u001b[14;3H"
    ],
    [
      0.041852,
      "\u001b[16;28r\u001b[H\u001b[28dbvt-node: storing in DHT:  mosCeHDODNNitw7RPMB7UNGGTRDcepdCWOGv1UproWs\u001b[1;29r\u001b[H\u001b[14;3H\u001b[16;28r\u001b[H\u001b[28d\n\u001b[1;29r\u001b[H\u001b[14;3H"
    ],
    [
      0.025764,
      "\u001b[16;28r\u001b[H\u001b[28dbvt-node: looking in DHT:  -fyeuhl0L5c4yo7yFtdJ1wM3hCiVHq2tIW0eONLo2i4\r\n\u001b[1;29r\u001b[H\u001b[14;3H"
    ],
    [
      0.032981,
      "\b\r"
    ],
    [
      4.4e-05,
      "\u001b[1;14r\u001b[H\u001b[14d \u001b[1;29r\u001b[H\u001b[14;2H\u001b[1;14r\u001b[H\u001b[14;2H \u001b[1;29r\u001b[H\u001b[14;3H"
    ],
    [
      0.000126,
      "\b\r"
    ],
    [
      0.000129,
      "\u001b[1;14r\u001b[H\u001b[14d\u001b[37m|\u001b[39m \u001b[1;29r\u001b[H\u001b[14;3H"
    ],
    [
      0.044126,
      "\u001b[16;28r\u001b[H\u001b[28dbvt-node: storing in DHT:  -fyeuhl0L5c4yo7yFtdJ1wM3hCiVHq2tIW0eONLo2i4\r\n\u001b[1;29r\u001b[H\u001b[14;3H"
    ],
    [
      0.002418,
      "\u001b[16;28r\u001b[H\u001b[28dbvt-node: storing in DHT:  kWVqhKATjCH7DkKjQq8N0ed_enw8gIvxKbVPW8KSoyY\r\n\u001b[1;29r\u001b[H\u001b[14;3H"
    ],
    [
      0.002285,
      "\u001b[16;28r\u001b[H\u001b[28dbvt-node: looking in DHT:  eg65WjHU30z1-Al0x46DMMvSXWotieh6EcKO8c_NlMU\r\n\u001b[1;29r\u001b[H\u001b[14;3H"
    ],
    [
      0.00319,
      "\u001b[16;28r\u001b[H\u001b[28dbvt-node: looking in DHT:  7rQI2k66z2--FUssmTtguBjgdc7Qbf0nO0U0L3vn7gk\r\n\u001b[1;29r\u001b[H\u001b[14;3H"
    ],
    [
      0.039442,
      "\u001b[16;28r\u001b[H\u001b[28dbvt-node: storing in DHT:  7rQI2k66z2--FUssmTtguBjgdc7Qbf0nO0U0L3vn7gk\r\n\u001b[1;29r\u001b[H\u001b[14;3H"
    ],
    [
      0.002848,
      "\u001b[16;28r\u001b[H\u001b[28dbvt-node: storing in DHT:  eg65WjHU30z1-Al0x46DMMvSXWotieh6EcKO8c_NlMU\u001b[1;29r\u001b[H\u001b[14;3H"
    ],
    [
      0.004413,
      "\u001b[16;28r\u001b[H\u001b[28d\n\u001b[1;29r\u001b[H\u001b[14;3H"
    ],
    [
      0.001977,
      "\b\r\u001b[1;14r\u001b[H\u001b[14d \u001b[1;29r\u001b[H\u001b[14;2H\u001b[1;14r\u001b[H\u001b[14;2H \u001b[1;29r\u001b[H\u001b[14;3H\b"
    ],
    [
      4.1e-05,
      "\r"
    ],
    [
      0.000212,
      "\u001b[1;14r\u001b[H\u001b[14d\u001b[37m/\u001b[39m \u001b[1;29r\u001b[H\u001b[14;3H"
    ],
    [
      0.000787,
      "\u001b[16;28r\u001b[H\u001b[28dbvt-node: looking in DHT:  D7WxHczxSmPD_ewvuTBLJD5tlBuyMM3PRUgm7gY_j58\u001b[1;29r\u001b[H\u001b[14;3H\u001b[16;28r\u001b[H\u001b[28d\n\u001b[1;29r\u001b[H\u001b[14;3H"
    ],
    [
      0.002348,
      "\u001b[16;28r\u001b[H\u001b[28dbvt-node: looking in DHT:  E09Fu_iS7DKj5rcrIws7DUWFkK3PUSVULs50LMk_Arg\u001b[1;29r\u001b[H\u001b[14;3H\u001b[16;28r\u001b[H\u001b[28d\n\u001b[1;29r\u001b[H\u001b[14;3H"
    ],
    [
      0.037015,
      "\u001b[16;28r\u001b[H\u001b[28dbvt-node: storing in DHT:  E09Fu_iS7DKj5rcrIws7DUWFkK3PUSVULs50LMk_Arg\u001b[1;29r\u001b[H\u001b[14;3H\u001b[16;28r\u001b[H\u001b[28d\n\u001b[1;29r\u001b[H\u001b[14;3H"
    ],
    [
      0.002993,
      "\u001b[16;28r\u001b[H\u001b[28dbvt-node: storing in DHT:  D7WxHczxSmPD_ewvuTBLJD5tlBuyMM3PRUgm7gY_j58\r\n\u001b[1;29r\u001b[H\u001b[14;3H"
    ],
    [
      0.00173,
      "\u001b[16;28r\u001b[H\u001b[28dbvt-node: looking in DHT:  FbbbZj9DUK6aGqRHk5VlxLbO9woqvVWin8Akhh0W8hQ\r\n\u001b[1;29r\u001b[H\u001b[14;3H"
    ],
    [
      0.01195,
      "\u001b[16;28r\u001b[H\u001b[28dbvt-node: looking in DHT:  FWa96_fUj7ONTi-YXGhhD4-eqYhVrlgVHEWAejrbJ8M\r\n\u001b[1;29r\u001b[H\u001b[14;3H"
    ],
    [
      0.043517,
      "\u001b[1;14r\u001b[H\u001b[14d  \r\u001b[37m-\u001b[39m \u001b[1;29r\u001b[H\u001b[14;3H"
    ],
    [
      0.012374,
      "\u001b[16;28r\u001b[H\u001b[28dbvt-node: storing in DHT:  FWa96_fUj7ONTi-YXGhhD4-eqYhVrlgVHEWAejrbJ8M\u001b[1;29r\u001b[H\u001b[14;3H\u001b[16;28r\u001b[H\u001b[28d\n\u001b[1;29r\u001b[H\u001b[14;3H"
    ],
    [
      0.008694,
      "\u001b[16;28r\u001b[H\u001b[28dbvt-node: looking in DHT:  VmrukpwZV_QVLtJCPrWOoqsdefUo94CWu7C0uizppxE\r\n\u001b[1;29r\u001b[H\u001b[14;3H"
    ],
    [
      0.053556,
      "\u001b[16;28r\u001b[H\u001b[28dbvt-node: storing in DHT:  VmrukpwZV_QVLtJCPrWOoqsdefUo94CWu7C0uizppxE\r\n\u001b[1;29r\u001b[H\u001b[14;3H"
    ],
    [
      0.015882,
      "\u001b[16;28r\u001b[H\u001b[28dbvt-node: looking in DHT:  6hr7BICkuNVrwSyoGXbjBYu0FPB39UC5nlGxllOQoz4\r\n\u001b[1;29r\u001b[H\u001b[14;3H"
    ],
    [
      0.009712,
      "\u001b[1;14r\u001b[H\u001b[14d  \r\u001b[37m\\\u001b[39m \u001b[1;29r\u001b[H\u001b[14;3H"
    ],
    [
      0.070599,
      "\u001b[16;28r\u001b[H\u001b[28dbvt-node: storing in DHT:  6hr7BICkuNVrwSyoGXbjBYu0FPB39UC5nlGxllOQoz4\r\n\u001b[1;29r\u001b[H\u001b[14;3H"
    ],
    [
      0.008405,
      "\u001b[16;28r\u001b[H\u001b[28dbvt-node: looking in DHT:  muKtlC6m5t4VQbehVp1AP2yN8_44aAK6C1vBmLnWyrs\r\n\u001b[1;29r\u001b[H\u001b[14;3H"
    ],
    [
      0.021368,
      "\u001b[1;14r\u001b[H\u001b[14d  \r\u001b[37m|\u001b[39m \u001b[1;29r\u001b[H\u001b[14;3H"
    ],
    [
      0.029656,
      "\u001b[16;28r\u001b[H\u001b[28dbvt-node: storing in DHT:  muKtlC6m5t4VQbehVp1AP2yN8_44aAK6C1vBmLnWyrs\r\n\u001b[1;29r\u001b[H\u001b[14;3H"
    ],
    [
      0.070811,
      "\u001b[1;14r\u001b[H\u001b[14d  \r\u001b[37m/\u001b[39m \u001b[1;29r\u001b[H\u001b[14;3H"
    ],
    [
      0.007334,
      "\u001b[16;28r\u001b[H\u001b[28dbvt-node: looking in DHT:  7bsOYwm6aaGa8HzyuY6V58Hg75a86vyuabY3bHbmnXE\u001b[1;29r\u001b[H\u001b[14;3H\u001b[16;28r\u001b[H\u001b[28d\n\u001b[1;29r\u001b[H\u001b[14;3H"
    ],
    [
      0.094503,
      "\u001b[1;14r\u001b[H\u001b[14d  \r\u001b[37m-\u001b[39m \u001b[1;29r\u001b[H\u001b[14;3H"
    ],
    [
      0.10026,
      "\u001b[1;14r\u001b[H\u001b[14d  \r\u001b[37m\\\u001b[39m \u001b[1;29r\u001b[H\u001b[14;3H"
    ],
    [
      0.002808,
      "\u001b[16;28r\u001b[H\u001b[28dbvt-node: storing in DHT:  7bsOYwm6aaGa8HzyuY6V58Hg75a86vyuabY3bHbmnXE\r\n\u001b[1;29r\u001b[H\u001b[14;3H"
    ],
    [
      0.013692,
      "\u001b[16;28r\u001b[H\u001b[28dbvt-node: looking in DHT:  HDdRhgXtIxsytOwJYphMLugwrnfgfuENM82UGzKUpC0\u001b[1;29r\u001b[H\u001b[14;3H\u001b[16;28r\u001b[H\u001b[28d\n\u001b[1;29r\u001b[H\u001b[14;3H"
    ],
    [
      0.070353,
      "\u001b[16;28r\u001b[H\u001b[28dbvt-node: storing in DHT:  HDdRhgXtIxsytOwJYphMLugwrnfgfuENM82UGzKUpC0\r\n\u001b[1;29r\u001b[H\u001b[14;3H"
    ],
    [
      0.013425,
      "\u001b[1;14r\u001b[H\u001b[14d  \r\u001b[37m|\u001b[39m \u001b[1;29r\u001b[H\u001b[14;3H"
    ],
    [
      0.01253,
      "\u001b[16;28r\u001b[H\u001b[28dbvt-node: looking in DHT:  NA-Uzenz7h4M4TXggJlSzgjLS0IN772CbpT-yzUCCP4\u001b[1;29r\u001b[H\u001b[14;3H\u001b[16;28r\u001b[H\u001b[28d\n\u001b[1;29r\u001b[H\u001b[14;3H"
    ],
    [
      0.081876,
      "\u001b[16;28r\u001b[H\u001b[28dbvt-node: storing in DHT:  NA-Uzenz7h4M4TXggJlSzgjLS0IN772CbpT-yzUCCP4\u001b[1;29r\u001b[H\u001b[14;3H\u001b[16;28r\u001b[H\u001b[28d\n\u001b[1;29r\u001b[H\u001b[14;3H"
    ],
    [
      0.005752,
      "\u001b[1;14r\u001b[H\u001b[14d  \r\u001b[37m/\u001b[39m \u001b[1;29r\u001b[H\u001b[14;3H"
    ],
    [
      0.017828,
      "\u001b[16;28r\u001b[H\u001b[28dbvt-node: looking in DHT:  RAkwiybLtSXG_Oz87dcOo6BhGgyehcM6ShaHvBe-SGU\u001b[1;29r\u001b[H\u001b[14;3H\u001b[16;28r\u001b[H\u001b[28d\n\u001b[1;29r\u001b[H\u001b[14;3H"
    ],
    [
      0.082311,
      "\u001b[1;14r\u001b[H\u001b[14d  \r\u001b[37m-\u001b[39m \u001b[1;29r\u001b[H\u001b[14;3H"
    ],
    [
      0.013584,
      "\u001b[16;28r\u001b[H\u001b[28dbvt-node: storing in DHT:  RAkwiybLtSXG_Oz87dcOo6BhGgyehcM6ShaHvBe-SGU\r\n\u001b[1;29r\u001b[H\u001b[14;3H"
    ],
    [
      0.012906,
      "\u001b[16;28r\u001b[H\u001b[28dbvt-node: looking in DHT:  mIAo7juPD7DTDFwp6SrqkzyLNDFBVflRUSYln8WdRjw\r\n\u001b[1;29r\u001b[H\u001b[14;3H"
    ],
    [
      0.063366,
      "\u001b[16;28r\u001b[H\u001b[28dbvt-node: storing in DHT:  mIAo7juPD7DTDFwp6SrqkzyLNDFBVflRUSYln8WdRjw\u001b[1;29r\u001b[H\u001b[14;3H"
    ],
    [
      0.00019,
      "\u001b[16;28r\u001b[H\u001b[28d\n\u001b[1;29r\u001b[H\u001b[14;3H"
    ],
    [
      0.00812,
      "\u001b[16;28r\u001b[H\u001b[28dbvt-node: looking in DHT:  lRSnz9ZG-eeq1xkG2xmP4qL7trDLNrDQCzgED4xZYTU\r\n\u001b[1;29r\u001b[H\u001b[14;3H"
    ],
    [
      0.00258,
      "\u001b[1;14r\u001b[H\u001b[14d  \r\u001b[37m\\\u001b[39m \u001b[1;29r\u001b[H\u001b[14;3H"
    ],
    [
      0.054686,
      "\u001b[16;28r\u001b[H\u001b[28dbvt-node: storing in DHT:  lRSnz9ZG-eeq1xkG2xmP4qL7trDLNrDQCzgED4xZYTU\r\n\u001b[1;29r\u001b[H\u001b[14;3H"
    ],
    [
      0.025502,
      "\u001b[16;28r\u001b[H\u001b[28dbvt-node: looking in DHT:  XnyUEjTEXD6b2oNj2JeBYj_DRtEA2SNCt8QWbiBSRdc\r\n\u001b[1;29r\u001b[H\u001b[14;3H"
    ],
    [
      0.02016,
      "\u001b[1;14r\u001b[H\u001b[14d  \r\u001b[37m|\u001b[39m \u001b[1;29r\u001b[H\u001b[14;3H"
    ],
    [
      0.07817,
      "\u001b[16;28r\u001b[H\u001b[28dbvt-node: storing in DHT:  XnyUEjTEXD6b2oNj2JeBYj_DRtEA2SNCt8QWbiBSRdc\u001b[1;29r\u001b[H\u001b[14;3H"
    ],
    [
      0.000202,
      "\u001b[16;28r\u001b[H\u001b[28d\n\u001b[1;29r\u001b[H\u001b[14;3H"
    ],
    [
      0.021798,
      "\u001b[1;14r\u001b[H\u001b[14d  \r\u001b[37m/\u001b[39m \u001b[1;29r\u001b[H\u001b[14;3H"
    ],
    [
      0.050435,
      "\u001b[16;28r\u001b[H\u001b[28dbvt-node: looking in DHT:  re_IJq_QynjGH1qQW2capiFJGHIMfw_lBwssyrLNKc4\u001b[1;29r\u001b[H\u001b[14;3H"
    ],
    [
      0.000129,
      "\u001b[16;28r\u001b[H\u001b[28d\n\u001b[1;29r\u001b[H\u001b[14;3H"
    ],
    [
      0.05001,
      "\u001b[1;14r\u001b[H\u001b[14d  \r\u001b[37m-\u001b[39m \u001b[1;29r\u001b[H\u001b[14;3H"
    ],
    [
      0.100458,
      "\u001b[1;14r\u001b[H\u001b[14d  \r\u001b[37m\\\u001b[39m \u001b[1;29r\u001b[H\u001b[14;3H"
    ],
    [
      0.021053,
      "\u001b[16;28r\u001b[H\u001b[28dbvt-node: storing in DHT:  re_IJq_QynjGH1qQW2capiFJGHIMfw_lBwssyrLNKc4\u001b[1;29r\u001b[H\u001b[14;3H"
    ],
    [
      0.000149,
      "\u001b[16;28r\u001b[H\u001b[28d\n\u001b[1;29r\u001b[H\u001b[14;3H"
    ],
    [
      0.051657,
      "\u001b[16;28r\u001b[H\u001b[28dbvt-node: looking in DHT:  _xyNpDNui7EwA1xc3Rd2SRjyThV1-HDclXCflcoD_-k\r\n\u001b[1;29r\u001b[H\u001b[14;3H"
    ],
    [
      0.029299,
      "\u001b[1;14r\u001b[H\u001b[14d  \r\u001b[37m|\u001b[39m \u001b[1;29r\u001b[H\u001b[14;3H"
    ],
    [
      0.091894,
      "\u001b[16;28r\u001b[H\u001b[28dbvt-node: storing in DHT:  _xyNpDNui7EwA1xc3Rd2SRjyThV1-HDclXCflcoD_-k\u001b[1;29r\u001b[H\u001b[14;3H"
    ],
    [
      0.000152,
      "\u001b[16;28r\u001b[H\u001b[28d\n\u001b[1;29r\u001b[H\u001b[14;3H"
    ],
    [
      0.008403,
      "\u001b[1;14r\u001b[H\u001b[14d  \r\u001b[37m/\u001b[39m \u001b[1;29r\u001b[H\u001b[14;3H"
    ],
    [
      0.01458,
      "\u001b[16;28r\u001b[H\u001b[28dbvt-node: looking in DHT:  GSi6HLeiu2tjTnVFo_tUtVGwygkrvonFIemhRCQTm7E\u001b[1;29r\u001b[H\u001b[14;3H"
    ],
    [
      0.000164,
      "\u001b[16;28r\u001b[H\u001b[28d\n\u001b[1;29r\u001b[H\u001b[14;3H"
    ],
    [
      0.085787,
      "\u001b[1;14r\u001b[H\u001b[14d  \r\u001b[37m-\u001b[39m \u001b[1;29r\u001b[H\u001b[14;3H"
    ],
    [
      0.000575,
      "\u001b[16;28r\u001b[H\u001b[28dbvt-node: storing in DHT:  GSi6HLeiu2tjTnVFo_tUtVGwygkrvonFIemhRCQTm7E\r\n\u001b[1;29r\u001b[H\u001b[14;3H"
    ],
    [
      0.034366,
      "\u001b[16;28r\u001b[H\u001b[28dbvt-node: looking in DHT:  kSSkfuq3F9H648jemWC6yMOPDytLAuREmFPcxPlo1sk\r\n\u001b[1;29r\u001b[H\u001b[14;3H"
    ],
    [
      0.065002,
      "\u001b[1;14r\u001b[H\u001b[14d  \r\u001b[37m\\\u001b[39m \u001b[1;29r\u001b[H\u001b[14;3H"
    ],
    [
      0.034406,
      "\u001b[16;28r\u001b[H\u001b[28dbvt-node: storing in DHT:  kSSkfuq3F9H648jemWC6yMOPDytLAuREmFPcxPlo1sk\u001b[1;29r\u001b[H\u001b[14;3H"
    ],
    [
      0.000119,
      "\u001b[16;28r\u001b[H\u001b[28d\n\u001b[1;29r\u001b[H\u001b[14;3H"
    ],
    [
      0.016391,
      "\u001b[16;28r\u001b[H\u001b[28dbvt-node: looking in DHT:  3-Rvf28JyAYhMwSGhX83VI71K8-jUig8EeWkU4Dt_Tk\r\n\u001b[1;29r\u001b[H\u001b[14;3H"
    ],
    [
      0.049529,
      "\u001b[1;14r\u001b[H\u001b[14d  \r\u001b[37m|\u001b[39m \u001b[1;29r\u001b[H\u001b[14;3H"
    ],
    [
      0.028152,
      "\u001b[16;28r\u001b[H\u001b[28dbvt-node: storing in DHT:  3-Rvf28JyAYhMwSGhX83VI71K8-jUig8EeWkU4Dt_Tk\r\n\u001b[1;29r\u001b[H\u001b[14;3H"
    ],
    [
      0.027164,
      "\u001b[16;28r\u001b[H\u001b[28dbvt-node: looking in DHT:  i87tSRhOQ-PMHuwRtefnj6Qm0yj-rvEYcmFWNLIJ2a8\r\n\u001b[1;29r\u001b[H\u001b[14;3H"
    ],
    [
      0.045285,
      "\u001b[1;14r\u001b[H\u001b[14d  \r\u001b[37m/\u001b[39m \u001b[1;29r\u001b[H\u001b[14;3H"
    ],
    [
      0.045357,
      "\u001b[16;28r\u001b[H\u001b[28dbvt-node: storing in DHT:  i87tSRhOQ-PMHuwRtefnj6Qm0yj-rvEYcmFWNLIJ2a8\r\n\u001b[1;29r\u001b[H\u001b[14;3H"
    ],
    [
      0.025548,
      "\u001b[16;28r\u001b[H\u001b[28dbvt-node: looking in DHT:  76UTg5Fc5SFBrTBLnli3OfjJVXpee_RshfMbu5C9VUY\u001b[1;29r\u001b[H\u001b[14;3H\u001b[16;28r\u001b[H\u001b[28d\n\u001b[1;29r\u001b[H\u001b[14;3H"
    ],
    [
      0.029536,
      "\u001b[1;14r\u001b[H\u001b[14d  \r\u001b[37m-\u001b[39m \u001b[1;29r\u001b[H\u001b[14;3H"
    ],
    [
      0.075091,
      "\u001b[16;28r\u001b[H\u001b[28dbvt-node: storing in DHT:  76UTg5Fc5SFBrTBLnli3OfjJVXpee_RshfMbu5C9VUY\u001b[1;29r\u001b[H\u001b[14;3H"
    ],
    [
      6.1e-05,
      "\u001b[16;28r\u001b[H\u001b[28d\n\u001b[1;29r\u001b[H\u001b[14;3H"
    ],
    [
      0.009372,
      "\u001b[16;28r\u001b[H\u001b[28dbvt-node: looking in DHT:  3A0S8Qk6oE_5T2UlOV_wlL7M0i7nFCdj2oc8RQ0N-Jo\u001b[1;29r\u001b[H\u001b[14;3H\u001b[16;28r\u001b[H\u001b[28d\n\u001b[1;29r\u001b[H\u001b[14;3H"
    ],
    [
      0.015677,
      "\u001b[1;14r\u001b[H\u001b[14d  \u001b[1;29r\u001b[H\u001b[13B\u001b[1;14r\u001b[H\u001b[14d\u001b[37m\\\u001b[39m \u001b[1;29r\u001b[H\u001b[14;3H"
    ],
    [
      0.046381,
      "\u001b[16;28r\u001b[H\u001b[28dbvt-node: storing in DHT:  3A0S8Qk6oE_5T2UlOV_wlL7M0i7nFCdj2oc8RQ0N-Jo\u001b[1;29r\u001b[H\u001b[14;3H\u001b[16;28r\u001b[H\u001b[28d\n\u001b[1;29r\u001b[H\u001b[14;3H"
    ],
    [
      0.007071,
      "\u001b[16;28r\u001b[H\u001b[28dbvt-node: looking in DHT:  A4ezjYK6j5uPtIBXVCqMA5U4Eaiv53-m6jfIZVRUy8A\u001b[1;29r\u001b[H\u001b[14;3H\u001b[16;28r\u001b[H\u001b[28d\n\u001b[1;29r\u001b[H\u001b[14;3H"
    ],
    [
      0.047585,
      "\u001b[1;14r\u001b[H\u001b[14d  \r\u001b[37m|\u001b[39m \u001b[1;29r\u001b[H\u001b[14;3H"
    ],
    [
      0.013508,
      "\u001b[16;28r\u001b[H\u001b[28dbvt-node: storing in DHT:  A4ezjYK6j5uPtIBXVCqMA5U4Eaiv53-m6jfIZVRUy8A\u001b[1;29r\u001b[H\u001b[14;3H"
    ],
    [
      9.8e-05,
      "\u001b[16;28r\u001b[H\u001b[28d\n\u001b[1;29r\u001b[H\u001b[14;3H"
    ],
    [
      0.035283,
      "\u001b[16;28r\u001b[H\u001b[28dbvt-node: looking in DHT:  YAGHdW-qOuIfGU4uk6lCYiV88sC1uL2VKgbH3g1uPsg\u001b[1;29r\u001b[H\u001b[14;3H"
    ],
    [
      0.000209,
      "\u001b[16;28r\u001b[H\u001b[28d\n\u001b[1;29r\u001b[H\u001b[14;3H"
    ],
    [
      0.052144,
      "\u001b[1;14r\u001b[H\u001b[14d  \r\u001b[37m/\u001b[39m \u001b[1;29r\u001b[H\u001b[14;3H"
    ],
    [
      0.048349,
      "\u001b[16;28r\u001b[H\u001b[28dbvt-node: storing in DHT:  YAGHdW-qOuIfGU4uk6lCYiV88sC1uL2VKgbH3g1uPsg\r\n\u001b[1;29r\u001b[H\u001b[14;3H"
    ],
    [
      0.02203,
      "\u001b[16;28r\u001b[H\u001b[28dbvt-node: looking in DHT:  uZ6VdQb1l-giVtN9-CyOqCgqGqcLSthCXuKytqzpcJM\r\n\u001b[1;29r\u001b[H\u001b[14;3H"
    ],
    [
      0.030561,
      "\u001b[1;14r\u001b[H\u001b[14d  \r\u001b[37m-\u001b[39m \u001b[1;29r\u001b[H\u001b[14;3H"
    ],
    [
      0.054131,
      "\u001b[16;28r\u001b[H\u001b[28dbvt-node: storing in DHT:  uZ6VdQb1l-giVtN9-CyOqCgqGqcLSthCXuKytqzpcJM\r\n\u001b[1;29r\u001b[H\u001b[14;3H"
    ],
    [
      0.044969,
      "\u001b[16;28r\u001b[H\u001b[28dbvt-node: looking in DHT:  dO0Gi5ab1QhAiH7OqRI6qy6caBNgMlLVZ2nmFsrgvLc\r\n\u001b[1;29r\u001b[H\u001b[14;3H"
    ],
    [
      0.001748,
      "\u001b[1;14r\u001b[H\u001b[14d  \r\u001b[37m\\\u001b[39m \u001b[1;29r\u001b[H\u001b[14;3H"
    ],
    [
      0.100533,
      "\u001b[1;14r\u001b[H\u001b[14d  \r\u001b[37m|\u001b[39m \u001b[1;29r\u001b[H\u001b[14;3H"
    ],
    [
      0.03352,
      "\u001b[16;28r\u001b[H\u001b[28dbvt-node: storing in DHT:  dO0Gi5ab1QhAiH7OqRI6qy6caBNgMlLVZ2nmFsrgvLc\r\n\u001b[1;29r\u001b[H\u001b[14;3H"
    ],
    [
      0.026707,
      "\u001b[16;28r\u001b[H\u001b[28dbvt-node: looking in DHT:  BfKDdj8kL8ku62LAQQOI9yqeZ1E2ZBwOIFl4iaaxmlM\u001b[1;29r\u001b[H\u001b[14;3H"
    ],
    [
      0.00016,
      "\u001b[16;28r\u001b[H\u001b[28d\n\u001b[1;29r\u001b[H\u001b[14;3H"
    ],
    [
      0.039585,
      "\u001b[1;14r\u001b[H\u001b[14d  \r\u001b[37m/\u001b[39m \u001b[1;29r\u001b[H\u001b[14;3H"
    ],
    [
      0.100653,
      "\u001b[1;14r\u001b[H\u001b[14d  \r\u001b[37m-\u001b[39m \u001b[1;29r\u001b[H\u001b[14;3H"
    ],
    [
      0.100551,
      "\u001b[1;14r\u001b[H\u001b[14d  \r\u001b[37m\\\u001b[39m \u001b[1;29r\u001b[H\u001b[14;3H"
    ],
    [
      0.100436,
      "\u001b[1;14r\u001b[H\u001b[14d  \r\u001b[37m|\u001b[39m \u001b[1;29r\u001b[H\u001b[14;3H"
    ],
    [
      0.100389,
      "\u001b[1;14r\u001b[H\u001b[14d  \r\u001b[37m/\u001b[39m \u001b[1;29r\u001b[H\u001b[14;3H"
    ],
    [
      0.100634,
      "\u001b[1;14r\u001b[H\u001b[14d  \r\u001b[37m-\u001b[39m \u001b[1;29r\u001b[H\u001b[14;3H"
    ],
    [
      0.100568,
      "\u001b[1;14r\u001b[H\u001b[14d  \r\u001b[37m\\\u001b[39m \u001b[1;29r\u001b[H\u001b[14;3H"
    ],
    [
      0.099959,
      "\u001b[1;14r\u001b[H\u001b[14d  \r\u001b[37m|\u001b[39m \u001b[1;29r\u001b[H\u001b[14;3H"
    ],
    [
      0.100162,
      "\u001b[1;14r\u001b[H\u001b[14d  \r\u001b[37m/\u001b[39m \u001b[1;29r\u001b[H\u001b[14;3H"
    ],
    [
      0.100289,
      "\u001b[1;14r\u001b[H\u001b[14d  \r\u001b[37m-\u001b[39m \u001b[1;29r\u001b[H\u001b[14;3H"
    ],
    [
      0.020919,
      "\u001b[16;28r\u001b[H\u001b[28dbvt-node: storing in DHT:  BfKDdj8kL8ku62LAQQOI9yqeZ1E2ZBwOIFl4iaaxmlM\r\n\u001b[1;29r\u001b[H\u001b[14;3H"
    ],
    [
      0.04552,
      "\u001b[16;28r\u001b[H\u001b[28dbvt-node: looking in DHT:  hRGAwggbjXS1nCwU9NDkaRCW5K56C31iAkrk2nAS7kM\r\n\u001b[1;29r\u001b[H\u001b[14;3H"
    ],
    [
      0.03398,
      "\u001b[1;14r\u001b[H\u001b[14d  \r\u001b[37m\\\u001b[39m \u001b[1;29r\u001b[H\u001b[14;3H"
    ],
    [
      0.100603,
      "\u001b[1;14r\u001b[H\u001b[14d  \r\u001b[37m|\u001b[39m \u001b[1;29r\u001b[H\u001b[14;3H"
    ],
    [
      0.004367,
      "\u001b[16;28r\u001b[H\u001b[28dbvt-node: storing in DHT:  hRGAwggbjXS1nCwU9NDkaRCW5K56C31iAkrk2nAS7kM\r\n\u001b[1;29r\u001b[H\u001b[14;3H"
    ],
    [
      0.010617,
      "\u001b[16;28r\u001b[H\u001b[28dbvt-node: looking in DHT:  ldtEG1MrORJx4IA2fh6zO2jt4diy1ZZskXMMM-Xaluk\r\n\u001b[1;29r\u001b[H\u001b[14;3H"
    ],
    [
      0.067811,
      "\u001b[16;28r\u001b[H\u001b[28dbvt-node: storing in DHT:  ldtEG1MrORJx4IA2fh6zO2jt4diy1ZZskXMMM-Xaluk\r\n\u001b[1;29r\u001b[H\u001b[14;3H"
    ],
    [
      0.017613,
      "\u001b[1;14r\u001b[H\u001b[14d  \r\u001b[37m/\u001b[39m \u001b[1;29r\u001b[H\u001b[14;3H"
    ],
    [
      0.034628,
      "\u001b[16;28r\u001b[H\u001b[28dbvt-node: looking in DHT:  c3ekUuNHFCl66c7Y-wPfm247HevGoQY9qmCCcoQe_xk\r\n\u001b[1;29r\u001b[H\u001b[14;3H"
    ],
    [
      0.06634,
      "\u001b[1;14r\u001b[H\u001b[14d  \r\u001b[37m-\u001b[39m \u001b[1;29r\u001b[H\u001b[14;3H"
    ],
    [
      0.056801,
      "\u001b[16;28r\u001b[H\u001b[28dbvt-node: storing in DHT:  c3ekUuNHFCl66c7Y-wPfm247HevGoQY9qmCCcoQe_xk\r\n\u001b[1;29r\u001b[H\u001b[14;3H"
    ],
    [
      0.044014,
      "\u001b[1;14r\u001b[H\u001b[14d  \r\u001b[37m\\\u001b[39m \u001b[1;29r\u001b[H\u001b[14;3H"
    ],
    [
      0.058143,
      "\u001b[16;28r\u001b[H\u001b[28dbvt-node: looking in DHT:  wUgW_hWEZ_Y_5ZcjLmHZ899ZrT0BV6PbfQ-ZB377qHY\r\n\u001b[1;29r\u001b[H\u001b[14;3H"
    ],
    [
      0.042459,
      "\u001b[1;14r\u001b[H\u001b[14d  \r\u001b[37m|\u001b[39m \u001b[1;29r\u001b[H\u001b[14;3H"
    ],
    [
      0.100701,
      "\u001b[1;14r\u001b[H\u001b[14d  \r\u001b[37m/\u001b[39m \u001b[1;29r\u001b[H\u001b[14;3H"
    ],
    [
      0.100036,
      "\u001b[16;28r\u001b[H\u001b[28dbvt-node: storing in DHT:  wUgW_hWEZ_Y_5ZcjLmHZ899ZrT0BV6PbfQ-ZB377qHY\u001b[1;29r\u001b[H\u001b[14;3H"
    ],
    [
      6e-05,
      "\u001b[16;28r\u001b[H\u001b[28d\n\u001b[1;29r\u001b[H\u001b[14;3H"
    ],
    [
      0.000188,
      "\u001b[1;14r\u001b[H\u001b[14d  \r\u001b[37m-\u001b[39m \u001b[1;29r\u001b[H\u001b[14;3H"
    ],
    [
      0.011425,
      "\u001b[16;28r\u001b[H\u001b[28dbvt-node: looking in DHT:  YYgCaehD7XOb9ZCDRQv_465gpUK1C0MKx1sJe3uUy_w\u001b[1;29r\u001b[H\u001b[14;3H\u001b[16;28r\u001b[H\u001b[28d\n\u001b[1;29r\u001b[H\u001b[14;3H"
    ],
    [
      0.071942,
      "\u001b[16;28r\u001b[H\u001b[28dbvt-node: storing in DHT:  YYgCaehD7XOb9ZCDRQv_465gpUK1C0MKx1sJe3uUy_w\r\n\u001b[1;29r\u001b[H\u001b[14;3H"
    ],
    [
      0.007095,
      "\u001b[16;28r\u001b[H\u001b[28dbvt-node: looking in DHT:  wkHXGC0z-aBw1yVyxPzZTcM87-nonl5DxfA0G6otQPE\u001b[1;29r\u001b[H\u001b[14;3H\u001b[16;28r\u001b[H\u001b[28d\n\u001b[1;29r\u001b[H\u001b[14;3H"
    ],
    [
      0.009718,
      "\u001b[1;14r\u001b[H\u001b[14d  \r\u001b[37m\\\u001b[39m \u001b[1;29r\u001b[H\u001b[14;3H"
    ],
    [
      0.045439,
      "\u001b[16;28r\u001b[H\u001b[28dbvt-node: storing in DHT:  wkHXGC0z-aBw1yVyxPzZTcM87-nonl5DxfA0G6otQPE\u001b[1;29r\u001b[H\u001b[14;3H\u001b[16;28r\u001b[H\u001b[28d\n\u001b[1;29r\u001b[H\u001b[14;3H"
    ],
    [
      0.00787,
      "\u001b[16;28r\u001b[H\u001b[28dbvt-node: looking in DHT:  B3Zs918CMgJpaZmdPc0Ve6c_H2dIFpA5oXysGb_fblE\r\n\u001b[1;29r\u001b[H\u001b[14;3H"
    ],
    [
      0.046697,
      "\u001b[1;14r\u001b[H\u001b[14d  \r\u001b[37m|\u001b[39m \u001b[1;29r\u001b[H\u001b[14;3H"
    ],
    [
      0.008475,
      "\u001b[16;28r\u001b[H\u001b[28dbvt-node: storing in DHT:  B3Zs918CMgJpaZmdPc0Ve6c_H2dIFpA5oXysGb_fblE\r\n\u001b[1;29r\u001b[H\u001b[14;3H"
    ],
    [
      0.012254,
      "\u001b[16;28r\u001b[H\u001b[28dbvt-node: looking in DHT:  tFSsDJ-5pHqX__PPTnIWC7Ua-w5H35-ndjtsyI-OUNM\u001b[1;29r\u001b[H\u001b[14;3H\u001b[16;28r\u001b[H\u001b[28d\n\u001b[1;29r\u001b[H\u001b[14;3H"
    ],
    [
      0.080013,
      "\u001b[1;14r\u001b[H\u001b[14d  \r\u001b[37m/\u001b[39m \u001b[1;29r\u001b[H\u001b[14;3H"
    ],
    [
      0.005471,
      "\u001b[16;28r\u001b[H\u001b[28dbvt-node: storing in DHT:  tFSsDJ-5pHqX__PPTnIWC7Ua-w5H35-ndjtsyI-OUNM\r\n\u001b[1;29r\u001b[H\u001b[14;3H"
    ],
    [
      0.011348,
      "\u001b[16;28r\u001b[H\u001b[28dbvt-node: looking in DHT:  jDEUTooA985GYFbftpnXN-WFiRKjiyGJHwOy8SuWVqM\u001b[1;29r\u001b[H\u001b[14;3H\u001b[16;28r\u001b[H\u001b[28d\n\u001b[1;29r\u001b[H\u001b[14;3H"
    ],
    [
      0.070019,
      "\u001b[16;28r\u001b[H\u001b[28dbvt-node: storing in DHT:  jDEUTooA985GYFbftpnXN-WFiRKjiyGJHwOy8SuWVqM\r\n\u001b[1;29r\u001b[H\u001b[14;3H"
    ],
    [
      0.009234,
      "\u001b[16;28r\u001b[H\u001b[28dbvt-node: looking in DHT:  apkFd-nL3U-o8O9Dc6nrrYZk-9bayppzrA_op3TArI4\u001b[1;29r\u001b[H\u001b[14;3H\u001b[16;28r\u001b[H\u001b[28d\n\u001b[1;29r\u001b[H\u001b[14;3H"
    ],
    [
      0.004358,
      "\u001b[1;14r\u001b[H\u001b[14d  \r\u001b[37m-\u001b[39m \u001b[1;29r\u001b[H\u001b[14;3H"
    ],
    [
      0.059294,
      "\u001b[16;28r\u001b[H\u001b[28dbvt-node: storing in DHT:  apkFd-nL3U-o8O9Dc6nrrYZk-9bayppzrA_op3TArI4\r\n\u001b[1;29r\u001b[H\u001b[14;3H"
    ],
    [
      0.017587,
      "\u001b[16;28r\u001b[H\u001b[28dbvt-node: looking in DHT:  qX8L3slT8F2hOp3JPdi6IQraheU4yR30l6s2dhPrCUk\r\n\u001b[1;29r\u001b[H\u001b[14;3H"
    ],
    [
      0.023219,
      "\u001b[1;14r\u001b[H\u001b[14d  \r\u001b[37m\\\u001b[39m \u001b[1;29r\u001b[H\u001b[14;3H"
    ],
    [
      0.058107,
      "\u001b[16;28r\u001b[H\u001b[28dbvt-node: storing in DHT:  qX8L3slT8F2hOp3JPdi6IQraheU4yR30l6s2dhPrCUk\r\n\u001b[1;29r\u001b[H\u001b[14;3H"
    ],
    [
      0.014516,
      "\u001b[16;28r\u001b[H\u001b[28dbvt-node: looking in DHT:  2OLWIZE6N8nhAuBtN2s83j03Mns7Qte0TuE4lUP2zRU\u001b[1;29r\u001b[H\u001b[14;3H\u001b[16;28r\u001b[H\u001b[28d\n\u001b[1;29r\u001b[H\u001b[14;3H"
    ],
    [
      0.027674,
      "\u001b[1;14r\u001b[H\u001b[14d  \r\u001b[37m|\u001b[39m \u001b[1;29r\u001b[H\u001b[14;3H"
    ],
    [
      0.043113,
      "\u001b[16;28r\u001b[H\u001b[28dbvt-node: storing in DHT:  2OLWIZE6N8nhAuBtN2s83j03Mns7Qte0TuE4lUP2zRU\r\n\u001b[1;29r\u001b[H\u001b[14;3H"
    ],
    [
      0.012708,
      "\u001b[16;28r\u001b[H\u001b[28dbvt-node: looking in DHT:  ie5X3UmGZ_t3zR0WMfV9_C7VIdcBCgTNu-dnFBkpJuI\r\n\u001b[1;29r\u001b[H\u001b[14;3H"
    ],
    [
      0.044493,
      "\u001b[1;14r\u001b[H\u001b[14d  \r\u001b[37m/\u001b[39m \u001b[1;29r\u001b[H\u001b[14;3H"
    ],
    [
      0.011713,
      "\u001b[16;28r\u001b[H\u001b[28dbvt-node: storing in DHT:  ie5X3UmGZ_t3zR0WMfV9_C7VIdcBCgTNu-dnFBkpJuI\u001b[1;29r\u001b[H\u001b[14;3H\u001b[16;28r\u001b[H\u001b[28d\n\u001b[1;29r\u001b[H\u001b[14;3H"
    ],
    [
      0.014272,
      "\u001b[16;28r\u001b[H\u001b[28dbvt-node: looking in DHT:  WqGiCMmWCP3i2evERbGRxGZNXNWnMk04eDdJU4C66fc\r\n\u001b[1;29r\u001b[H\u001b[14;3H"
    ],
    [
      0.053106,
      "\u001b[16;28r\u001b[H\u001b[28dbvt-node: storing in DHT:  WqGiCMmWCP3i2evERbGRxGZNXNWnMk04eDdJU4C66fc\r\n\u001b[1;29r\u001b[H\u001b[14;3H"
    ],
    [
      0.021123,
      "\u001b[1;14r\u001b[H\u001b[14d  \r\u001b[37m-\u001b[39m \u001b[1;29r\u001b[H\u001b[14;3H"
    ],
    [
      0.015765,
      "\u001b[16;28r\u001b[H\u001b[28dbvt-node: looking in DHT:  Y7ztnMd7BTJZlrYDDP_LTbPXYHCD22kADjEvnqE2KE4\r\n\u001b[1;29r\u001b[H\u001b[14;3H"
    ],
    [
      0.085215,
      "\u001b[1;14r\u001b[H\u001b[14d  \r\u001b[37m\\\u001b[39m \u001b[1;29r\u001b[H\u001b[14;3H"
    ],
    [
      0.008235,
      "\u001b[16;28r\u001b[H\u001b[28dbvt-node: storing in DHT:  Y7ztnMd7BTJZlrYDDP_LTbPXYHCD22kADjEvnqE2KE4\r\n\u001b[1;29r\u001b[H\u001b[14;3H"
    ],
    [
      0.027513,
      "\u001b[16;28r\u001b[H\u001b[28dbvt-node: looking in DHT:  Ck-PNc3NQqPPAfxfjE-PRuAxLbZDD8DNH-jK6H-u35M\r\n\u001b[1;29r\u001b[H\u001b[14;3H"
    ],
    [
      0.064696,
      "\u001b[1;14r\u001b[H\u001b[14d  \r\u001b[37m|\u001b[39m \u001b[1;29r\u001b[H\u001b[14;3H"
    ],
    [
      0.027766,
      "\u001b[16;28r\u001b[H\u001b[28dbvt-node: storing in DHT:  Ck-PNc3NQqPPAfxfjE-PRuAxLbZDD8DNH-jK6H-u35M\r\n\u001b[1;29r\u001b[H\u001b[14;3H"
    ],
    [
      0.022061,
      "\u001b[16;28r\u001b[H\u001b[28dbvt-node: looking in DHT:  sPtlORu8NS977IIzgmmiAdMtLVvBuOQOF9GOim9zE8U\r\n\u001b[1;29r\u001b[H\u001b[14;3H"
    ],
    [
      0.050804,
      "\u001b[1;14r\u001b[H\u001b[14d  \r\u001b[37m/\u001b[39m \u001b[1;29r\u001b[H\u001b[14;3H"
    ],
    [
      0.032832,
      "\u001b[16;28r\u001b[H\u001b[28dbvt-node: storing in DHT:  sPtlORu8NS977IIzgmmiAdMtLVvBuOQOF9GOim9zE8U\r\n\u001b[1;29r\u001b[H\u001b[14;3H"
    ],
    [
      0.008353,
      "\u001b[16;28r\u001b[H\u001b[28dbvt-node: looking in DHT:  VfNAl5g3YmZUJenL9CEqY81uEAupTZfXF6_9doNwEWc\r\n\u001b[1;29r\u001b[H\u001b[14;3H"
    ],
    [
      0.055829,
      "\u001b[16;28r\u001b[H\u001b[28dbvt-node: storing in DHT:  VfNAl5g3YmZUJenL9CEqY81uEAupTZfXF6_9doNwEWc\r\n\u001b[1;29r\u001b[H\u001b[14;3H"
    ],
    [
      0.003344,
      "\u001b[1;14r\u001b[H\u001b[14d  \r\u001b[37m-\u001b[39m \u001b[1;29r\u001b[H\u001b[14;3H"
    ],
    [
      0.009823,
      "\u001b[16;28r\u001b[H\u001b[28dbvt-node: looking in DHT:  AdDCXzTBMRA6tjXt-eAZujdy6KVxDyRQ5EWS_OlBO0A\r\n\u001b[1;29r\u001b[H\u001b[14;3H"
    ],
    [
      0.071595,
      "\u001b[16;28r\u001b[H\u001b[28dbvt-node: storing in DHT:  AdDCXzTBMRA6tjXt-eAZujdy6KVxDyRQ5EWS_OlBO0A\r\n\u001b[1;29r\u001b[H\u001b[14;3H"
    ],
    [
      0.00831,
      "\u001b[16;28r\u001b[H\u001b[28dbvt-node: looking in DHT:  SCfBK1woDeYE8yCgnWakMIBAso7EpnYLyhDpWWaA04E\r\n\u001b[1;29r\u001b[H\u001b[14;3H"
    ],
    [
      0.010521,
      "\u001b[1;14r\u001b[H\u001b[14d  \r\u001b[37m\\\u001b[39m \u001b[1;29r\u001b[H\u001b[14;3H"
    ],
    [
      0.050766,
      "\u001b[16;28r\u001b[H\u001b[28dbvt-node: storing in DHT:  SCfBK1woDeYE8yCgnWakMIBAso7EpnYLyhDpWWaA04E\r\n\u001b[1;29r\u001b[H\u001b[14;3H"
    ],
    [
      0.008244,
      "\u001b[16;28r\u001b[H\u001b[28dbvt-node: looking in DHT:  aixHKwY43fW2RhU6kNJdY5tEv009XLqRt3c5lPlE4-A\r\n\u001b[1;29r\u001b[H\u001b[14;3H"
    ],
    [
      0.041677,
      "\u001b[1;14r\u001b[H\u001b[14d  \r\u001b[37m|\u001b[39m \u001b[1;29r\u001b[H\u001b[14;3H"
    ],
    [
      0.017016,
      "\u001b[16;28r\u001b[H\u001b[28dbvt-node: storing in DHT:  aixHKwY43fW2RhU6kNJdY5tEv009XLqRt3c5lPlE4-A\r\n\u001b[1;29r\u001b[H\u001b[14;3H"
    ],
    [
      0.027707,
      "\u001b[16;28r\u001b[H\u001b[28dbvt-node: looking in DHT:  JMpJ3JfH1MMUU2r1mKOGZn9voGXWz1vyRrxeJ9OU-jY\r\n\u001b[1;29r\u001b[H\u001b[14;3H"
    ],
    [
      0.0551,
      "\u001b[1;14r\u001b[H\u001b[14d  \r\u001b[37m/\u001b[39m \u001b[1;29r\u001b[H\u001b[14;3H"
    ],
    [
      0.033776,
      "\u001b[16;28r\u001b[H\u001b[28dbvt-node: storing in DHT:  JMpJ3JfH1MMUU2r1mKOGZn9voGXWz1vyRrxeJ9OU-jY\r\n\u001b[1;29r\u001b[H\u001b[14;3H"
    ],
    [
      0.033043,
      "\u001b[16;28r\u001b[H\u001b[28dbvt-node: looking in DHT:  r1aUbfAYBwYTswrzHeMvojMz3A13xZvmq6Ypv-qmbFY\r\n\u001b[1;29r\u001b[H\u001b[14;3H"
    ],
    [
      0.03377,
      "\u001b[1;14r\u001b[H\u001b[14d  \r\u001b[37m-\u001b[39m \u001b[1;29r\u001b[H\u001b[14;3H"
    ],
    [
      0.062617,
      "\u001b[16;28r\u001b[H\u001b[28dbvt-node: storing in DHT:  r1aUbfAYBwYTswrzHeMvojMz3A13xZvmq6Ypv-qmbFY\r\n\u001b[1;29r\u001b[H\u001b[14;3H"
    ],
    [
      0.010753,
      "\u001b[16;28r\u001b[H\u001b[28dbvt-node: looking in DHT:  tw10TSA5IG6ZhqqBMtDsZF7SekLPsX2TKXFnB0j2llM\u001b[1;29r\u001b[H\u001b[14;3H"
    ],
    [
      0.000367,
      "\u001b[16;28r\u001b[H\u001b[28d\n\u001b[1;29r\u001b[H\u001b[14;3H"
    ],
    [
      0.026563,
      "\u001b[1;14r\u001b[H\u001b[14d  \r\u001b[37m\\\u001b[39m \u001b[1;29r\u001b[H\u001b[14;3H"
    ],
    [
      0.037154,
      "\u001b[16;28r\u001b[H\u001b[28dbvt-node: storing in DHT:  tw10TSA5IG6ZhqqBMtDsZF7SekLPsX2TKXFnB0j2llM\r\n\u001b[1;29r\u001b[H\u001b[14;3H"
    ],
    [
      0.008807,
      "\u001b[16;28r\u001b[H\u001b[28dbvt-node: looking in DHT:  rau7CnAVQjczJxFag-MJPKeMB5cd2l8PbtKWwFPIKRM\u001b[1;29r\u001b[H\u001b[14;3H\u001b[16;28r\u001b[H\u001b[28d\n\u001b[1;29r\u001b[H\u001b[14;3H"
    ],
    [
      0.054151,
      "\u001b[1;14r\u001b[H\u001b[14d  \r\u001b[37m|\u001b[39m \u001b[1;29r\u001b[H\u001b[14;3H"
    ],
    [
      0.008023,
      "\u001b[16;28r\u001b[H\u001b[28dbvt-node: storing in DHT:  rau7CnAVQjczJxFag-MJPKeMB5cd2l8PbtKWwFPIKRM\r\n\u001b[1;29r\u001b[H\u001b[14;3H"
    ],
    [
      0.024048,
      "\u001b[16;28r\u001b[H\u001b[28dbvt-node: looking in DHT:  Nn92qySj0d_uxb3y4o3LVisRHSzQMYQOZy2D-HeotmY\r\n\u001b[1;29r\u001b[H\u001b[14;3H"
    ],
    [
      0.068404,
      "\u001b[1;14r\u001b[H\u001b[14d  \u001b[1;29r\u001b[H\u001b[13B\u001b[1;14r\u001b[H\u001b[14d\u001b[37m/\u001b[39m \u001b[1;29r\u001b[H\u001b[14;3H"
    ],
    [
      0.013148,
      "\u001b[16;28r\u001b[H\u001b[28dbvt-node: storing in DHT:  Nn92qySj0d_uxb3y4o3LVisRHSzQMYQOZy2D-HeotmY\r\n\u001b[1;29r\u001b[H\u001b[14;3H"
    ],
    [
      0.010018,
      "\u001b[16;28r\u001b[H\u001b[28dbvt-node: looking in DHT:  vpsKn_W3CRGVM7-arPHKUujSmUsjtpgW3bYJ2CEI3XQ\r\n\u001b[1;29r\u001b[H\u001b[14;3H"
    ],
    [
      0.055224,
      "\u001b[16;28r\u001b[H\u001b[28dbvt-node: storing in DHT:  vpsKn_W3CRGVM7-arPHKUujSmUsjtpgW3bYJ2CEI3XQ\r\n\u001b[1;29r\u001b[H\u001b[14;3H"
    ],
    [
      0.013238,
      "\u001b[16;28r\u001b[H\u001b[28dbvt-node: looking in DHT:  QEqSNsdkqB6oatGpFayTNp0lHs91iEifB-nUOOjLDpM\r\n\u001b[1;29r\u001b[H\u001b[14;3H"
    ],
    [
      0.008862,
      "\u001b[1;14r\u001b[H\u001b[14d  \r\u001b[37m-\u001b[39m \u001b[1;29r\u001b[H\u001b[14;3H"
    ],
    [
      0.057801,
      "\u001b[16;28r\u001b[H\u001b[28dbvt-node: storing in DHT:  QEqSNsdkqB6oatGpFayTNp0lHs91iEifB-nUOOjLDpM\r\n\u001b[1;29r\u001b[H\u001b[14;3H"
    ],
    [
      0.009719,
      "\u001b[16;28r\u001b[H\u001b[28dbvt-node: looking in DHT:  HDRsdxEGZiUQgw654KJC4tB749mont6IiDqH86WiGeY\r\n\u001b[1;29r\u001b[H\u001b[14;3H"
    ],
    [
      0.033043,
      "\u001b[1;14r\u001b[H\u001b[14d  \r\u001b[37m\\\u001b[39m \u001b[1;29r\u001b[H\u001b[14;3H"
    ],
    [
      0.026139,
      "\u001b[16;28r\u001b[H\u001b[28dbvt-node: storing in DHT:  HDRsdxEGZiUQgw654KJC4tB749mont6IiDqH86WiGeY\r\n\u001b[1;29r\u001b[H\u001b[14;3H"
    ],
    [
      0.031178,
      "\u001b[16;28r\u001b[H\u001b[28dbvt-node: looking in DHT:  hR5Mtj-hhnOEuBARHv-auCjz5v8Wt4SRSZxjwvhXBS4\r\n\u001b[1;29r\u001b[H\u001b[14;3H"
    ],
    [
      0.043265,
      "\u001b[1;14r\u001b[H\u001b[14d  \r\u001b[37m|\u001b[39m \u001b[1;29r\u001b[H\u001b[14;3H"
    ],
    [
      0.050839,
      "\u001b[16;28r\u001b[H\u001b[28dbvt-node: storing in DHT:  hR5Mtj-hhnOEuBARHv-auCjz5v8Wt4SRSZxjwvhXBS4\r\n\u001b[1;29r\u001b[H\u001b[14;3H"
    ],
    [
      0.020075,
      "\u001b[16;28r\u001b[H\u001b[28dbvt-node: looking in DHT:  VTLTKvySMNbAdAiapRp2gh1pJJqDO_a30-nwnSWpgjk\r\n\u001b[1;29r\u001b[H\u001b[14;3H"
    ],
    [
      0.029849,
      "\u001b[1;14r\u001b[H\u001b[14d  \r\u001b[37m/\u001b[39m \u001b[1;29r\u001b[H\u001b[14;3H"
    ],
    [
      0.06072,
      "\u001b[16;28r\u001b[H\u001b[28dbvt-node: storing in DHT:  VTLTKvySMNbAdAiapRp2gh1pJJqDO_a30-nwnSWpgjk\r\n\u001b[1;29r\u001b[H\u001b[14;3H"
    ],
    [
      0.032821,
      "\u001b[16;28r\u001b[H\u001b[28dbvt-node: looking in DHT:  8Ele2ihkXS5RacrTntTXLoZ6sQSYjQFIYfMvTaMaaVE\r\n\u001b[1;29r\u001b[H\u001b[14;3H"
    ],
    [
      0.00635,
      "\u001b[1;14r\u001b[H\u001b[14d  \r\u001b[37m-\u001b[39m \u001b[1;29r\u001b[H\u001b[14;3H"
    ],
    [
      0.094905,
      "\u001b[16;28r\u001b[H\u001b[28dbvt-node: storing in DHT:  8Ele2ihkXS5RacrTntTXLoZ6sQSYjQFIYfMvTaMaaVE\r\n\u001b[1;29r\u001b[H\u001b[14;3H"
    ],
    [
      0.00593,
      "\u001b[1;14r\u001b[H\u001b[14d  \r\u001b[37m\\\u001b[39m \u001b[1;29r\u001b[H\u001b[14;3H"
    ],
    [
      0.035258,
      "\u001b[16;28r\u001b[H\u001b[28dbvt-node: looking in DHT:  pLcGHww85MZMuevBNaHYFzBmA3OOuQe5cBbflCmUttA\r\n\u001b[1;29r\u001b[H\u001b[14;3H"
    ],
    [
      0.067981,
      "\u001b[1;14r\u001b[H\u001b[14d  \u001b[1;29r\u001b[H\u001b[13B\u001b[1;14r\u001b[H\u001b[14d\u001b[37m|\u001b[39m \u001b[1;29r\u001b[H\u001b[14;3H"
    ],
    [
      0.04439,
      "\u001b[16;28r\u001b[H\u001b[28dbvt-node: storing in DHT:  pLcGHww85MZMuevBNaHYFzBmA3OOuQe5cBbflCmUttA\r\n\u001b[1;29r\u001b[H\u001b[14;3H"
    ],
    [
      0.025363,
      "\u001b[16;28r\u001b[H\u001b[28dbvt-node: looking in DHT:  BjBC5E1IzRXqaBQ5fp-cFwqLMbb_NEggBYynpqP2GOY\r\n\u001b[1;29r\u001b[H\u001b[14;3H"
    ],
    [
      0.030591,
      "\u001b[1;14r\u001b[H\u001b[14d  \r\u001b[37m/\u001b[39m \u001b[1;29r\u001b[H\u001b[14;3H"
    ],
    [
      0.049751,
      "\u001b[16;28r\u001b[H\u001b[28dbvt-node: storing in DHT:  BjBC5E1IzRXqaBQ5fp-cFwqLMbb_NEggBYynpqP2GOY\r\n\u001b[1;29r\u001b[H\u001b[14;3H"
    ],
    [
      0.040766,
      "\u001b[16;28r\u001b[H\u001b[28dbvt-node: looking in DHT:  PDp33DsQKaAx_v-c8gu9XQsiiJyt3zgYnEhNDSwfdzQ\r\n\u001b[1;29r\u001b[H\u001b[14;3H"
    ],
    [
      0.010049,
      "\u001b[1;14r\u001b[H\u001b[14d  \r\u001b[37m-\u001b[39m \u001b[1;29r\u001b[H\u001b[14;3H"
    ],
    [
      0.10032,
      "\u001b[1;14r\u001b[H\u001b[14d  \r\u001b[37m\\\u001b[39m \u001b[1;29r\u001b[H\u001b[14;3H"
    ],
    [
      0.100647,
      "\u001b[1;14r\u001b[H\u001b[14d  \r\u001b[37m|\u001b[39m \u001b[1;29r\u001b[H\u001b[14;3H"
    ],
    [
      0.100443,
      "\u001b[1;14r\u001b[H\u001b[14d  \r\u001b[37m/\u001b[39m \u001b[1;29r\u001b[H\u001b[14;3H"
    ],
    [
      0.100604,
      "\u001b[1;14r\u001b[H\u001b[14d  \r\u001b[37m-\u001b[39m \u001b[1;29r\u001b[H\u001b[14;3H"
    ],
    [
      0.102944,
      "\u001b[1;14r\u001b[H\u001b[14d  \r\u001b[37m\\\u001b[39m \u001b[1;29r\u001b[H\u001b[14;3H"
    ],
    [
      0.101066,
      "\u001b[1;14r\u001b[H\u001b[14d  \r\u001b[37m|\u001b[39m \u001b[1;29r\u001b[H\u001b[14;3H"
    ],
    [
      0.100432,
      "\u001b[1;14r\u001b[H\u001b[14d  \r\u001b[37m/\u001b[39m \u001b[1;29r\u001b[H\u001b[14;3H"
    ],
    [
      0.100932,
      "\u001b[1;14r\u001b[H\u001b[14d  \r\u001b[37m-\u001b[39m \u001b[1;29r\u001b[H\u001b[14;3H"
    ],
    [
      0.100081,
      "\u001b[1;14r\u001b[H\u001b[14d  \r\u001b[37m\\\u001b[39m \u001b[1;29r\u001b[H\u001b[14;3H"
    ],
    [
      0.110078,
      "\u001b[1;14r\u001b[H\u001b[14d  \r\u001b[37m|\u001b[39m \u001b[1;29r\u001b[H\u001b[14;3H"
    ],
    [
      0.09089,
      "\b"
    ],
    [
      8.4e-05,
      "\r"
    ],
    [
      6.5e-05,
      "\u001b[1;14r\u001b[H\u001b[14d \u001b[1;29r\u001b[H\u001b[14;2H"
    ],
    [
      0.000104,
      "\u001b[1;14r\u001b[H\u001b[14;2H \u001b[1;29r\u001b[H\u001b[14;3H"
    ],
    [
      6.3e-05,
      "\b"
    ],
    [
      0.000125,
      "\r"
    ],
    [
      0.000122,
      "\u001b[1;14r\u001b[H\u001b[14d\u001b[37m/\u001b[39m \u001b[1;29r\u001b[H\u001b[14;3H"
    ],
    [
      0.10095,
      "\b"
    ],
    [
      0.000105,
      "\r"
    ],
    [
      0.000112,
      "\u001b[1;14r\u001b[H\u001b[14d \u001b[1;29r\u001b[H\u001b[14;2H"
    ],
    [
      8.9e-05,
      "\u001b[1;14r\u001b[H\u001b[14;2H \u001b[1;29r\u001b[H\u001b[14;3H"
    ],
    [
      5.5e-05,
      "\b"
    ],
    [
      0.000102,
      "\r"
    ],
    [
      8.9e-05,
      "\u001b[1;14r\u001b[H\u001b[14d\u001b[37m-\u001b[39m \u001b[1;29r\u001b[H\u001b[14;3H"
    ],
    [
      0.100476,
      "\b"
    ],
    [
      8.9e-05,
      "\r"
    ],
    [
      8.9e-05,
      "\u001b[1;14r\u001b[H\u001b[14d \u001b[1;29r\u001b[H\u001b[14;2H"
    ],
    [
      8.2e-05,
      "\u001b[1;14r\u001b[H\u001b[14;2H \u001b[1;29r\u001b[H\u001b[14;3H"
    ],
    [
      6.3e-05,
      "\b"
    ],
    [
      4.5e-05,
      "\r"
    ],
    [
      0.000125,
      "\u001b[1;14r\u001b[H\u001b[14d\u001b[37m\\\u001b[39m \u001b[1;29r\u001b[H\u001b[14;3H"
    ],
    [
      0.100499,
      "\b"
    ],
    [
      8.4e-05,
      "\r"
    ],
    [
      6.7e-05,
      "\u001b[1;14r\u001b[H\u001b[14d \u001b[1;29r\u001b[H\u001b[14;2H"
    ],
    [
      0.000206,
      "\u001b[1;14r\u001b[H\u001b[14;2H \u001b[1;29r\u001b[H\u001b[14;3H"
    ],
    [
      8.9e-05,
      "\b"
    ],
    [
      4.9e-05,
      "\r"
    ],
    [
      8.7e-05,
      "\u001b[1;14r\u001b[H\u001b[14d\u001b[37m|\u001b[39m \u001b[1;29r\u001b[H\u001b[14;3H"
    ],
    [
      0.101432,
      "\b"
    ],
    [
      8.6e-05,
      "\r"
    ],
    [
      6.4e-05,
      "\u001b[1;14r\u001b[H\u001b[14d \u001b[1;29r\u001b[H\u001b[14;2H"
    ],
    [
      0.000216,
      "\u001b[1;14r\u001b[H\u001b[14;2H \u001b[1;29r\u001b[H\u001b[14;3H"
    ],
    [
      8.7e-05,
      "\b"
    ],
    [
      4.9e-05,
      "\r"
    ],
    [
      8.2e-05,
      "\u001b[1;14r\u001b[H\u001b[14d\u001b[37m/\u001b[39m \u001b[1;29r\u001b[H\u001b[14;3H"
    ],
    [
      0.088254,
      "\u001b[16;28r\u001b[H\u001b[28dbvt-node: storing in DHT:  PDp33DsQKaAx_v-c8gu9XQsiiJyt3zgYnEhNDSwfdzQ\r\n\u001b[1;29r\u001b[H\u001b[14;3H"
    ],
    [
      0.012122,
      "\u001b[1;14r\u001b[H\u001b[14d  \r\u001b[37m-\u001b[39m \u001b[1;29r\u001b[H\u001b[14;3H"
    ],
    [
      0.001564,
      "\u001b[16;28r\u001b[H\u001b[28dbvt-node: looking in DHT:  VG0XeO7x6YlgJhoPf8Rr99STp9gSzjW-jfn_6c-gLTA\u001b[1;29r\u001b[H\u001b[14;3H"
    ],
    [
      8.5e-05,
      "\u001b[16;28r\u001b[H\u001b[28d\n\u001b[1;29r\u001b[H\u001b[14;3H"
    ],
    [
      0.075687,
      "\u001b[16;28r\u001b[H\u001b[28dbvt-node: storing in DHT:  VG0XeO7x6YlgJhoPf8Rr99STp9gSzjW-jfn_6c-gLTA\u001b[1;29r\u001b[H\u001b[14;3H"
    ],
    [
      0.000143,
      "\u001b[16;28r\u001b[H\u001b[28d\n\u001b[1;29r\u001b[H\u001b[14;3H"
    ],
    [
      0.00712,
      "\u001b[16;28r\u001b[H\u001b[28dbvt-node: looking in DHT:  6pEAWFt5QDZPTxA6hjx09vpImBxa7wJZ9kOuugBAVxc\r\n\u001b[1;29r\u001b[H\u001b[14;3H"
    ],
    [
      0.015871,
      "\u001b[1;14r\u001b[H\u001b[14d  \r\u001b[37m\\\u001b[39m \u001b[1;29r\u001b[H\u001b[14;3H"
    ],
    [
      0.036207,
      "\u001b[16;28r\u001b[H\u001b[28dbvt-node: storing in DHT:  6pEAWFt5QDZPTxA6hjx09vpImBxa7wJZ9kOuugBAVxc\r\n\u001b[1;29r\u001b[H\u001b[14;3H"
    ],
    [
      0.002819,
      "\u001b[16;28r\u001b[H\u001b[28dbvt-node: storing in DHT:  FbbbZj9DUK6aGqRHk5VlxLbO9woqvVWin8Akhh0W8hQ\u001b[1;29r\u001b[H\u001b[14;3H"
    ],
    [
      8.9e-05,
      "\u001b[16;28r\u001b[H\u001b[28d\n\u001b[1;29r\u001b[H\u001b[14;3H"
    ],
    [
      0.060733,
      "\u001b[1;14r\u001b[H\u001b[14d  \r\u001b[37m|\u001b[39m \u001b[1;29r\u001b[H\u001b[14;3H"
    ],
    [
      0.052382,
      "\u001b[16;28r\u001b[H\u001b[28dbvt-node: Torrent started: 1 bV1SneDwxv4gZmKfnZBHhipOYQ8_20170605002715_EiPzxmON 8d03b95768161393534070acc76f121eca3359ff\u001b[1;29r\u001b[H\u001b[14;3H"
    ],
    [
      0.000209,
      "\u001b[16;28r\u001b[H\u001b[28d\n\u001b[1;29r\u001b[H\u001b[14;3H"
    ],
    [
      0.047706,
      "\u001b[1;14r\u001b[H\u001b[14d  \r\u001b[37m/\u001b[39m \u001b[1;29r\u001b[H\u001b[14;3H"
    ],
    [
      0.069728,
      "\u001b[16;28r\u001b[H\u001b[28dbvt-node: Torrent started: 2 bV1SneDwxv4gZmKfnZBHhipOYQ8_20170605002715_VVeCYVzR 5c150539c55d6fd979a02b993807e8945c1dcab2\u001b[1;29r\u001b[H\u001b[14;3H"
    ],
    [
      0.000119,
      "\u001b[16;28r\u001b[H\u001b[28d\n\u001b[1;29r\u001b[H\u001b[14;3H"
    ],
    [
      0.030756,
      "\u001b[1;14r\u001b[H\u001b[14d  \r\u001b[37m-\u001b[39m \u001b[1;29r\u001b[H\u001b[14;3H"
    ],
    [
      0.092942,
      "\u001b[16;28r\u001b[H\u001b[28dbvt-node: Torrent started: 3 bV1SneDwxv4gZmKfnZBHhipOYQ8_20170605002715_IJyO_pIH 0f8b39ed916247e08443376e6c66f9988657157d\u001b[1;29r\u001b[H\u001b[14;3H"
    ],
    [
      0.000292,
      "\u001b[16;28r\u001b[H\u001b[28d\n\u001b[1;29r\u001b[H\u001b[14;3H"
    ],
    [
      0.007081,
      "\u001b[1;14r\u001b[H\u001b[14d  \r\u001b[37m\\\u001b[39m \u001b[1;29r\u001b[H\u001b[14;3H"
    ],
    [
      0.100141,
      "\u001b[1;14r\u001b[H\u001b[14d  \r\u001b[37m|\u001b[39m \u001b[1;29r\u001b[H\u001b[14;3H"
    ],
    [
      0.01653,
      "\u001b[16;28r\u001b[H\u001b[28dbvt-node: Torrent started: 4 bV1SneDwxv4gZmKfnZBHhipOYQ8_20170605002715_DNcOfS6B 1338cbd095b297955f51734a384e0a3d48d5a622\u001b[1;29r\u001b[H\u001b[14;3H"
    ],
    [
      0.000138,
      "\u001b[16;28r\u001b[H\u001b[28d\n\u001b[1;29r\u001b[H\u001b[14;3H"
    ],
    [
      0.083762,
      "\u001b[1;14r\u001b[H\u001b[14d  \r\u001b[37m/\u001b[39m \u001b[1;29r\u001b[H\u001b[14;3H"
    ],
    [
      0.063713,
      "\u001b[16;28r\u001b[H\u001b[28dbvt-node: Torrent started: 5 bV1SneDwxv4gZmKfnZBHhipOYQ8_20170605002715_zfBY8JF7 9f6b3721ade7d480c1568850456f44a8e45a5f1d\r\n\u001b[1;29r\u001b[H\u001b[14;3H"
    ],
    [
      0.036764,
      "\u001b[1;14r\u001b[H\u001b[14d  \r\u001b[37m-\u001b[39m \u001b[1;29r\u001b[H\u001b[14;3H"
    ],
    [
      0.090056,
      "\u001b[16;28r\u001b[H\u001b[28dbvt-node: Torrent started: 6 bV1SneDwxv4gZmKfnZBHhipOYQ8_20170605002715_Eln6Qm0p 0e38b3534d3b43841ac067011b1827b97f65c746\u001b[1;29r\u001b[H\u001b[14;3H"
    ],
    [
      0.000165,
      "\u001b[16;28r\u001b[H\u001b[28d\n\u001b[1;29r\u001b[H\u001b[14;3H"
    ],
    [
      0.010218,
      "\u001b[1;14r\u001b[H\u001b[14d  \r\u001b[37m\\\u001b[39m \u001b[1;29r\u001b[H\u001b[14;3H"
    ],
    [
      0.004191,
      "\u001b[16;28r\u001b[H\u001b[28dbvt-node: storing in DHT:  NGMqwDzORwuxiPxsBSWW-w12Q33hgtnVGDbeuK2_Ha0\u001b[1;29r\u001b[H\u001b[14;3H"
    ],
    [
      0.000275,
      "\u001b[16;28r\u001b[H\u001b[28d\n\u001b[1;29r\u001b[H\u001b[14;3H"
    ],
    [
      0.004093,
      "\u001b[1;14r\u001b[H\u001b[14d  \rSliced 4 files into 67 blocks and 402 fragments\r\nFragment distribution process is started\r\n\u001b[1;29r\u001b[H\u001b[13B"
    ],
    [
      0.001188,
      "\u001b[1;14r\u001b[H\u001b[14d$ \u001b[1;29r\u001b[H\u001b[14;3H"
    ],
    [
      0.000223,
      "\u001b[16;28r\u001b[H\u001b[28dbvt-node: starting trading process\u001b[1;29r\u001b[H\u001b[14;3H"
    ],
    [
      9.3e-05,
      "\u001b[16;28r\u001b[H\u001b[28d\n\u001b[1;29r\u001b[H\u001b[14;3H"
    ],
    [
      0.000675,
      "\u001b[16;28r\u001b[H\u001b[28dbvt-node: broadcasting message: TRADE REQUEST bV1SneDwxv4gZmKfnZBHhipOYQ8 25540783\u001b[1;29r\u001b[H\u001b[14;3H"
    ],
    [
      0.000152,
      "\u001b[16;28r\u001b[H\u001b[28d\n\u001b[1;29r\u001b[H\u001b[14;3H"
    ],
    [
      8.4e-05,
      "\u001b[16;28r\u001b[H\u001b[28d\n\u001b[1;29r\u001b[H\u001b[14;3H"
    ],
    [
      0.004294,
      "\u001b[16;28r\u001b[H\u001b[28dbvt-node: broadcasting message: TRADE REQUEST bV1SneDwxv4gZmKfnZBHhipOYQ8 25540783\u001b[1;29r\u001b[H\u001b[14;3H"
    ],
    [
      0.000196,
      "\u001b[16;28r\u001b[H\u001b[28d\n\u001b[1;29r\u001b[H\u001b[14;3H"
    ],
    [
      7.9e-05,
      "\u001b[16;28r\u001b[H\u001b[28d\n\u001b[1;29r\u001b[H\u001b[14;3H"
    ],
    [
      0.005882,
      "\u001b[16;28r\u001b[H\u001b[28dbvt-node: broadcasting message: TRADE REQUEST bV1SneDwxv4gZmKfnZBHhipOYQ8 25540783\r\n\n\u001b[1;29r\u001b[H\u001b[14;3H"
    ],
    [
      0.001547,
      "\u001b[16;28r\u001b[H\u001b[28dbvt-node: recieved message: \"TRADE OFFER Ogz2GQDOULii4Bd6QCSFrskNn90 XGf2-7wcIKbRFZ2M1UWAwuwR_Vyp2-protTCsVH9HHc 25540783 25540783 2017-06-05T00:27:25+02:00 2017-06-19T00:27:25+02:00\\n\"\r\n\u001b[1;29r\u001b[H\u001b[14;3H"
    ],
    [
      0.000212,
      "\u001b[16;28r\u001b[H\u001b[28dbvt-node: sending message to \"Ogz2GQDOULii4Bd6QCSFrskNn90\": TRADE ACCEPT bV1SneDwxv4gZmKfnZBHhipOYQ8 XGf2-7wcIKbRFZ2M1UWAwuwR_Vyp2-protTCsVH9HHc\r\n\n\u001b[1;29r\u001b[H\u001b[14;3H"
    ],
    [
      0.001865,
      "\u001b[16;28r\u001b[H\u001b[28dbvt-node: broadcasting message: TRADE REQUEST bV1SneDwxv4gZmKfnZBHhipOYQ8 25540783\r\n\n\u001b[1;29r\u001b[H\u001b[14;3H"
    ],
    [
      0.000488,
      "\u001b[16;28r\u001b[H\u001b[28dbvt-node: recieved message: \"TRADE OFFER geVRihI2vc5pdAshZx0s87BMcRQ 66voW6Avvk5m6G-Jlhm5khyB1md60g8GvI91Mq3ahBU 25540783 25540783 2017-06-05T00:27:25+02:00 2017-06-19T00:27:25+02:00\\n\"\r\n\u001b[1;29r\u001b[H\u001b[14;3H"
    ],
    [
      0.000363,
      "\u001b[16;28r\u001b[H\u001b[28dbvt-node: sending message to \"geVRihI2vc5pdAshZx0s87BMcRQ\": TRADE ACCEPT bV1SneDwxv4gZmKfnZBHhipOYQ8 66voW6Avvk5m6G-Jlhm5khyB1md60g8GvI91Mq3ahBU\r\n\n\u001b[1;29r\u001b[H\u001b[14;3H"
    ],
    [
      0.003753,
      "\u001b[16;28r\u001b[H\u001b[28dbvt-node: broadcasting message: TRADE REQUEST bV1SneDwxv4gZmKfnZBHhipOYQ8 25540783\r\n\n\u001b[1;29r\u001b[H\u001b[14;3H"
    ],
    [
      0.003006,
      "\u001b[16;28r\u001b[H\u001b[28dbvt-node: recieved message: \"TRADE OFFER KSMqURLOK9nQU_PTT9mcOa66BXA 1lhkPlqXQuic_e84ccEIhkUTBuCGolyB3gi4elquEfI 25540783 25540783 2017-06-05T00:27:25+02:00 2017-06-19T00:27:25+02:00\\n\"\r\n\u001b[1;29r\u001b[H\u001b[14;3H"
    ],
    [
      0.000893,
      "\u001b[16;28r\u001b[H\u001b[28dbvt-node: broadcasting message: TRADE REQUEST bV1SneDwxv4gZmKfnZBHhipOYQ8 25540783\r\n\n\u001b[1;29r\u001b[H\u001b[14;3H"
    ],
    [
      0.00272,
      "\u001b[16;28r\u001b[H\u001b[28dbvt-node: recieved message: \"TRADE OFFER YX5miWvuFXbpIt6RgsqnqKOkfz0 TM00XeM_fEKj5wosPgIsq6aLDOfA3Q-o7xDh8W8KtC0 25540783 25540783 2017-06-05T00:27:25+02:00 2017-06-19T00:27:25+02:00\\n\"\u001b[1;29r\u001b[H\u001b[14;3H"
    ],
    [
      0.000203,
      "\u001b[16;28r\u001b[H\u001b[28d\n\u001b[1;29r\u001b[H\u001b[14;3H"
    ],
    [
      0.002038,
      "\u001b[16;28r\u001b[H\u001b[28dbvt-node: recieved message: \"TRADE OFFER 7Cn1BHDtmudHyiQRKa1hxXfLNB4 5STyW5gnlqNIpFhPJ7pGHETLd8YvF8NddZQgW4R1n6M 25540783 25540783 2017-06-05T00:27:25+02:00 2017-06-19T00:27:25+02:00\\n\"\r\n\u001b[1;29r\u001b[H\u001b[14;3H"
    ],
    [
      0.011015,
      "\u001b[16;28r\u001b[H\u001b[28dbvt-node: storing in DHT:  o--Z2jMNFB4nzbIyGEcgEyvOg9jUvSHT3Se0ON3vXxo\r\n\u001b[1;29r\u001b[H\u001b[14;3H"
    ],
    [
      0.004419,
      "\u001b[16;28r\u001b[H\u001b[28dbvt-node: looking in DHT:  cDrcfSO-akUCprn9iH-8L2LcY1r_vuHe8z7YK2GknSw\r\n\u001b[1;29r\u001b[H\u001b[14;3H"
    ],
    [
      0.004089,
      "\u001b[16;28r\u001b[H\u001b[28dbvt-node: storing in DHT:  cDrcfSO-akUCprn9iH-8L2LcY1r_vuHe8z7YK2GknSw\r\n\u001b[1;29r\u001b[H\u001b[14;3H"
    ],
    [
      0.006079,
      "\u001b[16;28r\u001b[H\u001b[28dbvt-node: storing in DHT:  ygtq7H97C-U5QVbGHTVvypUUIC5HvX_vwz5huofjvD8\u001b[1;29r\u001b[H\u001b[14;3H\u001b[16;28r\u001b[H\u001b[28d\n\u001b[1;29r\u001b[H\u001b[14;3H"
    ],
    [
      0.001086,
      "\u001b[16;28r\u001b[H\u001b[28dbvt-node: sending message to \"KSMqURLOK9nQU_PTT9mcOa66BXA\": TRADE ACCEPT bV1SneDwxv4gZmKfnZBHhipOYQ8 1lhkPlqXQuic_e84ccEIhkUTBuCGolyB3gi4elquEfI\r\n\n\u001b[1;29r\u001b[H\u001b[14;3H"
    ],
    [
      0.001421,
      "\u001b[16;28r\u001b[H\u001b[28dbvt-node: sending message to \"YX5miWvuFXbpIt6RgsqnqKOkfz0\": TRADE ACCEPT bV1SneDwxv4gZmKfnZBHhipOYQ8 TM00XeM_fEKj5wosPgIsq6aLDOfA3Q-o7xDh8W8KtC0\u001b[1;29r\u001b[H\u001b[14;3H\u001b[16;28r\u001b[H\u001b[28d\n\u001b[1;29r\u001b[H\u001b[14;3H"
    ],
    [
      0.000108,
      "\u001b[16;28r\u001b[H\u001b[28d\n\u001b[1;29r\u001b[H\u001b[14;3H"
    ],
    [
      0.001164,
      "\u001b[16;28r\u001b[H\u001b[28dbvt-node: sending message to \"7Cn1BHDtmudHyiQRKa1hxXfLNB4\": TRADE ACCEPT bV1SneDwxv4gZmKfnZBHhipOYQ8 5STyW5gnlqNIpFhPJ7pGHETLd8YvF8NddZQgW4R1n6M\r\n\n\u001b[1;29r\u001b[H\u001b[14;3H"
    ],
    [
      0.000867,
      "\u001b[16;28r\u001b[H\u001b[28dbvt-node: looking in DHT:  cDrcfSO-akUCprn9iH-8L2LcY1r_vuHe8z7YK2GknSw\u001b[1;29r\u001b[H\u001b[14;3H\u001b[16;28r\u001b[H\u001b[28d\n\u001b[1;29r\u001b[H\u001b[14;3H"
    ],
    [
      0.000235,
      "\u001b[16;28r\u001b[H\u001b[28dbvt-node: storing in DHT:  cDrcfSO-akUCprn9iH-8L2LcY1r_vuHe8z7YK2GknSw\u001b[1;29r\u001b[H\u001b[14;3H\u001b[16;28r\u001b[H\u001b[28d\n\u001b[1;29r\u001b[H\u001b[14;3H"
    ],
    [
      0.008714,
      "\u001b[16;28r\u001b[H\u001b[28dbvt-node: recieved message: \"TRADE OFFER vGsABBTORrL312RG7vAbkkMsUTA K6B67pP0qwi912xL9EMwlDgSJumL1K7MKCPbnK_srcw 25540783 25540783 2017-06-05T00:27:25+02:00 2017-06-19T00:27:25+02:00\\n\"\r\n\u001b[1;29r\u001b[H\u001b[14;3H"
    ],
    [
      0.007467,
      "\u001b[16;28r\u001b[H\u001b[28dbvt-node: storing in DHT:  w-xa0tAQnB6NTp9qaQuSPxUQnHhEHO1I2FABN12PZK0\u001b[1;29r\u001b[H\u001b[14;3H"
    ],
    [
      0.000117,
      "\u001b[16;28r\u001b[H\u001b[28d\n\u001b[1;29r\u001b[H\u001b[14;3H"
    ],
    [
      0.002838,
      "\u001b[16;28r\u001b[H\u001b[28dbvt-node: looking in DHT:  cDrcfSO-akUCprn9iH-8L2LcY1r_vuHe8z7YK2GknSw\r\n\u001b[1;29r\u001b[H\u001b[14;3H"
    ],
    [
      0.000127,
      "\u001b[16;28r\u001b[H\u001b[28dbvt-node: storing in DHT:  cDrcfSO-akUCprn9iH-8L2LcY1r_vuHe8z7YK2GknSw\u001b[1;29r\u001b[H\u001b[14;3H"
    ],
    [
      0.000522,
      "\u001b[16;28r\u001b[H\u001b[28d\n\u001b[1;29r\u001b[H\u001b[14;3H"
    ],
    [
      0.014304,
      "\u001b[16;28r\u001b[H\u001b[28dbvt-node: storing in DHT:  lGifaZxmDwLo6q3ItxoSQSq2tK-uV77OFau74RPdjPE\r\n\u001b[1;29r\u001b[H\u001b[14;3H"
    ],
    [
      0.004435,
      "\u001b[16;28r\u001b[H\u001b[28dbvt-node: looking in DHT:  cDrcfSO-akUCprn9iH-8L2LcY1r_vuHe8z7YK2GknSw\u001b[1;29r\u001b[H\u001b[14;3H\u001b[16;28r\u001b[H\u001b[28d\n\u001b[1;29r\u001b[H\u001b[14;3H"
    ],
    [
      0.001126,
      "\u001b[16;28r\u001b[H\u001b[28dbvt-node: storing in DHT:  cDrcfSO-akUCprn9iH-8L2LcY1r_vuHe8z7YK2GknSw\r\n\u001b[1;29r\u001b[H\u001b[14;3H"
    ],
    [
      0.014767,
      "\u001b[16;28r\u001b[H\u001b[28dbvt-node: sending message to \"vGsABBTORrL312RG7vAbkkMsUTA\": TRADE ACCEPT bV1SneDwxv4gZmKfnZBHhipOYQ8 K6B67pP0qwi912xL9EMwlDgSJumL1K7MKCPbnK_srcw\r\n\n\u001b[?25l\u001b[29d\u001b[30m\u001b[42m[0] 0:bash*                                                                          \"t450-vmbox\" 00:27 05-Jun-17\u001b(B\u001b[m\u001b[29;1H\u001b[1;29r\u001b[H\u001b[14;3H\u001b[?12l\u001b[?25h"
    ],
    [
      0.012745,
      "\u001b[16;28r\u001b[H\u001b[28dbvt-node: storing in DHT:  zOHy140LVHaTiyecHC0hQAW3E49IVMsTaMlxUtS3TC8\r\n\u001b[1;29r\u001b[H\u001b[14;3H"
    ],
    [
      0.003075,
      "\u001b[16;28r\u001b[H\u001b[28dbvt-node: looking in DHT:  cDrcfSO-akUCprn9iH-8L2LcY1r_vuHe8z7YK2GknSw\r\n\u001b[1;29r\u001b[H\u001b[14;3H"
    ],
    [
      0.00077,
      "\u001b[16;28r\u001b[H\u001b[28dbvt-node: storing in DHT:  cDrcfSO-akUCprn9iH-8L2LcY1r_vuHe8z7YK2GknSw\r\n\u001b[1;29r\u001b[H\u001b[14;3H"
    ],
    [
      0.019143,
      "\u001b[16;28r\u001b[H\u001b[28dbvt-node: storing in DHT:  BO3Peiafzr7TaewdwzFN5R4SWgavbeczfhIhbYaVSMQ\u001b[1;29r\u001b[H\u001b[14;3H\u001b[16;28r\u001b[H\u001b[28d\n\u001b[1;29r\u001b[H\u001b[14;3H"
    ],
    [
      0.002399,
      "\u001b[16;28r\u001b[H\u001b[28dbvt-node: looking in DHT:  cDrcfSO-akUCprn9iH-8L2LcY1r_vuHe8z7YK2GknSw\u001b[1;29r\u001b[H\u001b[14;3H\u001b[16;28r\u001b[H\u001b[28d\n\u001b[1;29r\u001b[H\u001b[14;3H"
    ],
    [
      0.000235,
      "\u001b[16;28r\u001b[H\u001b[28dbvt-node: storing in DHT:  cDrcfSO-akUCprn9iH-8L2LcY1r_vuHe8z7YK2GknSw\u001b[1;29r\u001b[H\u001b[14;3H\u001b[16;28r\u001b[H\u001b[28d\n\u001b[1;29r\u001b[H\u001b[14;3H"
    ],
    [
      0.5,
      "\u001b[1;14r\u001b[H\u001b[14;3Ht\u001b[1;29r\u001b[H\u001b[14;4H"
    ],
    [
      0.5,
      "\u001b[1;14r\u001b[H\u001b[14;4Hr\u001b[1;29r\u001b[H\u001b[14;5H"
    ],
    [
      0.162603,
      "\u001b[1;14r\u001b[H\u001b[14;5Ha\u001b[1;29r\u001b[H\u001b[14;6H"
    ],
    [
      0.247393,
      "\u001b[1;14r\u001b[H\u001b[14;6Hn\u001b[1;29r\u001b[H\u001b[14;7H"
    ],
    [
      0.159251,
      "\u001b[1;14r\u001b[H\u001b[14;7Hs\u001b[1;29r\u001b[H\u001b[14;8H"
    ],
    [
      0.119331,
      "\u001b[1;14r\u001b[H\u001b[14;8Hm\u001b[1;29r\u001b[H\u001b[14;9H"
    ],
    [
      0.182117,
      "\u001b[1;14r\u001b[H\u001b[14;9Hission-\u001b[1;29r\u001b[H\u001b[14;16H"
    ],
    [
      6.3e-05,
      "\u0007"
    ],
    [
      0.5,
      "\u001b[1;14r\u001b[H\u001b[14;16Hr\u001b[1;29r\u001b[H\u001b[14;17H"
    ],
    [
      0.152579,
      "\u001b[1;14r\u001b[H\u001b[14;17He\u001b[1;29r\u001b[H\u001b[14;18H"
    ],
    [
      0.27878,
      "\u001b[1;14r\u001b[H\u001b[14;18Hm\u001b[1;29r\u001b[H\u001b[14;19H"
    ],
    [
      0.5,
      "\u001b[1;14r\u001b[H\u001b[14;19Hote\u001b[1;29r\u001b[H\u001b[14;22H\u0007"
    ],
    [
      0.5,
      "\u001b[1;14r\u001b[H\u001b[14;22H \u001b[1;29r\u001b[H\u001b[14;23H"
    ],
    [
      0.5,
      "\u001b[1;14r\u001b[H\u001b[14;23H4\u001b[1;29r\u001b[H\u001b[14;24H"
    ],
    [
      0.5,
      "\u001b[1;14r\u001b[H\u001b[14;24H1\u001b[1;29r\u001b[H\u001b[14;25H"
    ],
    [
      0.5,
      "\u001b[1;14r\u001b[H\u001b[14;25H7\u001b[1;29r\u001b[H\u001b[14;26H"
    ],
    [
      0.5,
      "\u001b[1;14r\u001b[H\u001b[14;26H2\u001b[1;29r\u001b[H\u001b[14;27H"
    ],
    [
      0.374755,
      "\u001b[1;14r\u001b[H\u001b[14;27H1\u001b[1;29r\u001b[H\u001b[14;28H"
    ],
    [
      0.5,
      "\u001b[1;14r\u001b[H\u001b[14;28H \u001b[1;29r\u001b[H\u001b[14;29H"
    ],
    [
      0.5,
      "\u001b[1;14r\u001b[H\u001b[14;29H-\u001b[1;29r\u001b[H\u001b[14;30H"
    ],
    [
      0.140562,
      "\u001b[1;14r\u001b[H\u001b[14;30Hl\u001b[1;29r\u001b[H\u001b[14;31H"
    ],
    [
      0.191313,
      "\u001b[1;14r\u001b[H\u001b[14d\n\u001b[1;29r\u001b[H\u001b[13B"
    ],
    [
      0.023274,
      "\u001b[1;14r\u001b[H\u001b[14dID     Done       Have  ETA           Up    Down  Ratio  Status       Name\u001b[1;29r\u001b[H\u001b[14;75H"
    ],
    [
      9.2e-05,
      "\u001b[1;14r\u001b[H\u001b[14d\n\u001b[1;29r\u001b[H\u001b[13B"
    ],
    [
      0.000127,
      "\u001b[1;14r\u001b[H\u001b[14d   1   100%   25.54 MB  Done         0.0     0.0    0.0  Idle         bV1SneDwxv4gZmKfnZBHhipOYQ8_20170605002715_EiPzxmON\u001b[1;29r\u001b[H\u001b[14;9H"
    ],
    [
      0.000106,
      "\u001b[1;14r\u001b[H\u001b[14d\n\u001b[1;29r\u001b[H\u001b[13B"
    ],
    [
      0.000266,
      "\u001b[1;14r\u001b[H\u001b[14d   2   100%   25.54 MB  Done         0.0     0.0    0.0  Idle         bV1SneDwxv4gZmKfnZBHhipOYQ8_20170605002715_VVeCYVzR\u001b[1;29r\u001b[H\u001b[14;9H"
    ],
    [
      6.8e-05,
      "\u001b[1;14r\u001b[H\u001b[14d\n\u001b[1;29r\u001b[H\u001b[13B"
    ],
    [
      0.000116,
      "\u001b[1;14r\u001b[H\u001b[14d   3   100%   25.54 MB  Done         0.0     0.0    0.0  Idle         bV1SneDwxv4gZmKfnZBHhipOYQ8_20170605002715_IJyO_pIH\u001b[1;29r\u001b[H\u001b[14;9H"
    ],
    [
      8.2e-05,
      "\u001b[1;14r\u001b[H\u001b[14d\n\u001b[1;29r\u001b[H\u001b[13B"
    ],
    [
      0.000121,
      "\u001b[1;14r\u001b[H\u001b[14d   4   100%   25.54 MB  Done         0.0     0.0    0.0  Idle         bV1SneDwxv4gZmKfnZBHhipOYQ8_20170605002715_DNcOfS6B\u001b[1;29r\u001b[H\u001b[14;9H"
    ],
    [
      6.7e-05,
      "\u001b[1;14r\u001b[H\u001b[14d\n\u001b[1;29r\u001b[H\u001b[13B"
    ],
    [
      0.000112,
      "\u001b[1;14r\u001b[H\u001b[14d   5   100%   25.54 MB  Done         0.0     0.0    0.0  Idle         bV1SneDwxv4gZmKfnZBHhipOYQ8_20170605002715_zfBY8JF7\u001b[1;29r\u001b[H\u001b[14;9H"
    ],
    [
      6.3e-05,
      "\u001b[1;14r\u001b[H\u001b[14d\n\u001b[1;29r\u001b[H\u001b[13B"
    ],
    [
      0.000144,
      "\u001b[1;14r\u001b[H\u001b[14d   6   100%   25.54 MB  Done         0.0     0.0    0.0  Idle         bV1SneDwxv4gZmKfnZBHhipOYQ8_20170605002715_Eln6Qm0p\u001b[1;29r\u001b[H\u001b[14;9H"
    ],
    [
      6.6e-05,
      "\u001b[1;14r\u001b[H\u001b[14d\n\u001b[1;29r\u001b[H\u001b[13B"
    ],
    [
      0.000136,
      "\u001b[1;14r\u001b[H\u001b[14dSum:          153.2 MB               0.0     0.0\u001b[1;29r\u001b[H\u001b[14;49H"
    ],
    [
      5.7e-05,
      "\u001b[1;14r\u001b[H\u001b[14d\n\u001b[1;29r\u001b[H\u001b[13B"
    ],
    [
      0.000839,
      "\u001b[1;14r\u001b[H\u001b[14d$ \u001b[1;29r\u001b[H\u001b[14;3H"
    ],
    [
      0.5,
      "\u001b[1;29r\u001b(B\u001b[m\u001b[?1l\u001b>\u001b[H\u001b[2J\u001b]112\u0007\u001b[?12l\u001b[?25h\u001b[?1000l\u001b[?1002l\u001b[?1006l\u001b[?1005l\u001b[?1049l"
    ],
    [
      0.00054,
      "[detached (from session 0)]\r\n"
    ]
  ],
  "width": 113,
  "version": 1,
  "env": {
    "TERM": "xterm-256color",
    "SHELL": "/bin/bash"
  },
  "duration": 66.019253,
  "height": 29,
  "command": "tmux"
}