{
  "width": 113,
  "version": 1,
  "height": 29,
  "title": "BTVault Restore Demo",
  "duration": 33.538147,
  "env": {
    "TERM": "xterm-256color",
    "SHELL": "/bin/bash"
  },
  "stdout": [
    [
      0.008726,
      "\u001b[?1049h\u001b(B\u001b[m\u001b[?1l\u001b>\u001b[H\u001b[2J\u001b[?12l\u001b[?25h\u001b[?1000l\u001b[?1002l\u001b[?1006l\u001b[?1005l\u001b]112\u0007\u001b[?25l\u001b[1;1H\u001b[K\r\n\u001b[K\r\n\u001b[K\r\n\u001b[K\r\n\u001b[K\r\n\u001b[K\r\n\u001b[K\r\n\u001b[K\r\n\u001b[K\r\n\u001b[K\r\n\u001b[K\r\n\u001b[K\r\n\u001b[K\r\n\u001b[K\r\n\u001b[K\r\n\u001b[K\r\n\u001b[K\r\n\u001b[K\r\n\u001b[K\r\n\u001b[K\r\n\u001b[K\r\n\u001b[K\r\n\u001b[K\r\n\u001b[K\r\n\u001b[K\r\n\u001b[K\r\n\u001b[K\r\n\u001b[K\r\n\u001b[30m\u001b[42m[5] 0:bash*                                                                          \"t450-vmbox\" 00:44 05-Jun-17\u001b(B\u001b[m\u001b[29;1H\u001b[1;29r\u001b[H\u001b[?12l\u001b[?25h\u001b[?1006h\u001b[?1002h"
    ],
    [
      0.05436,
      "\u001b[1;28r$ \u001b[1;29r\u001b[H\u001b[2C"
    ],
    [
      0.5,
      "\u001b[1;28r\u001b[H\u001b[2Cb\u001b[1;29r\u001b[H\u001b[3C"
    ],
    [
      0.163661,
      "\u001b[1;28r\u001b[H\u001b[3Ct\u001b[1;29r\u001b[H\u001b[4C"
    ],
    [
      0.5,
      "\u001b[1;28r\u001b[H\u001b[4Cv\u001b[1;29r\u001b[H\u001b[5C"
    ],
    [
      0.319911,
      "\u001b[1;28r\u001b[H\u001b[5C-\u001b[1;29r\u001b[H\u001b[6C"
    ],
    [
      0.401937,
      "\u001b[1;28r\u001b[H\u001b[6Cc\u001b[1;29r\u001b[H\u001b[7C"
    ],
    [
      0.116823,
      "\u001b[1;28r\u001b[H\u001b[7Cl\u001b[1;29r\u001b[H\u001b[8C"
    ],
    [
      0.176616,
      "\u001b[1;28r\u001b[H\u001b[8Ci\u001b[1;29r\u001b[H\u001b[9C"
    ],
    [
      0.132514,
      "\u001b[1;28r\u001b[H\u001b[9C \u001b[1;29r\u001b[H\u001b[10C"
    ],
    [
      0.398547,
      "\u001b[1;28r\u001b[H\u001b[10Cl\u001b[1;29r\u001b[H\u001b[11C"
    ],
    [
      0.15466,
      "\u001b[1;28r\u001b[H\u001b[11Ci\u001b[1;29r\u001b[H\u001b[12C"
    ],
    [
      0.102276,
      "\u001b[1;28r\u001b[H\u001b[12Cs\u001b[1;29r\u001b[H\u001b[13C"
    ],
    [
      0.118654,
      "\u001b[1;28r\u001b[H\u001b[13Ct\u001b[1;29r\u001b[H\u001b[14C"
    ],
    [
      0.38506,
      "\r\n"
    ],
    [
      0.052197,
      "\u001b[?25l\u001b[29d\u001b[30m\u001b[42m[5] 0:btv-cli*                                                                       \"t450-vmbox\" 00:44 05-Jun-17\u001b(B\u001b[m\u001b[2;1H\u001b[?12l\u001b[?25h"
    ],
    [
      0.000935,
      "\u001b[1;28r\u001b[H\r\nkWVqhKATjCH7DkKjQq8N0ed_enw8gIvxKbVPW8KSoyY    /tmp/test/README.txt\r\neg65WjHU30z1-Al0x46DMMvSXWotieh6EcKO8c_NlMU    /tmp/test/img/cat.png\r\nD7WxHczxSmPD_ewvuTBLJD5tlBuyMM3PRUgm7gY_j58    /tmp/test/img/tux.png\r\nFbbbZj9DUK6aGqRHk5VlxLbO9woqvVWin8Akhh0W8hQ    /tmp/test/linux-4.11.3.tar.xz\u001b[1;29r\u001b[H\u001b[5B"
    ],
    [
      0.000542,
      "\u001b[1;28r\u001b[H\u001b[5B$ \u001b[1;29r\u001b[H\u001b[6;3H"
    ],
    [
      0.5,
      "\u001b[?25l\u001b[29;1H\u001b[30m\u001b[42m[5] 0:bash*                                                                          \"t450-vmbox\" 00:44 05-Jun-17\u001b(B\u001b[m\u001b[6;3H\u001b[?12l\u001b[?25h"
    ],
    [
      0.000953,
      "\u001b[1;28r\u001b[H\u001b[6;3Hb\u001b[1;29r\u001b[H\u001b[6;4H"
    ],
    [
      0.15683,
      "\u001b[1;28r\u001b[H\u001b[6;4Ht\u001b[1;29r\u001b[H\u001b[6;5H"
    ],
    [
      0.090391,
      "\u001b[1;28r\u001b[H\u001b[6;5Hv\u001b[1;29r\u001b[H\u001b[6;6H"
    ],
    [
      0.5,
      "\u001b[1;28r\u001b[H\u001b[6;6H-\u001b[1;29r\u001b[H\u001b[6;7H"
    ],
    [
      0.389914,
      "\u001b[1;28r\u001b[H\u001b[6;7Hc\u001b[1;29r\u001b[H\u001b[6;8H"
    ],
    [
      0.152914,
      "\u001b[1;28r\u001b[H\u001b[6;8Hl\u001b[1;29r\u001b[H\u001b[6;9H"
    ],
    [
      0.17156,
      "\u001b[1;28r\u001b[H\u001b[6;9Hi\u001b[1;29r\u001b[H\u001b[6;10H"
    ],
    [
      0.10092,
      "\u001b[1;28r\u001b[H\u001b[6;10H \u001b[1;29r\u001b[H\u001b[6;11H"
    ],
    [
      0.282296,
      "\u001b[1;28r\u001b[H\u001b[6;11Hr\u001b[1;29r\u001b[H\u001b[6;12H"
    ],
    [
      0.260788,
      "\u001b[1;28r\u001b[H\u001b[6;12He\u001b[1;29r\u001b[H\u001b[6;13H"
    ],
    [
      0.261243,
      "\u001b[1;28r\u001b[H\u001b[6;13Hs\u001b[1;29r\u001b[H\u001b[6;14H"
    ],
    [
      0.106825,
      "\u001b[1;28r\u001b[H\u001b[6;14Ht\u001b[1;29r\u001b[H\u001b[6;15H"
    ],
    [
      0.37133,
      "\u001b[1;28r\u001b[H\u001b[6;15Ho\u001b[1;29r\u001b[H\u001b[6;16H"
    ],
    [
      0.134216,
      "\u001b[1;28r\u001b[H\u001b[6;16Hr\u001b[1;29r\u001b[H\u001b[6;17H"
    ],
    [
      0.084653,
      "\u001b[1;28r\u001b[H\u001b[6;17He\u001b[1;29r\u001b[H\u001b[6;18H"
    ],
    [
      0.15749,
      "\u001b[1;28r\u001b[H\u001b[6;18H \u001b[1;29r\u001b[H\u001b[6;19H"
    ],
    [
      0.5,
      "\u001b[1;28r\u001b[H\u001b[6;19H-\u001b[1;29r\u001b[H\u001b[6;20H"
    ],
    [
      0.372532,
      "\u001b[1;28r\u001b[H\u001b[6;20Ho\u001b[1;29r\u001b[H\u001b[6;21H"
    ],
    [
      0.5,
      "\u001b[1;28r\u001b[H\u001b[6;21H \u001b[1;29r\u001b[H\u001b[6;22H"
    ],
    [
      0.178557,
      "\u001b[1;28r\u001b[H\u001b[6;22H/\u001b[1;29r\u001b[H\u001b[6;23H"
    ],
    [
      0.5,
      "\u001b[1;28r\u001b[H\u001b[6;23Ht\u001b[1;29r\u001b[H\u001b[6;24H"
    ],
    [
      0.05704,
      "\u001b[1;28r\u001b[H\u001b[6;24Hm\u001b[1;29r\u001b[H\u001b[6;25H"
    ],
    [
      0.154686,
      "\u001b[1;28r\u001b[H\u001b[6;25Hp\u001b[1;29r\u001b[H\u001b[6;26H"
    ],
    [
      0.325111,
      "\u001b[1;28r\u001b[H\u001b[6;26H \u001b[1;29r\u001b[H\u001b[6;27H"
    ],
    [
      0.5,
      "\u001b[1;28r\u001b[H\u001b[6;27Heg65WjHU30z1-Al0x46DMMvSXWotieh6EcKO8c_NlMU\u001b[1;29r\u001b[H\u001b[6;70H"
    ],
    [
      0.5,
      "\u001b[1;28r\u001b[H\u001b[6;70H \u001b[1;29r\u001b[H\u001b[6;71H"
    ],
    [
      0.5,
      "\u001b[1;28r\u001b[H\u001b[6;71HD7WxHczxSmPD_ewvuTBLJD5tlBuyMM3PRUgm7gY_j58 \u001b[1;29r\u001b[H\u001b[6B"
    ],
    [
      0.5,
      "\u001b[6;113H\u001b[K\u001b[1;28r\u001b[H\u001b[6;113H8\u001b[6;1H\u001b[1;29r\u001b[H\u001b[6B"
    ],
    [
      0.045009,
      "\u001b[1;28r\u001b[H\u001b[6B\u001b[37m|\u001b[39m \u001b[1;29r\u001b[H\u001b[7;3H"
    ],
    [
      0.003897,
      "\b"
    ],
    [
      0.000118,
      "\r"
    ],
    [
      0.000115,
      "\u001b[1;28r\u001b[H\u001b[6B \u001b[1;29r\u001b[H\u001b[7;2H"
    ],
    [
      9.3e-05,
      "\u001b[1;28r\u001b[H\u001b[7;2H \u001b[1;29r\u001b[H\u001b[7;3H"
    ],
    [
      6.5e-05,
      "\b"
    ],
    [
      5.4e-05,
      "\r"
    ],
    [
      7.7e-05,
      "\u001b[1;28r\u001b[H\u001b[6B/tmp/tmp/test/img/cat.png\u001b[1;29r\u001b[H\u001b[7;26H"
    ],
    [
      5.9e-05,
      "\r\n"
    ],
    [
      6.7e-05,
      "\u001b[1;28r\u001b[H\u001b[7B/tmp/tmp/test/img/tux.png\u001b[1;29r\u001b[H\u001b[8;26H"
    ],
    [
      4.9e-05,
      "\r\n"
    ],
    [
      0.000926,
      "\u001b[1;28r\u001b[H\u001b[8B$ \u001b[1;29r\u001b[H\u001b[9;3H"
    ],
    [
      0.5,
      "\u001b[1;28r\u001b[H\u001b[9;3Hs\u001b[1;29r\u001b[H\u001b[9;4H"
    ],
    [
      0.139549,
      "\u001b[1;28r\u001b[H\u001b[9;4Hh\u001b[1;29r\u001b[H\u001b[9;5H"
    ],
    [
      0.116318,
      "\u001b[1;28r\u001b[H\u001b[9;5Ha\u001b[1;29r\u001b[H\u001b[9;6H"
    ],
    [
      0.48827,
      "\u001b[1;28r\u001b[H\u001b[9;6H2\u001b[1;29r\u001b[H\u001b[9;7H"
    ],
    [
      0.347584,
      "\u001b[1;28r\u001b[H\u001b[9;7H5\u001b[1;29r\u001b[H\u001b[9;8H"
    ],
    [
      0.192509,
      "\u001b[1;28r\u001b[H\u001b[9;8H6\u001b[1;29r\u001b[H\u001b[9;9H"
    ],
    [
      0.5,
      "\u001b[1;28r\u001b[H\u001b[9;9Hs\u001b[1;29r\u001b[H\u001b[9;10H"
    ],
    [
      0.151222,
      "\u001b[1;28r\u001b[H\u001b[9;10Hu\u001b[1;29r\u001b[H\u001b[9;11H"
    ],
    [
      0.116843,
      "\u001b[1;28r\u001b[H\u001b[9;11Hm\u001b[1;29r\u001b[H\u001b[9;12H"
    ],
    [
      0.164905,
      "\u001b[1;28r\u001b[H\u001b[9;12H \u001b[1;29r\u001b[H\u001b[9;13H"
    ],
    [
      0.5,
      "\u001b[?25l\u001b[29;1H\u001b[30m\u001b[42m[5] 0:bash*                                                                          \"t450-vmbox\" 00:45 05-Jun-17\u001b(B\u001b[m\u001b[9;13H\u001b[?12l\u001b[?25h"
    ],
    [
      0.5,
      "\u001b[1;28r\u001b[H\u001b[9;13H/tmp/test/img/cat.png\u001b[1;29r\u001b[H\u001b[9;34H"
    ],
    [
      0.5,
      "\u001b[1;28r\u001b[H\u001b[9;34H \u001b[1;29r\u001b[H\u001b[9;35H"
    ],
    [
      0.5,
      "\u001b[1;28r\u001b[H\u001b[9;35H/tmp/tmp/test/img/cat.png\u001b[1;29r\u001b[H\u001b[9;60H"
    ],
    [
      0.5,
      "\r\n"
    ],
    [
      0.000771,
      "\u001b[?25l\u001b[29d\u001b[30m\u001b[42m[5] 0:sha256sum*                                                                     \"t450-vmbox\" 00:45 05-Jun-17\u001b(B\u001b[m\u001b[10;1H\u001b[?12l\u001b[?25h"
    ],
    [
      0.003027,
      "\u001b[1;28r\u001b[H\u001b[9B9c3cdf8f85d54dc6ffd0122e113b86b186833f310b6b3806e379f2741f716b1a  /tmp/test/img/cat.png\u001b[1;29r\u001b[H\u001b[10B"
    ],
    [
      0.003546,
      "\u001b[1;28r\u001b[H\u001b[10B9c3cdf8f85d54dc6ffd0122e113b86b186833f310b6b3806e379f2741f716b1a  /tmp/tmp/test/img/cat.png\r\n$ \u001b[1;29r\u001b[H\u001b[12;3H"
    ],
    [
      0.498559,
      "\u001b[?25l\u001b[29;1H\u001b[30m\u001b[42m[5] 0:bash*                                                                          \"t450-vmbox\" 00:45 05-Jun-17\u001b(B\u001b[m\u001b[12;3H\u001b[?12l\u001b[?25h"
    ],
    [
      0.5,
      "\u001b[1;28r\u001b[H\u001b[12;3Hs\u001b[1;29r\u001b[H\u001b[12;4H"
    ],
    [
      0.158115,
      "\u001b[1;28r\u001b[H\u001b[12;4Hh\u001b[1;29r\u001b[H\u001b[12;5H"
    ],
    [
      0.117607,
      "\u001b[1;28r\u001b[H\u001b[12;5Ha\u001b[1;29r\u001b[H\u001b[12;6H"
    ],
    [
      0.5,
      "\u001b[1;28r\u001b[H\u001b[12;6H2\u001b[1;29r\u001b[H\u001b[12;7H"
    ],
    [
      0.246077,
      "\u001b[1;28r\u001b[H\u001b[12;7H5\u001b[1;29r\u001b[H\u001b[12;8H"
    ],
    [
      0.181633,
      "\u001b[1;28r\u001b[H\u001b[12;8H6\u001b[1;29r\u001b[H\u001b[12;9H"
    ],
    [
      0.5,
      "\u001b[1;28r\u001b[H\u001b[12;9Hs\u001b[1;29r\u001b[H\u001b[12;10H"
    ],
    [
      0.078288,
      "\u001b[1;28r\u001b[H\u001b[12;10Hu\u001b[1;29r\u001b[H\u001b[12;11H"
    ],
    [
      0.129329,
      "\u001b[1;28r\u001b[H\u001b[12;11Hm\u001b[1;29r\u001b[H\u001b[12;12H"
    ],
    [
      0.5,
      "\u001b[1;28r\u001b[H\u001b[12;12H \u001b[1;29r\u001b[H\u001b[12;13H"
    ],
    [
      0.5,
      "\u001b[1;28r\u001b[H\u001b[12;13H/tmp/test/img/tux.png\u001b[1;29r\u001b[H\u001b[12;34H"
    ],
    [
      0.5,
      "\u001b[1;28r\u001b[H\u001b[12;34H \u001b[1;29r\u001b[H\u001b[12;35H"
    ],
    [
      0.5,
      "\u001b[1;28r\u001b[H\u001b[12;35H/tmp/tmp/test/img/tux.png\u001b[1;29r\u001b[H\u001b[12;60H"
    ],
    [
      0.5,
      "\u001b[1;28r\u001b[H\u001b[12Be4f4c8010312078a37ca1797a8c9eaa5156d0fec407d7875522ca31a3d78c586  /tmp/test/img/tux.png\r\ne4f4c8010312078a37ca1797a8c9eaa5156d0fec407d7875522ca31a3d78c586  /tmp/tmp/test/img/tux.png\u001b[1;29r\u001b[H\u001b[14B"
    ],
    [
      0.000463,
      "\u001b[1;28r\u001b[H\u001b[15d$ \u001b[1;29r\u001b[H\u001b[15;3H"
    ],
    [
      0.5,
      "\u001b[1;28r\u001b[H\u001b[15;3Hi\u001b[1;29r\u001b[H\u001b[15;4H"
    ],
    [
      0.102733,
      "\u001b[1;28r\u001b[H\u001b[15;4Hm\u001b[1;29r\u001b[H\u001b[15;5H"
    ],
    [
      0.289043,
      "\u001b[1;28r\u001b[H\u001b[15;5Hg\u001b[1;29r\u001b[H\u001b[15;6H"
    ],
    [
      0.5,
      "\u001b[1;28r\u001b[H\u001b[15;6Ht\u001b[1;29r\u001b[H\u001b[15;7H"
    ],
    [
      0.243091,
      "\u001b[1;28r\u001b[H\u001b[15;7Hx\u001b[1;29r\u001b[H\u001b[15;8H"
    ],
    [
      0.127309,
      "\u001b[1;28r\u001b[H\u001b[15;8Ht\u001b[1;29r\u001b[H\u001b[15;9H"
    ],
    [
      0.5,
      "\b\u001b[K"
    ],
    [
      0.151465,
      "\b\u001b[K"
    ],
    [
      0.142454,
      "\b\u001b[K"
    ],
    [
      0.5,
      "\u001b[1;28r\u001b[H\u001b[15;6H2\u001b[1;29r\u001b[H\u001b[15;7H"
    ],
    [
      0.5,
      "\u001b[1;28r\u001b[H\u001b[15;7Ht\u001b[1;29r\u001b[H\u001b[15;8H"
    ],
    [
      0.103847,
      "\u001b[1;28r\u001b[H\u001b[15;8Hx\u001b[1;29r\u001b[H\u001b[15;9H"
    ],
    [
      0.5,
      "\u001b[1;28r\u001b[H\u001b[15;9Ht \u001b[1;29r\u001b[H\u001b[15;11H"
    ],
    [
      0.5,
      "\u001b[1;28r\u001b[H\u001b[15;11H/tmp/tmp/test/img/cat.png\u001b[1;29r\u001b[H\u001b[15;36H"
    ],
    [
      0.5,
      "\r\n\u001b[?25l\u001b[29d\u001b[30m\u001b[42m[5] 0:img2txt*                                                                       \"t450-vmbox\" 00:46 05-Jun-17\u001b(B\u001b[m\u001b[16;1H\u001b[?12l\u001b[?25h"
    ],
    [
      0.064688,
      "\u001b[1;28r\u001b[H\u001b[16d\u001b[37m\u001b[40m                  \u001b[31m:\u001b[32m.\u001b[37m                                        \r\n                \u001b[31m:t\u001b[30m\u001b[1m8\u001b(B\u001b[m\u001b[31m\u001b[40m:\u001b[37m                                        \r\n               \u001b[31mt\u001b[30m\u001b[1m@@\u001b(B\u001b[m\u001b[31m\u001b[40mS\u001b[32m;\u001b[37m                                        \r\n             \u001b[31m:\u001b[30m\u001b[1mXX\u001b(B\u001b[m\u001b[31m\u001b[40mS\u001b[30m\u001b[1m8@\u001b(B\u001b[m\u001b[31m\u001b[40m:\u001b[37m                                        \r\n            \u001b[30m\u001b[43m\u001b[1mt%\u001b(B\u001b[m\u001b[31m\u001b[40m8\u001b[30m\u001b[1m88\u001b(B\u001b[m\u001b[31m\u001b[40mS\u001b[30m\u001b[1m@\u001b(B\u001b[m\u001b[37m\u001b[40m                                         \r\n           \u001b[30m\u001b[43m\u001b[1mt\u001b(B\u001b[m\u001b[33m\u001b[43m\u001b[5m \u001b[37mX\u001b[33m%\u001b(B\u001b[m\u001b[31m\u001b[40mX\u001b[30m\u001b[1m@@\u001b(B\u001b[m\u001b[31m\u001b[40m;\u001b[37m                                         \r\n          \u001b[30m\u001b[43m\u001b[1mt\u001b(B\u001b[m\u001b[33m\u001b[43m\u001b[5m.\u001b[37m@\u001b[33m \u001b[37m@\u001b(B\u001b[m\u001b[33m\u001b[43m\u001b[1mt\u001b(B\u001b[m\u001b[31m\u001b[40m8\u001b[30m\u001b[1m@\u001b(B\u001b[m\u001b[32m\u001b[40m.\u001b[37m                                         \r\n         \u001b[1;29r\u001b[H\u001b[23;10H\u001b(B\u001b[m\u001b[1;28r\u001b[H\u001b[23;10H\u001b[31m\u001b[40m\u001b[5mX\u001b[33m\u001b[43mt\u001b[37mX\u001b[31m\u001b[1m@\u001b(B\u001b[m\u001b[37m\u001b[43m\u001b[5m@%S\u001b(B\u001b[m\u001b[30m\u001b[4"
    ],
    [
      3.1e-05,
      "3m\u001b[1mS\u001b(B\u001b[m\u001b[31m\u001b[40m%\u001b[37m                                          \r\n         \u001b[33m\u001b[43m\u001b[5mS\u001b[37mX\u001b[33m \u001b[37m@\u001b[31m\u001b[1mX\u001b(B\u001b[m\u001b[37m\u001b[43m\u001b[5mS\u001b[31m\u001b[1mS\u001b(B\u001b[m\u001b[33m\u001b[43m\u001b[1m;\u001b(B\u001b[m\u001b[37m\u001b[40m                                           \r\n        \u001b[30m\u001b[43m\u001b[1mt\u001b(B\u001b[m\u001b[33m\u001b[43m\u001b[5m \u001b[37m@\u001b[31m\u001b[1m@\u001b(B\u001b[m\u001b[37m\u001b[43m\u001b[5m@S%X\u001b(B\u001b[m\u001b[30m\u001b[41m\u001b[1mt\u001b(B\u001b[m\u001b[37m\u001b[40m                                           \r\n       \u001b[31m.\u001b[33m\u001b[43m\u001b[5mt\u001b[37m@\u001b[31m\u001b[1mX\u001b(B\u001b[m\u001b[37m\u001b[43m\u001b[5m@t\u001b[31m\u001b[1mS\u001b(B\u001b[m\u001b[37m\u001b[43m\u001b[5mS\u001b(B\u001b[m\u001b[33m\u001b[41mX\u001b[37m\u001b[40m                                            \r\n       \u001b[30m\u001b[43m\u001b[1m;\u001b(B\u001b[m\u001b[33m\u001b[43m\u001b[5m:\u001b[37m@S\u001b[31m\u001b[1mS\u001b(B\u001b[m\u001b[37m\u001b[43m\u001b[5mXS\u001b[33m\u001b[41mX\u001b(B\u001b[m\u001b[37m\u001b[40m                                             \r\n       \u001b[30m\u001b[43m\u001b[1m%\u001b(B\u001b[m\u001b[37m\u001b[43m\u001b[5mS\u001b[31m\u001b[1mX\u001b(B\u001b[m\u001b[37m\u001b[43m\u001b[5mXS\u001b[31m\u001b[1mS\u001b(B\u001b[m\u001b[33m\u001b[43m\u001b[1m:\u001b(B\u001b[m\u001b[37m\u001b[40m                                              \u001b[39m\u001b[49m\r\n\u001b[37m\u001b[40m       \u001b[1;29r\u001b[H\u001b[28;8H\u001b(B\u001b[m\u001b[1;28r\u001b[H\u001b[28;8H\u001b[33m\u001b[43m\u001b[5m%\u001b[37mXS\u001b[31m\u001b[1mX\u001b(B\u001b[m\u001b[33m\u001b[43m\u001b[5m.\u001b(B\u001b"
    ],
    [
      1.2e-05,
      "[m\u001b[31m\u001b[43m\u001b[1m8\u001b[30m8S%t%%ttt\u001b(B\u001b[m\u001b[31m\u001b[40m@\u001b[37m                                     \u001b[39m\u001b[49m\r\n\u001b[37m\u001b[40m      \u001b[31m.\u001b[30m\u001b[43m\u001b[1mX\u001b(B\u001b[m\u001b[33m\u001b[43m\u001b[5m \u001b[37mSXXX%tt%tt%\u001b[33m  \u001b[37mX\u001b[33m %\u001b(B\u001b[m\u001b[30m\u001b[43m\u001b[1m8t\u001b(B\u001b[m\u001b[37m\u001b[40m      \u001b[31m@\u001b[30m\u001b[43m\u001b[1mtt%\u001b[33m%\u001b(B\u001b[m\u001b[33m\u001b[43m\u001b[5mXSt\u001b[37mX\u001b[33m.:\u001b[37mX\u001b[33m;\u001b(B\u001b[m\u001b[30m\u001b[43m\u001b[1m8\u001b(B\u001b[m\u001b[31m\u001b[40m8\u001b[32m%\u001b[31m%\u001b[34m;\u001b[31m;\u001b[37m        \u001b[39m\u001b[49m\r\n\u001b[37m\u001b[40m     \u001b[31mt\u001b[33m\u001b[43m\u001b[1mX\u001b(B\u001b[m\u001b[37m\u001b[43m\u001b[5mX\u001b[31m\u001b[1m@\u001b(B\u001b[m\u001b[37m\u001b[43m\u001b[5mX\u001b[31m\u001b[1m@\u001b(B\u001b[m\u001b[37m\u001b[43m\u001b[5mS\u001b[31m\u001b[1mS\u001b(B\u001b[m\u001b[37m\u001b[43m\u001b[5mS\u001b[31m\u001b[1mS\u001b(B\u001b[m\u001b[37m\u001b[43m\u001b[5mS\u001b[31m\u001b[1mS\u001b(B\u001b[m\u001b[37m\u001b[43m\u001b[5mS\u001b[31m\u001b[1mS\u001b(B\u001b[m\u001b[37m\u001b[43m\u001b[5mXX\u001b[31m\u001b[1m@\u001b(B\u001b[m\u001b[37m\u001b[43m\u001b[5m@XS\u001b[33m \u001b[37mS\u001b(B\u001b[m\u001b[30m\u001b[43m\u001b[1mS;t%\u001b(B\u001b[m\u001b[33m\u001b[43m\u001b[5m%\u001b[37mS\u001b[33m ;\u001b[37mX\u001b[33m \u001b[37m@XXS\u001b[33m \u001b[37m8\u001b[33m \u001b[37m@\u001b[33m \u001b(B\u001b[m\u001b[30m\u001b[41m\u001b[1m8\u001b[40mX@X\u001b(B\u001b[m\u001b[31m\u001b[40m@\u001b[30m\u001b[1m@\u001b(B\u001b[m\u001b[31m\u001b[40mt\u001b[32m;\u001b[37m      \u001b[1;29r\u001b[H\u001b[28;61H\u001b(B\u001b[m"
    ],
    [
      3.4e-05,
      "\u001b[1;28r\u001b[H\u001b[28d\n\u001b[37m\u001b[40m    \u001b[31m%\u001b[33m\u001b[43m\u001b[5m%\u001b[37mX%S%S\u001b[31m\u001b[1mS\u001b(B\u001b[m\u001b[37m\u001b[43m\u001b[5m@%S\u001b[31m\u001b[1mS\u001b(B\u001b[m\u001b[37m\u001b[43m\u001b[5m@%S\u001b[31m\u001b[1mX\u001b(B\u001b[m\u001b[37m\u001b[43m\u001b[5mXS\u001b[31m\u001b[1mS\u001b(B\u001b[m\u001b[37m\u001b[43m\u001b[5mS\u001b[31m\u001b[1mX\u001b(B\u001b[m\u001b[37m\u001b[43m\u001b[5m@\u001b[31m\u001b[1mS\u001b(B\u001b[m\u001b[37m\u001b[43m\u001b[5mS\u001b[33m \u001b[37mS\u001b[33m \u001b[37m@\u001b[33m \u001b[37m8S\u001b[31m\u001b[1m@\u001b(B\u001b[m\u001b[37m\u001b[43m\u001b[5m@\u001b[31m\u001b[1mS\u001b(B\u001b[m\u001b[37m\u001b[43m\u001b[5mS\u001b[31m\u001b[1m@\u001b(B\u001b[m\u001b[37m\u001b[43m\u001b[5mX\u001b[31m\u001b[1m8\u001b(B\u001b[m\u001b[37m\u001b[43m\u001b[5m@\u001b[31m\u001b[1m8\u001b(B\u001b[m\u001b[33m\u001b[43m\u001b[5m.\u001b(B\u001b[m\u001b[30m\u001b[41m8\u001b[34m\u001b[40mX\u001b[31m@%\u001b[32mt\u001b[34m;\u001b[32m;\u001b[31mX\u001b[33m\u001b[5m8\u001b(B\u001b[m\u001b[30m\u001b[43m\u001b[1m.t%\u001b[33mX\u001b(B\u001b[m\u001b[33m\u001b[43m\u001b[5mt\u001b[40m8\u001b(B\u001b[m\r\n\u001b[37m\u001b[40m    \u001b[33m\u001b[43m\u001b[1m@\u001b(B\u001b[m\u001b[37m\u001b[43m\u001b[5mX%\u001b[31m\u001b[1mX\u001b(B\u001b[m\u001b[37m\u001b[43m\u001b[5mS\u001b[31m\u001b[1mX\u001b(B\u001b[m\u001b[37m\u001b[43m\u001b[5mXS\u001b[31m\u001b[1m%\u001b(B\u001b[m\u001b[37m\u001b[43m\u001b[5mS\u001b[31m\u001b[1mS\u001b(B\u001b[m\u001b[37m\u001b[43m\u001b[5m@\u001b[31m\u001b[1mt\u001b(B\u001b[m\u001b[37m\u001b[43m\u001b[5mS\u001b[31m\u001b[1mS\u001b(B\u001b[m\u001b[37m\u001b[43m\u001b[5m@\u001b[31m\u001b[1m%\u001b(B\u001b[m\u001b[37m\u001b[43m\u001b[5mXS\u001b[31m\u001b[1mS\u001b(B\u001b[m\u001b[37m\u001b[43m\u001b[5m@%S\u001b[31m\u001b[1mS\u001b(B\u001b[m\u001b[37m\u001b[43m\u001b[5m@\u001b[31m\u001b[1mX\u001b(B\u001b[m\u001b[37m\u001b[43m\u001b[5m@\u001b[31m\u001b[1m@\u001b(B\u001b[m\u001b[37m\u001b[43m\u001b[5m@\u001b[31m\u001b[1m@\u001b(B\u001b[m\u001b[37m\u001b[43m\u001b[5mXS%S\u001b[31m\u001b[1mS\u001b(B\u001b[m\u001b"
    ],
    [
      1e-05,
      "[37m\u001b[43m\u001b[5m@\u001b[1;29r\u001b[H\u001b[28;41H\u001b(B\u001b[m"
    ],
    [
      0.000216,
      "\u001b[1;28r\u001b[H\u001b[28;41H\u001b[33m\u001b[43m\u001b[5m \u001b(B\u001b[m\u001b[31m\u001b[43m\u001b[1m8\u001b(B\u001b[m\u001b[37m\u001b[43mX\u001b[30m\u001b[1m8\u001b(B\u001b[m\u001b[34m\u001b[40mS\u001b[31mS\u001b[5m8\u001b(B\u001b[m\u001b[30m\u001b[43m\u001b[1m;X\u001b[33mS\u001b(B\u001b[m\u001b[33m\u001b[43m\u001b[5m;\u001b[37mX\u001b[33m ;:\u001b[37mX%SS\u001b(B\u001b[m\u001b[33m\u001b[41m8\u001b[39m\u001b[49m\r\n\u001b[37m\u001b[40m   \u001b[30m\u001b[43m\u001b[1m;\u001b(B\u001b[m\u001b[33m\u001b[43m\u001b[5m.\u001b[37mX\u001b[33m.\u001b[37mX\u001b[31m\u001b[1mX\u001b(B\u001b[m\u001b[37m\u001b[43m\u001b[5m@\u001b[31m\u001b[1m%\u001b(B\u001b[m\u001b[37m\u001b[43m\u001b[5mXS\u001b[31m\u001b[1m%\u001b(B\u001b[m\u001b[37m\u001b[43m\u001b[5m@%\u001b[31m\u001b[1m%\u001b(B\u001b[m\u001b[37m\u001b[43m\u001b[5m@S\u001b[31m\u001b[1mt\u001b(B\u001b[m\u001b[37m\u001b[43m\u001b[5m@\u001b[31m\u001b[1m%\u001b(B\u001b[m\u001b[37m\u001b[43m\u001b[5mXS\u001b[31m\u001b[1m%\u001b(B\u001b[m\u001b[37m\u001b[43m\u001b[5mS\u001b[31m\u001b[1mS\u001b(B\u001b[m\u001b[37m\u001b[43m\u001b[5m@%S\u001b[31m\u001b[1m@\u001b(B\u001b[m\u001b[37m\u001b[43mX\u001b[31m\u001b[1m8\u001b[30m8\u001b(B\u001b[m\u001b[33m\u001b[41mX\u001b[30m\u001b[1mX\u001b(B\u001b[m\u001b[30m\u001b[41m@\u001b[37m\u001b[40m  \u001b[32m \u001b[31mX\u001b[33m\u001b[5m8\u001b(B\u001b[m\u001b[31m\u001b[43mX\u001b[30m\u001b[1mX\u001b(B\u001b[m\u001b[33m\u001b[43m\u001b[5m .t\u001b[37mX%XS\u001b[33m \u001b[37m8X\u001b[31m\u001b[1m@\u001b(B\u001b[m\u001b[37m\u001b[43m\u001b[5mX\u001b[31m\u001b[1mS\u001b(B\u001b[m\u001b[37m\u001b[43m\u001b[5mS\u001b[33m \u001b(B\u001b[m\u001b[30m\u001b[41m\u001b[1m@\u001b(B\u001b[m\r\n\u001b[37m\u001b[40m   \u001b[30m\u001b[43m\u001b[1m%\u001b(B\u001b[m\u001b[37m\u001b[43m\u001b[5mS\u001b(B\u001b[m\u001b[31m\u001b[43m\u001b[1m8\u001b[30m\u001b[41m@\u001b(B\u001b[m\u001b[35m\u001b[40m\u001b[5mX\u001b(B\u001b[m\u001b[30m\u001b[43m\u001b[1mX\u001b(B\u001b[m\u001b[37m\u001b[43m\u001b[5m%S\u001b[31m\u001b[1m%\u001b(B\u001b[m\u001b[37m\u001b[43m\u001b[5mXS\u001b[31m\u001b[1m%\u001b[37m%\u001b[31m%\u001b(B\u001b"
    ],
    [
      1.3e-05,
      "[m\u001b[37m\u001b[43m\u001b[5mX\u001b[31m\u001b[1m%\u001b[37m%\u001b[1;29r\u001b[H\u001b[28;21H\u001b(B\u001b[m"
    ],
    [
      0.000179,
      "\u001b[1;28r\u001b[H\u001b[28;21H\u001b[31m\u001b[43m\u001b[1m\u001b[5m%\u001b(B\u001b[m\u001b[37m\u001b[43m\u001b[5m@\u001b[31m\u001b[1mX\u001b(B\u001b[m\u001b[31m\u001b[43m\u001b[1m8\u001b[30m8\u001b[31m\u001b[5mX\u001b(B\u001b[m\u001b[37m\u001b[43m\u001b[5m@\u001b[31m\u001b[1m%\u001b(B\u001b[m\u001b[37m\u001b[43m\u001b[5mS\u001b[31m\u001b[1mS\u001b(B\u001b[m\u001b[37m\u001b[43m\u001b[5m@XX\u001b(B\u001b[m\u001b[33m\u001b[41m@\u001b[37m\u001b[40m  \u001b[31m8\u001b[30m\u001b[43m\u001b[1m%%\u001b(B\u001b[m\u001b[33m\u001b[43m\u001b[5m;\u001b[37mX\u001b[33m \u001b[37mX%XXS\u001b[33m \u001b[31m\u001b[1m@\u001b(B\u001b[m\u001b[37m\u001b[43m\u001b[5mX\u001b[31m\u001b[1mX\u001b(B\u001b[m\u001b[37m\u001b[43m\u001b[5m@\u001b[31m\u001b[1m@\u001b(B\u001b[m\u001b[37m\u001b[43m\u001b[5mXX%S\u001b[31m\u001b[1mX\u001b(B\u001b[m\u001b[37m\u001b[43m\u001b[5m@\u001b(B\u001b[m\u001b[33m\u001b[41m8\u001b[39m\u001b[49m\r\n\u001b[37m\u001b[40m   \u001b[33m\u001b[43m\u001b[5mX:\u001b(B\u001b[m\u001b[34m\u001b[40m%\u001b[35m\u001b[5mS\u001b[37m\u001b[47m:\u001b[31m\u001b[40m8\u001b[33m\u001b[43m \u001b[31m\u001b[1mX\u001b(B\u001b[m\u001b[37m\u001b[43m\u001b[5m@\u001b[31m\u001b[1m%\u001b[37m%\u001b[31mS\u001b(B\u001b[m\u001b[37m\u001b[43m\u001b[5m@S\u001b[31m\u001b[1m%\u001b[37mS\u001b[31mS\u001b(B\u001b[m\u001b[37m\u001b[43m\u001b[5mX\u001b(B\u001b[m\u001b[35m\u001b[41m:\u001b[30m\u001b[47m\u001b[1m.\u001b[37mt\u001b(B\u001b[m\u001b[31m\u001b[40mS\u001b[30m\u001b[41m\u001b[1m8\u001b(B\u001b[m\u001b[33m\u001b[43m\u001b[5m \u001b[37m@\u001b[31m\u001b[1m%\u001b(B\u001b[m\u001b[37m\u001b[43m\u001b[5m@\u001b[31m\u001b[1m%\u001b(B\u001b[m\u001b[37m\u001b[43m\u001b[5mS\u001b[31m\u001b[1m8\u001b(B\u001b[m\u001b[30m\u001b[43m\u001b[1m8\u001b[33m;\u001b(B\u001b[m\u001b[37m\u001b[43m\u001b[5mS\u001b[33m \u001b[37mS%S\u001b[33m \u001b[37m@\u001b[31m\u001b[1mX\u001b(B\u001b[m\u001b[37m\u001b[43m\u001b[5mS\u001b[31m\u001b[1m@\u001b(B\u001b[m\u001b[37m\u001b[43m\u001b[5mS\u001b[31m\u001b[1m@\u001b(B\u001b[m\u001b[37m\u001b[43m\u001b[5m8S%S\u001b[31m\u001b[1mS\u001b(B\u001b[m\u001b[37m\u001b[43m\u001b[5m@t"
    ],
    [
      1.3e-05,
      "\u001b[31m\u001b[1mS\u001b[1;29r\u001b[H\u001b[28;56H\u001b(B\u001b[m"
    ],
    [
      0.000195,
      "\u001b[1;28r\u001b[H\u001b[28;56H\u001b[37m\u001b[43m\u001b[5mS\u001b[31m\u001b[1mS\u001b(B\u001b[m\u001b[37m\u001b[43m\u001b[5m@%\u001b(B\u001b[m\u001b[30m\u001b[41m@\u001b[39m\u001b[49m\r\n\u001b[37m\u001b[40m  \u001b[31mS\u001b[37m\u001b[43m\u001b[5mX\u001b(B\u001b[m\u001b[30m\u001b[43m\u001b[1m8\u001b(B\u001b[m\u001b[31m\u001b[40mS\u001b[32m \u001b[31m:\u001b[30m\u001b[43m\u001b[1m;\u001b(B\u001b[m\u001b[33m\u001b[43m\u001b[5m \u001b[37m8\u001b[31m\u001b[1m@\u001b(B\u001b[m\u001b[37m\u001b[43m\u001b[5mX\u001b[31m\u001b[1m%\u001b(B\u001b[m\u001b[37m\u001b[43m\u001b[5m@\u001b[31m\u001b[1m%\u001b[37m%\u001b[31mS\u001b(B\u001b[m\u001b[37m\u001b[43m\u001b[5m@S\u001b[33m\u001b[41m@\u001b(B\u001b[m\u001b[32m\u001b[40m:\u001b[35m\u001b[5mt\u001b[33m \u001b(B\u001b[m\u001b[34m\u001b[40m. \u001b[33m\u001b[43m\u001b[1m;\u001b(B\u001b[m\u001b[37m\u001b[43m\u001b[5mXS%S\u001b[31m\u001b[1mS\u001b(B\u001b[m\u001b[37m\u001b[43m\u001b[5m8\u001b(B\u001b[m\u001b[31m\u001b[43m\u001b[1m8\u001b(B\u001b[m\u001b[37m\u001b[43m\u001b[5mX%S\u001b[33m \u001b[37mS\u001b[31m\u001b[1m@\u001b(B\u001b[m\u001b[37m\u001b[43m\u001b[5m@\u001b[31m\u001b[1mX\u001b(B\u001b[m\u001b[37m\u001b[43m\u001b[5m@%S\u001b[31m\u001b[1mS\u001b(B\u001b[m\u001b[37m\u001b[43m\u001b[5m@\u001b[31m\u001b[1m%\u001b(B\u001b[m\u001b[37m\u001b[43m\u001b[5mX\u001b[31m\u001b[1mS\u001b(B\u001b[m\u001b[37m\u001b[43m\u001b[5mXS\u001b[31m\u001b[1m%\u001b(B\u001b[m\u001b[37m\u001b[43m\u001b[5mXS\u001b[31m\u001b[1mS\u001b(B\u001b[m\u001b[37m\u001b[43m\u001b[5m@\u001b[31m\u001b[1mt\u001b(B\u001b[m\u001b[37m\u001b[43m\u001b[5mS\u001b(B\u001b[m\u001b[31m\u001b[40m8\u001b[39m\u001b[49m\r\n\u001b[37m\u001b[40m  \u001b[31m\u001b[43m8\u001b[33m\u001b[1m%\u001b(B\u001b[m\u001b[37m\u001b[43m\u001b[5mS\u001b(B\u001b[m\u001b[31m\u001b[43m@\u001b[30m\u001b[41m\u001b[1m8\u001b[43m.\u001b(B\u001b[m\u001b[33m\u001b[43m\u001b[5m;\u001b[37m8\u001b(B\u001b[m\u001b[31m\u001b[43m\u001b[1m8\u001b[30m\u001b[41m8\u001b[33m\u001b[43m:\u001b(B\u001b[m\u001b[37m\u001b[43m\u001b[5m@\u001b[31m\u001b[1mt\u001b(B\u001b[m\u001b[37m\u001b[43m\u001b[5m@\u001b[31m\u001b[1m%\u001b[37mS"
    ],
    [
      1.7e-05,
      "\u001b[31mS\u001b(B\u001b[m\u001b[37m\u001b[43m\u001b[5mS\u001b[33m \u001b(B\u001b[m\u001b[31m\u001b[40m%\u001b[34m \u001b[31m \u001b[34m \u001b[1;29r\u001b[H\u001b[28;26H\u001b(B\u001b[m"
    ],
    [
      0.000167,
      "\u001b[1;28r\u001b[H\u001b[28;26H\u001b[30m\u001b[41m\u001b[1m8\u001b(B\u001b[m\u001b[37m\u001b[43m\u001b[5m%t\u001b[31m\u001b[1mS\u001b(B\u001b[m\u001b[37m\u001b[43m\u001b[5mS\u001b[31m\u001b[1m%\u001b(B\u001b[m\u001b[37m\u001b[43m\u001b[5m@%\u001b(B\u001b[m\u001b[33m\u001b[43m\u001b[1m.\u001b(B\u001b[m\u001b[33m\u001b[43m\u001b[5m \u001b[41m\u001b[1m8\u001b(B\u001b[m\u001b[37m\u001b[43m\u001b[5m8\u001b[31m\u001b[1m8\u001b(B\u001b[m\u001b[37m\u001b[43m\u001b[5m@S%S\u001b[31m\u001b[1mS\u001b(B\u001b[m\u001b[37m\u001b[43m\u001b[5mS\u001b[31m\u001b[1mS\u001b(B\u001b[m\u001b[37m\u001b[43m\u001b[5m@%S\u001b[31m\u001b[1m%\u001b(B\u001b[m\u001b[37m\u001b[43m\u001b[5m@\u001b[31m\u001b[1m%\u001b(B\u001b[m\u001b[37m\u001b[43m\u001b[5mXS\u001b[31m\u001b[1mS\u001b(B\u001b[m\u001b[37m\u001b[43m\u001b[5mXS\u001b[31m\u001b[1mt\u001b(B\u001b[m\u001b[37m\u001b[43m\u001b[5m@\u001b[31m\u001b[1mS\u001b(B\u001b[m\u001b[37m\u001b[40m \u001b[39m\u001b[49m\r\n\u001b[37m\u001b[40m \u001b[33m\u001b[41m@\u001b[5m:\u001b(B\u001b[m\u001b[31m\u001b[43m\u001b[1m8\u001b[30m8\u001b(B\u001b[m\u001b[37m\u001b[43m\u001b[5m%\u001b[33m \u001b[37mX\u001b[33m \u001b[37mX\u001b[33m \u001b[37mX%%\u001b[31m\u001b[1m%\u001b[37m%\u001b[31m%\u001b(B\u001b[m\u001b[37m\u001b[43m\u001b[5mXS\u001b[31m\u001b[1mS\u001b(B\u001b[m\u001b[37m\u001b[43m\u001b[5m8\u001b[33m \u001b(B\u001b[m\u001b[30m\u001b[43m\u001b[1m8\u001b(B\u001b[m\u001b[31m\u001b[43m8\u001b[40m\u001b[5mX\u001b(B\u001b[m\u001b[31m\u001b[43m;\u001b[1m8\u001b[33m.\u001b(B\u001b[m\u001b[37m\u001b[43m\u001b[5m@\u001b[31m\u001b[1m%\u001b(B\u001b[m\u001b[37m\u001b[43m\u001b[5m@\u001b[31m\u001b[1mt\u001b(B\u001b[m\u001b[37m\u001b[43m\u001b[5mX\u001b[33m\u001b[41m@\u001b(B\u001b[m\u001b[33m\u001b[47m8\u001b[37m\u001b[43m\u001b[5m@\u001b[31m\u001b[1m8\u001b(B\u001b[m\u001b[33m\u001b[47m\u001b[1m8\u001b[41m\u001b[5m8\u001b(B\u001b[m\u001b[37m\u001b[43m\u001b[5m@\u001b[33m\u001b[41m\u001b[1m8\u001b(B\u001b[m\u001b[37m\u001b[43m\u001b[5m8\u001b[31m\u001b[1m@\u001b(B\u001b[m\u001b[37m\u001b[43m\u001b[5m8S\u001b[31m\u001b[1mS\u001b(B\u001b[m\u001b[37m\u001b[43m\u001b[5mX\u001b[31m\u001b[1m%\u001b(B"
    ],
    [
      6.8e-05,
      "\u001b[m\u001b[37m\u001b[43m\u001b[5m@\u001b[31m\u001b[1mt\u001b(B\u001b[m\u001b[37m\u001b[43m\u001b[5m@\u001b[31m\u001b[1m%\u001b(B\u001b[m\u001b[37m\u001b[43m\u001b[5mXS\u001b[1;29r\u001b[H\u001b[28;55H\u001b(B\u001b[m"
    ],
    [
      0.00018,
      "\u001b[1;28r\u001b[H\u001b[28;55H\u001b[31m\u001b[43m\u001b[1m\u001b[5m%\u001b(B\u001b[m\u001b[37m\u001b[43m\u001b[5mXS\u001b[31m\u001b[1m%\u001b(B\u001b[m\u001b[37m\u001b[43m\u001b[5mX\u001b(B\u001b[m\u001b[37m\u001b[40m \u001b[39m\u001b[49m\r\n\u001b[30m\u001b[41m@\u001b[33m\u001b[5m;\u001b(B\u001b[m\u001b[33m\u001b[47m8\u001b[41m\u001b[5m \u001b(B\u001b[m\u001b[30m\u001b[43m\u001b[1m8\u001b(B\u001b[m\u001b[37m\u001b[43m\u001b[5m%\u001b[33m \u001b(B\u001b[m\u001b[31m\u001b[43m\u001b[1m8\u001b[30m8\u001b[33m.\u001b[31m8\u001b[30m8\u001b[33m.\u001b(B\u001b[m\u001b[37m\u001b[43m\u001b[5mX\u001b[31m\u001b[1m%\u001b(B\u001b[m\u001b[37m\u001b[43m\u001b[5m@S\u001b[31m\u001b[1mS\u001b(B\u001b[m\u001b[37m\u001b[43m\u001b[5mXS\u001b[31m\u001b[1mS\u001b(B\u001b[m\u001b[37m\u001b[43m\u001b[5m@\u001b(B\u001b[m\u001b[33m\u001b[41m8\u001b[5m@t:\u001b(B\u001b[m\u001b[31m\u001b[47m\u001b[1m8\u001b(B\u001b[m\u001b[33m\u001b[41m\u001b[5m @\u001b[37m\u001b[43mX%\u001b[31m\u001b[1m%\u001b(B\u001b[m\u001b[37m\u001b[43m\u001b[5m@\u001b(B\u001b[m\u001b[30m\u001b[43m\u001b[1mX\u001b[31m\u001b[5m@\u001b(B\u001b[m\u001b[37m\u001b[43m\u001b[5m8\u001b[33m\u001b[41m\u001b[1m8\u001b(B\u001b[m\u001b[37m\u001b[43m\u001b[5m8X\u001b[33m\u001b[41m \u001b[37m\u001b[43m8X\u001b[31m\u001b[1m8\u001b(B\u001b[m\u001b[37m\u001b[43m\u001b[5m8\u001b[33m\u001b[41m\u001b[1m8\u001b(B\u001b[m\u001b[37m\u001b[43m\u001b[5m8\u001b[31m\u001b[1m8\u001b(B\u001b[m\u001b[37m\u001b[43m\u001b[5m8\u001b[31m\u001b[1m@\u001b(B\u001b[m\u001b[37m\u001b[43m\u001b[5m8\u001b[31m\u001b[1mS\u001b(B\u001b[m\u001b[37m\u001b[43m\u001b[5m@\u001b[31m\u001b[1m%\u001b[37m%\u001b[31m%\u001b(B\u001b[m\u001b[37m\u001b[43m\u001b[5mX\u001b[31m\u001b[1m%\u001b(B\u001b[m\u001b[37m\u001b[43m\u001b[5m@\u001b(B\u001b[m\u001b[31m\u001b[43m\u001b[1m8\u001b(B\u001b[m\u001b[37m\u001b[40m \u001b[39m\u001b[49m\r\n\u001b[30m\u001b[41m8\u001b[33m\u001b[5m.\u001b[37m\u001b[43m8\u001b[31m\u001b[41m \u001b(B\u001b[m\u001b[30m\u001b[43m\u001b[1m8\u001b(B\u001b[m\u001b[37m\u001b[43m\u001b[5mSXXSXX%\u001b[31m\u001b[1m%8\u001b(B\u001b[m\u001b[37m\u001b[43m@\u001b[33m\u001b[41m\u001b[1m\u001b[5"
    ],
    [
      1.4e-05,
      "m8\u001b(B\u001b[m\u001b[33m\u001b[43m\u001b[1m:\u001b[31m\u001b[5m8\u001b(B\u001b[m\u001b[37m\u001b[43m\u001b[5mX\u001b[31m\u001b[1mS\u001b(B\u001b[m\u001b[37m\u001b[43m\u001b[5m@\u001b(B\u001b[m\u001b[31m\u001b[43m\u001b[1m8\u001b(B\u001b[m\u001b[33m\u001b[41m\u001b[5mt\u001b(B\u001b[m\u001b[33m\u001b[47m8\u001b[1;29r\u001b[H\u001b[28;25H\u001b(B\u001b[m"
    ],
    [
      0.000166,
      "\u001b[1;28r\u001b[H\u001b[28;25H\u001b[33m\u001b[41m\u001b[5m \u001b[37m\u001b[43m8\u001b[33m\u001b[41m \u001b(B\u001b[m\u001b[33m\u001b[47m\u001b[1m8\u001b(B\u001b[m\u001b[31m\u001b[41m\u001b[5m \u001b(B\u001b[m\u001b[30m\u001b[41m\u001b[1m8\u001b(B\u001b[m\u001b[37m\u001b[43m\u001b[5m%S\u001b[31m\u001b[1m%\u001b(B\u001b[m\u001b[30m\u001b[43m\u001b[1m8\u001b(B\u001b[m\u001b[37m\u001b[43m\u001b[5m@\u001b[33m\u001b[41m \u001b[37m\u001b[43m8\u001b[33m.\u001b(B\u001b[m\u001b[31m\u001b[47m\u001b[1m8\u001b(B\u001b[m\u001b[37m\u001b[43m\u001b[5mX\u001b[33m \u001b[37m\u001b[41m8\u001b[43m8\u001b[33m\u001b[41m\u001b[1m8\u001b(B\u001b[m\u001b[37m\u001b[43m\u001b[5m8\u001b[31m\u001b[1m8\u001b(B\u001b[m\u001b[33m\u001b[47m\u001b[1m8\u001b[31m\u001b[43m\u001b[5m8\u001b(B\u001b[m\u001b[37m\u001b[43m\u001b[5m8\u001b[31m\u001b[1m8\u001b(B\u001b[m\u001b[37m\u001b[43m\u001b[5m8\u001b[31m\u001b[1m8\u001b(B\u001b[m\u001b[37m\u001b[43m\u001b[5m8\u001b[31m\u001b[1m8\u001b(B\u001b[m\u001b[37m\u001b[43m\u001b[5m8\u001b[31m\u001b[1mS\u001b[37mS\u001b[31m%\u001b(B\u001b[m\u001b[30m\u001b[43m\u001b[1m@\u001b(B\u001b[m\u001b[37m\u001b[40m \u001b[39m\u001b[49m\r\n\u001b[37m\u001b[40m \u001b[33m\u001b[41m8\u001b[31m\u001b[5m.\u001b[33m\u001b[40mS\u001b[43m:\u001b[31m\u001b[1m8\u001b(B\u001b[m\u001b[37m\u001b[43m\u001b[5mX\u001b[31m\u001b[1mS\u001b(B\u001b[m\u001b[37m\u001b[43m\u001b[5mS\u001b[31m\u001b[1mS\u001b(B\u001b[m\u001b[37m\u001b[43m\u001b[5mS\u001b[31m\u001b[1m%\u001b(B\u001b[m\u001b[37m\u001b[43m\u001b[5m8S%SXS\u001b[31m\u001b[1mS\u001b(B\u001b[m\u001b[37m\u001b[43m\u001b[5m@%\u001b(B\u001b[m\u001b[33m\u001b[43m\u001b[1m%\u001b(B\u001b[m\u001b[33m\u001b[41m\u001b[5mS \u001b(B\u001b[m\u001b[33m\u001b[47m\u001b[1m8\u001b(B\u001b[m\u001b[31m\u001b[41m\u001b[5m \u001b[33m:.\u001b(B\u001b[m\u001b[33m\u001b[47m8\u001b[41m8\u001b[37m\u001b[43m\u001b[5m%%S\u001b(B\u001b[m\u001b[31m\u001b[41m\u001b[1m8\u001b(B\u001b[m\u001b[37m\u001b[43m\u001b[5m@@\u001b(B\u001b[m\u001b[37m\u001b[43m@\u001b[31m\u001b[1m\u001b[5m8\u001b(B\u001b[m\u001b[37m\u001b[43m\u001b[5m@\u001b[33m\u001b[41m.\u001b(B\u001b[m\u001b[33m\u001b[47m\u001b[1m8\u001b("
    ],
    [
      1.3e-05,
      "B\u001b[m\u001b[33m\u001b[43m\u001b[5m \u001b[37m\u001b[41m8\u001b[43m@\u001b[31m\u001b[1m8\u001b(B\u001b[m\u001b[33m\u001b[47m\u001b[1m8\u001b[41m\u001b[5m8\u001b(B\u001b[m\u001b[33m\u001b[47m\u001b[1m8\u001b[41m\u001b[5m8\u001b(B\u001b[m\u001b[33m\u001b[47m\u001b[1m8\u001b[31m\u001b[43m\u001b[5m8\u001b[1;29r\u001b[H\u001b[28;52H\u001b(B\u001b[m"
    ],
    [
      0.000208,
      "\u001b[1;28r\u001b[H\u001b[28;52H\u001b[37m\u001b[43m\u001b[5m8\u001b[33m\u001b[41m\u001b[1m8\u001b(B\u001b[m\u001b[37m\u001b[43m\u001b[5m8\u001b[33m\u001b[41m\u001b[1m8\u001b(B\u001b[m\u001b[37m\u001b[43m\u001b[5m8\u001b[33m\u001b[41m \u001b[37m\u001b[43m@\u001b(B\u001b[m\u001b[31m\u001b[40mS\u001b[37m \u001b[39m\u001b[49m\r\n\u001b[37m\u001b[40m  \u001b[30m\u001b[43m\u001b[1mt\u001b(B\u001b[m\u001b[33m\u001b[43m\u001b[5m.\u001b[37m8S%S\u001b[31m\u001b[1mS\u001b(B\u001b[m\u001b[37m\u001b[43m\u001b[5m@%S\u001b[31m\u001b[1m%\u001b(B\u001b[m\u001b[37m\u001b[43m\u001b[5mS\u001b[31m\u001b[1mS\u001b(B\u001b[m\u001b[37m\u001b[43m\u001b[5mS\u001b[31m\u001b[1mS\u001b(B\u001b[m\u001b[37m\u001b[43m\u001b[5mXS\u001b[31m\u001b[1m%\u001b(B\u001b[m\u001b[37m\u001b[43m\u001b[5mXX\u001b(B\u001b[m\u001b[37m\u001b[43mX\u001b[31m@\u001b[41m\u001b[5m \u001b(B\u001b[m\u001b[33m\u001b[47m8\u001b[41m\u001b[1m\u001b[5m8\u001b(B\u001b[m\u001b[30m\u001b[43m\u001b[1m8\u001b(B\u001b[m\u001b[33m\u001b[41m\u001b[5m8\u001b[43m.\u001b[37mX\u001b[31m\u001b[1mX\u001b(B\u001b[m\u001b[33m\u001b[43m\u001b[5m \u001b(B\u001b[m\u001b[30m\u001b[43m\u001b[1m8\u001b(B\u001b[m\u001b[33m\u001b[43m\u001b[5m \u001b[37m\u001b[41m8\u001b[43mX\u001b(B\u001b[m\u001b[31m\u001b[43m\u001b[1m8\u001b[30m88\u001b[41m@\u001b(B\u001b[m\u001b[31m\u001b[40m\u001b[5m8\u001b(B\u001b[m\u001b[31m\u001b[43m8\u001b[40m\u001b[5m8\u001b(B\u001b[m\u001b[30m\u001b[41m\u001b[1mX\u001b(B\u001b[m\u001b[31m\u001b[40m8\u001b[5m8\u001b(B\u001b[m\u001b[37m\u001b[40m             \u001b[39m\u001b[49m\r\n\u001b[37m\u001b[40m   \u001b[30m\u001b[43m\u001b[1m;\u001b[33m;\u001b(B\u001b[m\u001b[37m\u001b[43m\u001b[5mS\u001b[31m\u001b[1mX\u001b(B\u001b[m\u001b[37m\u001b[43m\u001b[5mXS\u001b[31m\u001b[1m%\u001b(B\u001b[m\u001b[37m\u001b[43m\u001b[5mS\u001b[31m\u001b[1m%\u001b(B\u001b[m\u001b[37m\u001b[43m\u001b[5m@\u001b[31m\u001b[1mt\u001b(B\u001b[m\u001b[37m\u001b[43m\u001b[5m@%S\u001b[31m\u001b[1m%\u001b(B\u001b[m\u001b[37m\u001b[43m\u001b[5mXS\u001b[31m\u001b[1m%\u001b(B\u001b[m\u001b[37m\u001b[43m\u001b[5mS%X\u001b[33mt\u001b(B\u001b[m\u001b[30m\u001b[43m\u001b[1"
    ],
    [
      1.4e-05,
      "m8\u001b[33mt\u001b(B\u001b[m\u001b[37m\u001b[43m\u001b[5m@XS\u001b[31m\u001b[1mX\u001b(B\u001b[m\u001b[37m\u001b[43m\u001b[5m8\u001b(B\u001b[m\u001b[31m\u001b[43m\u001b[1m8\u001b(B\u001b[m\u001b[33m\u001b[47m8\u001b[31m\u001b[43m\u001b[1m\u001b[5m8\u001b(B\u001b[m\u001b[37m\u001b[43m\u001b[5m@\u001b[31m\u001b[1m8\u001b[1;29r\u001b[H\u001b[28;38H\u001b(B\u001b[m"
    ],
    [
      0.000184,
      "\u001b[1;28r\u001b[H\u001b[28;38H\u001b[33m\u001b[47m\u001b[1m8\u001b[31m\u001b[43m8\u001b[30m\u001b[40m8\u001b(B\u001b[m\u001b[37m\u001b[40m                    \u001b[39m\u001b[49m\r\n\u001b[37m\u001b[40m     \u001b[30m\u001b[43m\u001b[1mt\u001b(B\u001b[m\u001b[37m\u001b[43m\u001b[5m%\u001b[31m\u001b[1mS\u001b(B\u001b[m\u001b[37m\u001b[43m\u001b[5mXS\u001b[31m\u001b[1m%\u001b[37mS\u001b[31m%\u001b[37m%\u001b[31mS\u001b(B\u001b[m\u001b[37m\u001b[43m\u001b[5mS\u001b[31m\u001b[1m%\u001b(B\u001b[m\u001b[37m\u001b[43m\u001b[5m@\u001b[31m\u001b[1m%\u001b(B\u001b[m\u001b[37m\u001b[43m\u001b[5mXS\u001b[31m\u001b[1m%\u001b(B\u001b[m\u001b[37m\u001b[43m\u001b[5mS\u001b[31m\u001b[1mS\u001b(B\u001b[m\u001b[37m\u001b[43m\u001b[5m@SS\u001b[31m\u001b[1mS\u001b(B\u001b[m\u001b[37m\u001b[43m\u001b[5mS\u001b[31m\u001b[1mS\u001b(B\u001b[m\u001b[37m\u001b[43m\u001b[5m@%\u001b(B\u001b[m\u001b[31m\u001b[43mX\u001b[37m\u001b[5mX\u001b[33m\u001b[41m\u001b[1m8\u001b(B\u001b[m\u001b[33m\u001b[47m\u001b[1m8\u001b(B\u001b[m\u001b[33m\u001b[43m\u001b[5m \u001b(B\u001b[m\u001b[31m\u001b[47m\u001b[1m8\u001b(B\u001b[m\u001b[37m\u001b[43m\u001b[5mS\u001b(B\u001b[m\u001b[33m\u001b[43m\u001b[1mt\u001b[30m8\u001b(B\u001b[m\u001b[37m\u001b[40m                   \u001b[39m\u001b[49m\r\n\u001b[37m\u001b[40m      \u001b[30m\u001b[43m\u001b[1mt@\u001b[31m\u001b[5mX\u001b(B\u001b[m\u001b[37m\u001b[43m\u001b[5mX\u001b[31m\u001b[1m%\u001b(B\u001b[m\u001b[37m\u001b[43m\u001b[5m@\u001b[31m\u001b[1m%\u001b(B\u001b[m\u001b[37m\u001b[43m\u001b[5m@S\u001b[31m\u001b[1m%\u001b[37mS\u001b[31m%\u001b[37m%\u001b[31mXX\u001b(B\u001b[m\u001b[37m\u001b[43m\u001b[5mX\u001b[33m\u001b[41m.\u001b[43mS;\u001b[31m\u001b[1m8\u001b(B\u001b[m\u001b[37m\u001b[43m\u001b[5m@S%S\u001b[31m\u001b[1m%\u001b(B\u001b[m\u001b[37m\u001b[43m\u001b[5mX\u001b(B\u001b[m\u001b[31m\u001b[43m8\u001b[30m\u001b[1m8\u001b(B\u001b[m\u001b[37m\u001b[43m\u001b[5m8\u001b[33m\u001b[41m \u001b[37m\u001b[43m8\u001b[33m \u001b[37m\u001b[41m8\u001b[43mX\u001b[33m \u001b(B\u001b[m\u001b[30m\u001b[43m\u001b[1m8\u001b[41mX\u001b("
    ],
    [
      1.3e-05,
      "B\u001b[m\u001b[37m\u001b[40m                 \u001b[39m\u001b[49m\r\n\u001b[1;29r\u001b[H\u001b[28d"
    ],
    [
      0.000217,
      "\u001b[1;28r\u001b[H\u001b[28d\u001b[37m\u001b[40m    \u001b[30m\u001b[43m\u001b[1mt\u001b(B\u001b[m\u001b[33m\u001b[43m\u001b[5m% \u001b(B\u001b[m\u001b[33m\u001b[43m\u001b[1m:\u001b(B\u001b[m\u001b[33m\u001b[43m\u001b[5m:\u001b[31m\u001b[1m8\u001b(B\u001b[m\u001b[37m\u001b[43m\u001b[5m8\u001b[31m\u001b[1mS\u001b(B\u001b[m\u001b[37m\u001b[43m\u001b[5m8\u001b[31m\u001b[1m%\u001b(B\u001b[m\u001b[37m\u001b[43m\u001b[5mX\u001b[31m\u001b[1m%8\u001b(B\u001b[m\u001b[37m\u001b[43mX\u001b[33m\u001b[41m\u001b[1m\u001b[5m8\u001b(B\u001b[m\u001b[33m\u001b[43m\u001b[5m%\u001b(B\u001b[m\u001b[33m\u001b[47m\u001b[1m8\u001b(B\u001b[m\u001b[33m\u001b[43m\u001b[5m \u001b[37m@X\u001b[33m.\u001b(B\u001b[m\u001b[33m\u001b[47m\u001b[1m8\u001b[31m\u001b[43m\u001b[5mX\u001b(B\u001b[m\u001b[37m\u001b[43m\u001b[5mS\u001b[31m\u001b[1mS\u001b(B\u001b[m\u001b[37m\u001b[43m\u001b[5mXS\u001b[31m\u001b[1m%\u001b(B\u001b[m\u001b[30m\u001b[43m\u001b[1m8\u001b(B\u001b[m\u001b[37m\u001b[40m \u001b[31m8\u001b[37m\u001b[43m\u001b[5m@\u001b(B\u001b[m\u001b[37m\u001b[43mX\u001b[31m\u001b[1m\u001b[5m8\u001b(B\u001b[m\u001b[37m\u001b[43m\u001b[5m8\u001b[33m\u001b[41m \u001b(B\u001b[m\u001b[33m\u001b[47m\u001b[1m8\u001b(B\u001b[m\u001b[33m\u001b[43m\u001b[5m \u001b(B\u001b[m\u001b[37m\u001b[43m@\u001b[30m\u001b[1mX\u001b(B\u001b[m\u001b[37m\u001b[40m                \u001b[39m\u001b[49m\r\n\u001b[37m\u001b[40m   \u001b[33m\u001b[43m\u001b[1mS\u001b(B\u001b[m\u001b[37m\u001b[43m\u001b[5mSXXX\u001b[33m\u001b[41m:\u001b[37m\u001b[43m8\u001b(B\u001b[m\u001b[31m\u001b[43m\u001b[1m8\u001b(B\u001b[m\u001b[37m\u001b[43mX\u001b[33m\u001b[41m\u001b[1m\u001b[5m8\u001b(B\u001b[m\u001b[37m\u001b[43m\u001b[5m8\u001b[33m\u001b[41m \u001b(B\u001b[m\u001b[37m\u001b[43m@\u001b[5mS%XS\u001b[31m\u001b[1m@\u001b(B\u001b[m\u001b[37m\u001b[43m\u001b[5mX\u001b[33m \u001b[37m@\u001b[31m\u001b[1m8\u001b(B\u001b[m\u001b[37m\u001b[43m\u001b[5mX%\u001b[31m\u001b[1mS\u001b(B\u001b[m\u001b[37m\u001b[43m\u001b[5m@\u001b[31m\u001b[1m%\u001b(B\u001b[m\u001b[37m\u001b[43m\u001b[5mXS\u001b(B\u001b[m\u001b[31m\u001b[43m\u001b[1m8\u001b(B\u001b[m\u001b[37m\u001b[40m   "
    ],
    [
      1.8e-05,
      "\u001b[30m\u001b[43m\u001b[1mS\u001b(B\u001b[m\u001b[37m\u001b[43m@\u001b[5mX@\u001b[33m\u001b[41m.\u001b[37m\u001b[43m8\u001b[31m\u001b[1m8\u001b(B\u001b[m\u001b[33m\u001b[40m\u001b[5m8\u001b(B\u001b[m\u001b[37m\u001b[40m                \u001b[39m\u001b[49m\r\n\u001b[37m\u001b[40m  \u001b[30m\u001b[43m\u001b[1m%\u001b(B\u001b[m\u001b[37m\u001b[43m\u001b[5m%\u001b[1;29r\u001b[H\u001b[28;5H\u001b(B\u001b[m"
    ],
    [
      0.0002,
      "\u001b[1;28r\u001b[H\u001b[28;5H\u001b[33m\u001b[43m\u001b[5m \u001b[31m\u001b[1m@\u001b(B\u001b[m\u001b[37m\u001b[43m\u001b[5mXSX%S%\u001b(B\u001b[m\u001b[33m\u001b[43m\u001b[1m.\u001b[30m8\u001b(B\u001b[m\u001b[37m\u001b[43m\u001b[5mSt\u001b[33m \u001b[37mS\u001b[31m\u001b[1mX\u001b(B\u001b[m\u001b[37m\u001b[43m\u001b[5mX%\u001b[31m\u001b[1mX\u001b(B\u001b[m\u001b[37m\u001b[43m\u001b[5m@\u001b[31m\u001b[1mX\u001b(B\u001b[m\u001b[37m\u001b[43m\u001b[5m@\u001b[31m\u001b[1m%\u001b(B\u001b[m\u001b[37m\u001b[43m\u001b[5mXS\u001b[31m\u001b[1mt\u001b(B\u001b[m\u001b[37m\u001b[43m\u001b[5m@\u001b[31m\u001b[1m%\u001b(B\u001b[m\u001b[37m\u001b[43m\u001b[5mX\u001b[33m:\u001b(B\u001b[m\u001b[37m\u001b[40m   \u001b[30m\u001b[43m\u001b[1mS\u001b(B\u001b[m\u001b[33m\u001b[43m\u001b[5m \u001b[41m.\u001b[37m\u001b[43m8@\u001b(B\u001b[m\u001b[30m\u001b[43m\u001b[1m8\u001b(B\u001b[m\u001b[30m\u001b[41m8\u001b[37m\u001b[40m                 \u001b[39m\u001b[49m\r\n\u001b[37m\u001b[40m  \u001b[33m\u001b[43m\u001b[5m@\u001b[37mXXS\u001b[31m\u001b[1mX\u001b(B\u001b[m\u001b[37m\u001b[43m\u001b[5mStt\u001b[31m\u001b[1mS\u001b(B\u001b[m\u001b[33m\u001b[43m\u001b[5m \u001b(B\u001b[m\u001b[31m\u001b[43m\u001b[1m8\u001b(B\u001b[m\u001b[37m\u001b[43m\u001b[5m@t%\u001b[31m\u001b[1m@\u001b(B\u001b[m\u001b[37m\u001b[43m\u001b[5m@%\u001b[31m\u001b[1mS\u001b(B\u001b[m\u001b[37m\u001b[43m\u001b[5mXS%S%S\u001b[31m\u001b[1mS\u001b(B\u001b[m\u001b[37m\u001b[43m\u001b[5mXS\u001b[31m\u001b[1m%\u001b(B\u001b[m\u001b[37m\u001b[43m\u001b[5m@\u001b[33m\u001b[41m.\u001b(B\u001b[m\u001b[30m\u001b[43m\u001b[1m8\u001b(B\u001b[m\u001b[31m\u001b[40m;%\u001b[30m\u001b[43m\u001b[1m8\u001b(B\u001b[m\u001b[37m\u001b[43m\u001b[5mX\u001b(B\u001b[m\u001b[33m\u001b[47m8\u001b[37m\u001b[43m\u001b[5mX\u001b(B\u001b[m\u001b[31m\u001b[43m\u001b[1m8\u001b(B\u001b[m\u001b[33m\u001b[40m\u001b[5m8\u001b(B\u001b[m\u001b[37m\u001b[40m                   \u001b[39m\u001b[49m\r\n\u001b[37m\u001b[40m  \u001b[30m\u001b[43m\u001b[1mt\u001b(B\u001b[m\u001b[33m\u001b[43m\u001b[5m \u001b[31m\u001b[1m@\u001b(B\u001b[m\u001b[37m\u001b"
    ],
    [
      1.3e-05,
      "[43m\u001b[5m@S\u001b[31m\u001b[1mS\u001b(B\u001b[m\u001b[37m\u001b[43m\u001b[5mS\u001b[31m\u001b[1mS\u001b(B\u001b[m\u001b[37m\u001b[43m\u001b[5m@\u001b(B\u001b[m\u001b[30m\u001b[43m\u001b[1m8\u001b(B\u001b[m\u001b[37m\u001b[43m\u001b[5mXt\u001b[31m\u001b[1mX\u001b(B\u001b[m\u001b[37m\u001b[43m\u001b[5mXS\u001b[31m\u001b[1mS\u001b(B\u001b[m\u001b[37m\u001b[43m\u001b[5mXS\u001b[1;29r\u001b[H\u001b[28;21H\u001b(B\u001b[m"
    ],
    [
      0.000177,
      "\u001b[1;28r\u001b[H\u001b[28;21H\u001b[31m\u001b[43m\u001b[1m\u001b[5mS\u001b(B\u001b[m\u001b[37m\u001b[43m\u001b[5mS\u001b[31m\u001b[1mS\u001b(B\u001b[m\u001b[37m\u001b[43m\u001b[5mS\u001b[31m\u001b[1mS\u001b(B\u001b[m\u001b[37m\u001b[43m\u001b[5mXS\u001b[31m\u001b[1m%\u001b(B\u001b[m\u001b[37m\u001b[43m\u001b[5mX\u001b[31m\u001b[1mt\u001b(B\u001b[m\u001b[31m\u001b[43m\u001b[1m8\u001b[30m88\u001b(B\u001b[m\u001b[30m\u001b[41m@\u001b[33m\u001b[43m\u001b[5mS\u001b[37m8\u001b[33m\u001b[41m\u001b[1m8\u001b(B\u001b[m\u001b[37m\u001b[43m\u001b[5mX\u001b(B\u001b[m\u001b[33m\u001b[41m8\u001b[37m\u001b[40m                     \u001b[39m\u001b[49m\r\n\u001b[37m\u001b[40m   \u001b[30m\u001b[43m\u001b[1m%\u001b(B\u001b[m\u001b[37m\u001b[43m\u001b[5mS\u001b[31m\u001b[1mX\u001b(B\u001b[m\u001b[37m\u001b[43m\u001b[5mXS\u001b[31m\u001b[1m@\u001b(B\u001b[m\u001b[37m\u001b[43m\u001b[5m8\u001b(B\u001b[m\u001b[31m\u001b[41m\u001b[1m@\u001b(B\u001b[m\u001b[37m\u001b[43m\u001b[5mSt%S\u001b[31m\u001b[1mS\u001b(B\u001b[m\u001b[37m\u001b[43m\u001b[5mXS\u001b[31m\u001b[1m%\u001b(B\u001b[m\u001b[37m\u001b[43m\u001b[5mXS\u001b[31m\u001b[1m%\u001b(B\u001b[m\u001b[37m\u001b[43m\u001b[5m@\u001b[31m\u001b[1m%\u001b(B\u001b[m\u001b[37m\u001b[43m\u001b[5m@\u001b[31m\u001b[1m%\u001b(B\u001b[m\u001b[37m\u001b[43m\u001b[5mX\u001b[31m\u001b[1mt\u001b[37m%\u001b(B\u001b[m\u001b[37m\u001b[43m\u001b[5mXS\u001b[33m \u001b[37mX\u001b(B\u001b[m\u001b[30m\u001b[43m\u001b[1m8\u001b[31m8\u001b(B\u001b[m\u001b[37m\u001b[43m\u001b[5m8\u001b[31m\u001b[1m8\u001b(B\u001b[m\u001b[33m\u001b[47m8\u001b[41m@\u001b[31m\u001b[40m@\u001b[37m                    \u001b[39m\u001b[49m\r\n\u001b[37m\u001b[40m     \u001b[31m8\u001b[43m8\u001b[1m8\u001b(B\u001b[m\u001b[37m\u001b[43m@\u001b[31m\u001b[1m8\u001b[30m8\u001b[33m.\u001b(B\u001b[m\u001b[37m\u001b[43m\u001b[5m%\u001b[31m\u001b[1m@\u001b(B\u001b[m\u001b[37m\u001b[43m\u001b[5mXS\u001b[31m\u001b[1m%\u001b(B\u001b[m\u001b[37m\u001b[43m\u001b[5mX\u001b[31m\u001b[1m%\u001b(B\u001b[m\u001b[37m\u001b[43m\u001b[5mX\u001b[31m\u001b[1mS\u001b(B\u001b[m\u001b[37m"
    ],
    [
      1.3e-05,
      "\u001b[43m\u001b[5m8\u001b[31m\u001b[1mS\u001b(B\u001b[m\u001b[37m\u001b[43m\u001b[5m8\u001b[31m\u001b[1mX\u001b[37m%\u001b[31m%\u001b[1;29r\u001b[H\u001b[28;28H\u001b(B\u001b[m"
    ],
    [
      0.000227,
      "\u001b[1;28r\u001b[H\u001b[28;28H\u001b[37m\u001b[43m\u001b[5m8\u001b[31m\u001b[1mS\u001b(B\u001b[m\u001b[37m\u001b[43m\u001b[5mS\u001b[31m\u001b[1mS\u001b(B\u001b[m\u001b[37m\u001b[43m\u001b[5m@\u001b[31m\u001b[1mX\u001b(B\u001b[m\u001b[37m\u001b[43m\u001b[5mX\u001b(B\u001b[m\u001b[30m\u001b[41m\u001b[1mX\u001b(B\u001b[m\u001b[33m\u001b[40m\u001b[5m8\u001b(B\u001b[m\u001b[31m\u001b[43m\u001b[1m8\u001b(B\u001b[m\u001b[31m\u001b[41m\u001b[5m8\u001b(B\u001b[m\u001b[30m\u001b[43m\u001b[1mX\u001b(B\u001b[m\u001b[33m\u001b[41m8X\u001b[31m\u001b[40m%\u001b[37m                  \u001b[39m\u001b[49m\r\n\u001b[37m\u001b[40m      \u001b[31m\u001b[5mX\u001b[33m\u001b[43m \u001b[37mXS%%\u001b[33m\u001b[41m \u001b[43mX\u001b(B\u001b[m\u001b[31m\u001b[43m\u001b[1m8\u001b(B\u001b[m\u001b[33m\u001b[43m\u001b[5m:\u001b[41mt\u001b[43m%\u001b(B\u001b[m\u001b[31m\u001b[43m\u001b[1m8\u001b(B\u001b[m\u001b[37m\u001b[43m@\u001b[33m\u001b[41m\u001b[5m \u001b(B\u001b[m\u001b[37m\u001b[43m@\u001b[33m\u001b[41m\u001b[5m:\u001b(B\u001b[m\u001b[37m\u001b[43m@\u001b[5mS\u001b[31m\u001b[1mS\u001b(B\u001b[m\u001b[37m\u001b[43m\u001b[5m@\u001b[31m\u001b[1mt\u001b[37m%\u001b[31mS\u001b(B\u001b[m\u001b[37m\u001b[43m\u001b[5m@%St\u001b(B\u001b[m\u001b[31m\u001b[43m;\u001b[37m\u001b[40m  \u001b[30m\u001b[41mX\u001b[31m\u001b[43m8\u001b[41m\u001b[1m8\u001b[30m\u001b[43m@\u001b(B\u001b[m\u001b[30m\u001b[41mX\u001b[37m\u001b[40m                  \u001b[39m\u001b[49m\r\n\u001b[37m\u001b[40m      \u001b[33m\u001b[43m\u001b[1m%\u001b(B\u001b[m\u001b[37m\u001b[43m\u001b[5mXtt\u001b[31m\u001b[1mS\u001b(B\u001b[m\u001b[37m\u001b[43m\u001b[5mX:8X@@@XSXSS%\u001b[31m\u001b[1mS\u001b(B\u001b[m\u001b[37m\u001b[43m\u001b[5m8%\u001b[31m\u001b[1m%\u001b(B\u001b[m\u001b[37m\u001b[43m\u001b[5m@S\u001b[31m\u001b[1m%\u001b(B\u001b[m\u001b[37m\u001b[43m\u001b[5mS\u001b[31m\u001b[1mS\u001b(B\u001b[m\u001b[37m\u001b[43m\u001b[5mX%\u001b(B\u001b[m\u001b[31m\u001b[40m@\u001b[30m\u001b[41m@\u001b[31m\u001b[43mX8\u001b[33m\u001b[41m8\u001b[31m\u001b[40m8\u001b[37m        "
    ],
    [
      1.5e-05,
      "           \u001b[39m\u001b[49m\r\n\u001b[37m\u001b[40m     \u001b[31m\u001b[5mS\u001b[33m\u001b[43m \u001b[37m%\u001b[31m\u001b[1mX\u001b(B\u001b[m\u001b[37m\u001b[43m\u001b[5mXS%S%t\u001b[1;29r\u001b[H\u001b[28;16H\u001b(B\u001b[m"
    ],
    [
      0.000108,
      "\u001b[1;28r\u001b[H\u001b[28;16H\u001b[31m\u001b[43m\u001b[1m\u001b[5m%\u001b(B\u001b[m\u001b[37m\u001b[43m\u001b[5mSt\u001b[31m\u001b[1mS\u001b(B\u001b[m\u001b[37m\u001b[43m\u001b[5mStt\u001b[31m\u001b[1mS\u001b(B\u001b[m\u001b[37m\u001b[43m\u001b[5mXS\u001b[31m\u001b[1m%\u001b(B\u001b[m\u001b[37m\u001b[43m\u001b[5mXS\u001b[31m\u001b[1m%\u001b(B\u001b[m\u001b[37m\u001b[43m\u001b[5mX\u001b[31m\u001b[1m%\u001b(B\u001b[m\u001b[37m\u001b[43m\u001b[5m@S\u001b[31m\u001b[1mX\u001b(B\u001b[m\u001b[31m\u001b[43m\u001b[1m8\u001b(B\u001b[m\u001b[31m\u001b[40m\u001b[5m@\u001b(B\u001b[m\u001b[31m\u001b[43m8\u001b[33m\u001b[41m8\u001b[30m\u001b[1m8\u001b(B\u001b[m\u001b[37m\u001b[40m                     \u001b[39m\u001b[49m\r\n\u001b[37m\u001b[40m    \u001b[31m;\u001b[33m\u001b[43m\u001b[5mX\u001b[37mS%S\u001b[31m\u001b[1mS\u001b(B\u001b[m\u001b[37m\u001b[43m\u001b[5mS\u001b[31m\u001b[1m%\u001b(B\u001b[m\u001b[37m\u001b[43m\u001b[5mS\u001b[31m\u001b[1mS\u001b(B\u001b[m\u001b[37m\u001b[43m\u001b[5mXS\u001b[31m\u001b[1mS\u001b(B\u001b[m\u001b[37m\u001b[43m\u001b[5mXS\u001b[31m\u001b[1m%\u001b(B\u001b[m\u001b[37m\u001b[43m\u001b[5mS\u001b[31m\u001b[1mS\u001b(B\u001b[m\u001b[37m\u001b[43m\u001b[5m@\u001b[31m\u001b[1m%\u001b(B\u001b[m\u001b[37m\u001b[43m\u001b[5mXS\u001b[31m\u001b[1m%\u001b[37m%\u001b[31m%\u001b[37m%\u001b[31m%\u001b(B\u001b[m\u001b[37m\u001b[43m\u001b[5mX\u001b[31m\u001b[1mX\u001b(B\u001b[m\u001b[30m\u001b[43m\u001b[1m8\u001b(B\u001b[m\u001b[33m\u001b[41m\u001b[5m%\u001b(B\u001b[m\u001b[30m\u001b[43m\u001b[1m8\u001b[41mS\u001b(B\u001b[m\u001b[30m\u001b[41m8\u001b[37m\u001b[40m                      \u001b[1;29r\u001b[H\u001b[28d\u001b(B\u001b[m"
    ],
    [
      0.000212,
      "\u001b[1;28r\u001b[H\u001b[28d\n\u001b[37m\u001b[40m    \u001b[33m\u001b[43m\u001b[1m%\u001b(B\u001b[m\u001b[37m\u001b[43m\u001b[5mS\u001b[33m \u001b[31m\u001b[1m@\u001b(B\u001b[m\u001b[37m\u001b[43m\u001b[5m@S\u001b[31m\u001b[1m%\u001b(B\u001b[m\u001b[37m\u001b[43m\u001b[5m@\u001b[31m\u001b[1m%\u001b(B\u001b[m\u001b[37m\u001b[43m\u001b[5m@\u001b[31m\u001b[1m%\u001b(B\u001b[m\u001b[37m\u001b[43m\u001b[5mXS\u001b[31m\u001b[1m%\u001b(B\u001b[m\u001b[37m\u001b[43m\u001b[5mXS\u001b[31m\u001b[1mS\u001b(B\u001b[m\u001b[37m\u001b[43m\u001b[5m@%S\u001b[31m\u001b[1m%\u001b(B\u001b[m\u001b[37m\u001b[43m\u001b[5mX\u001b[31m\u001b[1m%\u001b(B\u001b[m\u001b[37m\u001b[43m\u001b[5m@\u001b[31m\u001b[1m%\u001b(B\u001b[m\u001b[37m\u001b[43m\u001b[5m@\u001b[31m\u001b[1mt\u001b[37m%\u001b(B\u001b[m\u001b[33m\u001b[41m\u001b[5m:\u001b(B\u001b[m\u001b[30m\u001b[43m\u001b[1m8\u001b(B\u001b[m\u001b[37m\u001b[43mX\u001b[33m\u001b[1m:\u001b(B\u001b[m\u001b[31m\u001b[40mX\u001b[37m                       \u001b[39m\u001b[49m\r\n\u001b[37m\u001b[40m   \u001b[30m\u001b[43m\u001b[1mt\u001b(B\u001b[m\u001b[37m\u001b[43m\u001b[5m%%XS\u001b[31m\u001b[1mS\u001b(B\u001b[m\u001b[37m\u001b[43m\u001b[5mXS\u001b[31m\u001b[1m%\u001b(B\u001b[m\u001b[37m\u001b[43m\u001b[5m@%\u001b[31m\u001b[1mt\u001b(B\u001b[m\u001b[37m\u001b[43m\u001b[5mX\u001b[31m\u001b[1m%\u001b(B\u001b[m\u001b[37m\u001b[43m\u001b[5m@\u001b[31m\u001b[1m%\u001b(B\u001b[m\u001b[37m\u001b[43m\u001b[5mXS\u001b[31m\u001b[1m%\u001b(B\u001b[m\u001b[37m\u001b[43m\u001b[5mS\u001b[31m\u001b[1m%\u001b[37m%\u001b[31m%\u001b[37mS\u001b[31mS\u001b[37mS\u001b[31m%\u001b(B\u001b[m\u001b[37m\u001b[43m\u001b[5m8%%S%S\u001b(B\u001b[m\u001b[31m\u001b[40m8\u001b[37m                       \u001b[39m\u001b[49m\r\n\u001b[37m\u001b[40m   \u001b[33m\u001b[43m\u001b[1m@\u001b(B\u001b[m\u001b[37m\u001b[43m\u001b[5mS\u001b[31m\u001b[1mX\u001b(B\u001b[m\u001b[37m\u001b[43m\u001b[5mS\u001b[31m\u001b[1mS\u001b(B\u001b[m\u001b[37m\u001b[43m\u001b[5m@\u001b[31m\u001b[1m%\u001b(B\u001b[m\u001b[37m\u001b[43m\u001b[5mXS\u001b[31m\u001b[1m%\u001b[3"
    ],
    [
      1.4e-05,
      "7m%\u001b[31m%\u001b(B\u001b[m\u001b[37m\u001b[43m\u001b[5m@\u001b[1;29r\u001b[H\u001b[28;17H\u001b(B\u001b[m"
    ],
    [
      0.000198,
      "\u001b[1;28r\u001b[H\u001b[28;17H\u001b[31m\u001b[43m\u001b[1m\u001b[5mt\u001b[37m%\u001b[31m%\u001b(B\u001b[m\u001b[37m\u001b[43m\u001b[5mX\u001b[31m\u001b[1m%\u001b[37m%\u001b[31mS\u001b(B\u001b[m\u001b[37m\u001b[43m\u001b[5m@\u001b[31m\u001b[1m%\u001b(B\u001b[m\u001b[37m\u001b[43m\u001b[5m@\u001b[31m\u001b[1m%\u001b(B\u001b[m\u001b[37m\u001b[43m\u001b[5m@\u001b[31m\u001b[1m%\u001b[37m%\u001b[31mS\u001b(B\u001b[m\u001b[37m\u001b[43m\u001b[5mXt\u001b[31m\u001b[1m%\u001b(B\u001b[m\u001b[37m\u001b[43m\u001b[5mS\u001b[33m \u001b(B\u001b[m\u001b[37m\u001b[40m                        \u001b[39m\u001b[49m\r\n\u001b[37m\u001b[40m   \u001b[33m\u001b[43m\u001b[1m%\u001b(B\u001b[m\u001b[37m\u001b[43m\u001b[5mXS\u001b[31m\u001b[1mS\u001b(B\u001b[m\u001b[37m\u001b[43m\u001b[5m@%\u001b[31m\u001b[1m%\u001b(B\u001b[m\u001b[37m\u001b[43m\u001b[5mX\u001b[31m\u001b[1mX\u001b(B\u001b[m\u001b[37m\u001b[43m\u001b[5m8\u001b[31m\u001b[1m@\u001b(B\u001b[m\u001b[37m\u001b[43m\u001b[5m8\u001b[31m\u001b[1m@\u001b(B\u001b[m\u001b[37m\u001b[43m\u001b[5m8\u001b[31m\u001b[1m8\u001b(B\u001b[m\u001b[37m\u001b[43m\u001b[5m8\u001b[31m\u001b[1mX\u001b(B\u001b[m\u001b[37m\u001b[43m\u001b[5m8\u001b[31m\u001b[1mX\u001b(B\u001b[m\u001b[37m\u001b[43m\u001b[5m8\u001b[31m\u001b[1m%\u001b[37mS\u001b[31m%\u001b[37m%\u001b[31m%\u001b(B\u001b[m\u001b[37m\u001b[43m\u001b[5m@\u001b[31m\u001b[1m%\u001b[37m%\u001b[31mS\u001b(B\u001b[m\u001b[37m\u001b[43m\u001b[5mXS\u001b[31m\u001b[1mX\u001b(B\u001b[m\u001b[30m\u001b[43m\u001b[1m8\u001b(B\u001b[m\u001b[37m\u001b[40m                        \u001b[39m\u001b[49m\r\n\u001b[37m\u001b[40m   \u001b[31mS\u001b[33m\u001b[43m\u001b[1mt\u001b(B\u001b[m\u001b[37m\u001b[43m\u001b[5m8\u001b[31m\u001b[1m8\u001b(B\u001b[m\u001b[37m\u001b[43m\u001b[5m8\u001b[31m\u001b[1m8\u001b(B\u001b[m\u001b[37m\u001b[43m\u001b[5m8\u001b[31m\u001b[1m8\u001b(B\u001b[m\u001b[37m\u001b[43m\u001b[5m8\u001b[31m\u001b[1m8\u001b(B\u001b[m\u001b[37m\u001b[43m\u001b[5m8\u001b[31m\u001b[1m8\u001b(B\u001b[m\u001b[37m\u001b[43m\u001b[5m8\u001b[31m\u001b[1m8\u001b(B\u001b[m\u001b[37m\u001b[43"
    ],
    [
      1.5e-05,
      "m\u001b[5m8\u001b[31m\u001b[1m8\u001b[1;29r\u001b[H\u001b[28;20H\u001b(B\u001b[m"
    ],
    [
      0.000203,
      "\u001b[1;28r\u001b[H\u001b[28;20H\u001b[37m\u001b[43m\u001b[5m8\u001b[31m\u001b[1m8\u001b(B\u001b[m\u001b[37m\u001b[43m\u001b[5m8\u001b[31m\u001b[1m8\u001b(B\u001b[m\u001b[37m\u001b[43m\u001b[5m8\u001b[31m\u001b[1m8\u001b(B\u001b[m\u001b[37m\u001b[43m\u001b[5m8\u001b[31m\u001b[1m8\u001b(B\u001b[m\u001b[37m\u001b[43m\u001b[5m8\u001b[31m\u001b[1m@\u001b(B\u001b[m\u001b[37m\u001b[43m\u001b[5m8\u001b[31m\u001b[1m@\u001b(B\u001b[m\u001b[37m\u001b[43m\u001b[5m8\u001b[31m\u001b[1m@\u001b(B\u001b[m\u001b[37m\u001b[43m\u001b[5m8\u001b[33m\u001b[41m%\u001b(B\u001b[m\u001b[37m\u001b[40m                         \u001b[39m\u001b[49m\r\n\u001b[37m\u001b[40m     \u001b[30m\u001b[43m\u001b[1mS\u001b[31m8\u001b(B\u001b[m\u001b[37m\u001b[43m\u001b[5m8\u001b[31m\u001b[1m8\u001b(B\u001b[m\u001b[33m\u001b[47m\u001b[1m8\u001b[41m\u001b[5m8\u001b(B\u001b[m\u001b[37m\u001b[43m\u001b[5m8\u001b[41m8\u001b[33m\u001b[43m \u001b(B\u001b[m\u001b[31m\u001b[45m\u001b[1m8\u001b[30m\u001b[43m8\u001b(B\u001b[m\u001b[33m\u001b[41m\u001b[5m%\u001b(B\u001b[m\u001b[30m\u001b[43m\u001b[1m8\u001b[31m8\u001b(B\u001b[m\u001b[37m\u001b[43m8\u001b[33m\u001b[41m\u001b[5m%\u001b(B\u001b[m\u001b[33m\u001b[47m8\u001b[41m\u001b[1m\u001b[5m8\u001b(B\u001b[m\u001b[33m\u001b[47m\u001b[1m8\u001b[31m\u001b[43m\u001b[5m8\u001b(B\u001b[m\u001b[33m\u001b[47m\u001b[1m8\u001b[31m\u001b[43m\u001b[5m8\u001b(B\u001b[m\u001b[37m\u001b[43m\u001b[5m8\u001b[31m\u001b[1m8\u001b(B\u001b[m\u001b[37m\u001b[43m\u001b[5m8\u001b[31m\u001b[1m8\u001b(B\u001b[m\u001b[37m\u001b[43m\u001b[5m8\u001b[33m\u001b[41m\u001b[1m8\u001b(B\u001b[m\u001b[31m\u001b[40m\u001b[5m@\u001b(B\u001b[m\u001b[37m\u001b[40m                          \u001b[39m\u001b[49m\r\n\u001b[37m\u001b[40m    \u001b[31m\u001b[5mS\u001b(B\u001b[m\u001b[30m\u001b[43m\u001b[1m;\u001b(B\u001b[m\u001b[37m\u001b[43mX\u001b[5m@\u001b[33m\u001b[41m\u001b[1m8\u001b(B\u001b[m\u001b[37m\u001b[43m\u001b[5m8\u001b[33m\u001b[41mt\u001b(B\u001b[m\u001b[37m\u001b[43m@\u001b[31m\u001b[1m8\u001b[30m8\u001b(B\u001b[m\u001b[30m\u001b[41m8\u001b[37m\u001b[40m         \u001b[3"
    ],
    [
      1.1e-05,
      "1mt\u001b[33m\u001b[41m8\u001b[30m\u001b[43m\u001b[1m8\u001b(B\u001b[m\u001b[33m\u001b[41m\u001b[5m;\u001b(B\u001b[m\u001b[33m\u001b[47m\u001b[1m8\u001b[31m\u001b[43m\u001b[5m8\u001b(B\u001b[m\u001b[33m\u001b[47m\u001b[1m8\u001b(B\u001b[m\u001b[33m\u001b[41m\u001b[5m.\u001b(B\u001b[m\u001b[30m\u001b[43m\u001b[1m88\u001b[41m8\u001b(B\u001b[m\u001b[37m\u001b[40m           \u001b[1;29r\u001b[H\u001b[28;47H\u001b(B\u001b[m"
    ],
    [
      0.009331,
      "\u001b[1;28r\u001b[H\u001b[28;47H\u001b[37m\u001b[40m              \u001b[39m\u001b[49m\r\n\u001b[37m\u001b[40m  \u001b[30m\u001b[41m\u001b[1m8\u001b[43m \u001b(B\u001b[m\u001b[31m\u001b[43m8\u001b[30m\u001b[1m%\u001b(B\u001b[m\u001b[33m\u001b[43m\u001b[5m \u001b[41m\u001b[1m8\u001b(B\u001b[m\u001b[33m\u001b[47m\u001b[1m8\u001b(B\u001b[m\u001b[37m\u001b[43m\u001b[5mX\u001b(B\u001b[m\u001b[30m\u001b[43m\u001b[1m88\u001b(B\u001b[m\u001b[31m\u001b[40m\u001b[5m8\u001b(B\u001b[m\u001b[37m\u001b[40m            \u001b[31m\u001b[5mS\u001b(B\u001b[m\u001b[30m\u001b[43m\u001b[1m@\u001b(B\u001b[m\u001b[37m\u001b[43m\u001b[5m@X\u001b[41m@\u001b[43mX@S\u001b(B\u001b[m\u001b[33m\u001b[43m\u001b[1m:\u001b[30m;t\u001b(B\u001b[m\u001b[31m\u001b[40m8\u001b[37m                       \u001b[39m\u001b[49m\r\n\u001b[37m\u001b[40m  \u001b[31m@\u001b[30m\u001b[42m8\u001b[43m\u001b[1m%S\u001b[41m8\u001b(B\u001b[m\u001b[33m\u001b[40m\u001b[5m8\u001b(B\u001b[m\u001b[37m\u001b[40m                     \u001b[31m8\u001b[30m\u001b[43m\u001b[1mS\u001b(B\u001b[m\u001b[31m\u001b[43mS\u001b[30m\u001b[1mX\u001b[33m;\u001b[30m@\u001b(B\u001b[m\u001b[31m\u001b[43m8\u001b[33m\u001b[40m\u001b[5m8\u001b(B\u001b[m\u001b[32m\u001b[40m \u001b[37m                      \u001b[39m\u001b[49m\r\n\u001b[1;29r\u001b[H\u001b[28d"
    ],
    [
      4.8e-05,
      "\u001b[1;28r\u001b[H\u001b[28d$ \u001b[1;29r\u001b[H\u001b[28;3H"
    ],
    [
      0.5,
      "\u001b[?25l\r\n\u001b[30m\u001b[42m[5] 0:bash*                                                                          \"t450-vmbox\" 00:46 05-Jun-17\u001b(B\u001b[m\u001b[28;3H\u001b[?12l\u001b[?25h"
    ],
    [
      0.5,
      "\u001b[1;28r\u001b[H\u001b[28;3Himg2txt /tmp/tmp/test/img/cat.png\u001b[1;29r\u001b[H\u001b[28;36H"
    ],
    [
      0.5,
      "\b\u001b[K"
    ],
    [
      0.17154,
      "\b\u001b[K"
    ],
    [
      0.125441,
      "\b\u001b[K"
    ],
    [
      0.125529,
      "\b\u001b[K"
    ],
    [
      0.085667,
      "\b\u001b[K"
    ],
    [
      0.150314,
      "\b\u001b[K"
    ],
    [
      0.350392,
      "\b\u001b[K"
    ],
    [
      0.5,
      "\u001b[1;28r\u001b[H\u001b[28;29Ht\u001b[1;29r\u001b[H\u001b[28;30H"
    ],
    [
      0.139112,
      "\u001b[1;28r\u001b[H\u001b[28;30Hux.png \u001b[1;29r\u001b[H\u001b[28;37H"
    ],
    [
      0.5,
      "\u001b[1;28r\u001b[H\u001b[28d\n\u001b[1;29r\u001b[H\u001b[28d"
    ],
    [
      0.000754,
      "\u001b[?25l\r\n\u001b[30m\u001b[42m[5] 0:img2txt*                                                                       \"t450-vmbox\" 00:46 05-Jun-17\u001b(B\u001b[m\u001b[28;1H\u001b[?12l\u001b[?25h"
    ],
    [
      0.030355,
      "\u001b[1;28r\u001b[H\u001b[28d\u001b[37m\u001b[40m                                                            \u001b[39m\u001b[49m\r\n\u001b[37m\u001b[40m                          \u001b[5m8\u001b[36m:\u001b[35mt\u001b(B\u001b[m\u001b[30m\u001b[40m\u001b[1m8\u001b(B\u001b[m\u001b[36m\u001b[40m\u001b[5m:\u001b[35m:\u001b[37m%\u001b(B\u001b[m\u001b[37m\u001b[40m                           \u001b[39m\u001b[49m\r\n\u001b[37m\u001b[40m                       \u001b[5m@\u001b(B\u001b[m\u001b[34m\u001b[40m;\u001b[32m:\u001b[31m.\u001b[34m \u001b[32m .\u001b[31m \u001b[32m .\u001b[34m:\u001b[31m:\u001b[30m\u001b[5mS\u001b(B\u001b[m\u001b[37m\u001b[40m                        \u001b[39m\u001b[49m\r\n\u001b[37m\u001b[40m                      \u001b[30m\u001b[1mX\u001b(B\u001b[m\u001b[34m\u001b[40m.\u001b[31m:\u001b[34m..\u001b[32m.\u001b[34m..\u001b[31m.\u001b[34m.\u001b[31m:\u001b[36m\u001b[5m;\u001b[33m \u001b(B\u001b[m\u001b[30m\u001b[40m\u001b[1m8\u001b(B\u001b[m\u001b[34m\u001b[40m.;\u001b[37m                      \u001b[39m\u001b[49m\r\n\u001b[37m\u001b[40m                     \u001b[36m\u001b[5mt\u001b(B\u001b[m\u001b[31m\u001b[40m .\u001b[34m.\u001b[32m.\u001b[34m.\u001b[31m.\u001b[34m.\u001b[32m.\u001b[34m.\u001b[32m.\u001b[34m:\u001b[30m\u001b[5mXX\u001b(B\u001b[m\u001b[30m\u001b[40m\u001b[1m@\u001b(B\u001b[m\u001b[31m\u001b[40m;\u001b[32m:\u001b[34m:\u001b[37m                     \u001b[39m\u001b[49m\r\n\u001b[37m\u001b[40m                     \u001b[34m.\u001b[31m \u001b[34m.\u001b[32m.\u001b[34m.\u001b[31m.\u001b[1;29r\u001b[H\u001b[28;28H\u001b(B\u001b[m\u001b[1;28r\u001b[H\u001b[28;28H\u001b[34m\u001b[40m.\u001b[32m.\u001b[34m.\u001b[31m.\u001b[34m.\u001b[31m:\u001b[32m.\u001b[31m.\u001b[34m.\u001b[32m:\u001b[34m:\u001b[31m:\u001b[3"
    ],
    [
      6.3e-05,
      "4m:\u001b[37m                    \u001b[39m\u001b[49m\r\n\u001b[37m\u001b[40m                     \u001b[34m.\u001b[31m.\u001b[34m.\u001b[31m;\u001b[30m\u001b[1mX\u001b(B\u001b[m\u001b[34m\u001b[40m..\u001b[31m.\u001b[34m..\u001b[32m:\u001b[34mt\u001b[31mt\u001b[30m\u001b[1m8\u001b(B\u001b[m\u001b[34m\u001b[40m;\u001b[32m:\u001b[31m.\u001b[34m:\u001b[32m:\u001b[37m                    \u001b[39m\u001b[49m\r\n\u001b[37m\u001b[40m                     \u001b[34m.\u001b[30m\u001b[1m8\u001b[47m8S\u001b(B\u001b[m\u001b[36m\u001b[40m\u001b[5mS\u001b(B\u001b[m\u001b[31m\u001b[40m;\u001b[32m.\u001b[34m:\u001b[32m:\u001b[35m\u001b[5m:\u001b(B\u001b[m\u001b[30m\u001b[47m\u001b[1m%\u001b[37m;t\u001b(B\u001b[m\u001b[36m\u001b[40m\u001b[5m \u001b(B\u001b[m\u001b[30m\u001b[40m\u001b[1mS\u001b(B\u001b[m\u001b[34m\u001b[40m.\u001b[32m.\u001b[31m.\u001b[34m.\u001b[35m\u001b[5m \u001b(B\u001b[m\u001b[37m\u001b[40m                   \u001b[39m\u001b[49m\r\n\u001b[37m\u001b[40m                     \u001b[34m.\u001b[37m\u001b[47m\u001b[1mt\u001b[30mX:\u001b(B\u001b[m\u001b[37m\u001b[47m\u001b[5m@\u001b[33m\u001b[40m \u001b(B\u001b[m\u001b[31m\u001b[40m.\u001b[34m:\u001b[33m\u001b[5m \u001b[37m\u001b[47m;\u001b(B\u001b[m\u001b[37m\u001b[47m\u001b[1m:\u001b(B\u001b[m\u001b[33m\u001b[40m\u001b[5m \u001b(B\u001b[m\u001b[37m\u001b[47m\u001b[1m \u001b(B\u001b[m\u001b[37m\u001b[47m\u001b[5mS\u001b[33m\u001b[40m \u001b(B\u001b[m\u001b[31m\u001b[40m:\u001b[34m:\u001b[32m.\u001b[34m:\u001b[30m\u001b[5mS\u001b(B\u001b[m\u001b[37m\u001b[40m                   \u001b[1;29r\u001b[H\u001b[28;61H\u001b(B\u001b[m\u001b[1;28r\u001b[H\u001b[28d\n\u001b[37m\u001b[40m                     \u001b[34m;\u001b[37m\u001b[47m\u001b[1m8\u001b(B\u001b[m\u001b[32m\u001b[40m.\u001b[31m\u001b[5mS\u001b[37mX8\u001b(B\u001b[m\u001b[32m\u001b[40mt\u001b[30m\u001b[1m8\u001b(B\u001b[m\u001b[33m\u001b[40m\u001b[5m \u001b[37m\u001b[47m;\u001b(B\u001b["
    ],
    [
      3.5e-05,
      "m\u001b[31m\u001b[40mt\u001b[32m;\u001b[30m\u001b[1m8\u001b[47m.\u001b[37m;\u001b(B\u001b[m\u001b[32m\u001b[40m.\u001b[34m.\u001b[31m.\u001b[32m.\u001b[30m\u001b[5mX\u001b(B\u001b[m\u001b[37m\u001b[40m                   \u001b[39m\u001b[49m\r\n\u001b[37m\u001b[40m                     \u001b[34m.\u001b[37m\u001b[47m\u001b[1m;\u001b(B\u001b[m\u001b[36m\u001b[40m\u001b[5m \u001b(B\u001b[m\u001b[31m\u001b[40m@\u001b[30m\u001b[43m\u001b[1mS\u001b(B\u001b[m\u001b[33m\u001b[43m\u001b[5m%t\u001b(B\u001b[m\u001b[33m\u001b[43m\u001b[1m:t\u001b(B\u001b[m\u001b[37m\u001b[43m\u001b[5m8\u001b(B\u001b[m\u001b[30m\u001b[43m\u001b[1m@\u001b(B\u001b[m\u001b[31m\u001b[40m8\u001b[36m\u001b[5mt\u001b[37m\u001b[47m8\u001b(B\u001b[m\u001b[30m\u001b[47m\u001b[1m8\u001b(B\u001b[m\u001b[34m\u001b[40m.\u001b[32m.\u001b[34m:\u001b[31m.\u001b[30m\u001b[1m@\u001b(B\u001b[m\u001b[37m\u001b[40m                   \u001b[39m\u001b[49m\r\n\u001b[37m\u001b[40m                     \u001b[34m.\u001b[31m\u001b[5mX\u001b(B\u001b[m\u001b[30m\u001b[43m\u001b[1m8\u001b(B\u001b[m\u001b[33m\u001b[43m\u001b[5m:;\u001b(B\u001b[m\u001b[31m\u001b[43m\u001b[1m8\u001b(B\u001b[m\u001b[33m\u001b[43m\u001b[5m \u001b[37mSX@\u001b[33m .t\u001b(B\u001b[m\u001b[37m\u001b[43m@\u001b[31m@\u001b[34m\u001b[40m:\u001b[31m.\u001b[34m...\u001b[37m                   \u001b[39m\u001b[49m\r\n\u001b[37m\u001b[40m                     \u001b[31m;\u001b[30m\u001b[43m\u001b[1m.\u001b(B\u001b[m\u001b[33m\u001b[43m\u001b[5m:\u001b[41mt\u001b[43m.. \u001b[37m8\u001b[31m\u001b[1m@\u001b(B\u001b[m\u001b[37m\u001b[43m\u001b[5m%\u001b[33m \u001b(B\u001b[m\u001b[31m\u001b[43m\u001b[1m8\u001b(B\u001b[m\u001b[33m\u001b[43m\u001b[5m:\u001b(B\u001b[m\u001b[31m\u001b[43m\u001b[1m8\u001b[30m%\u001b[1;29r\u001b[H\u001b[28;37H\u001b(B\u001b[m"
    ],
    [
      0.004454,
      "\u001b[1;28r\u001b[H\u001b[28;37H\u001b[31m\u001b[40m%\u001b[32m:\u001b[34m.\u001b[32m.\u001b[34m.\u001b[37m                   \u001b[39m\u001b[49m\r\n\u001b[37m\u001b[40m                     \u001b[34m.\u001b[30m\u001b[41m8\u001b[43m\u001b[1m@\u001b(B\u001b[m\u001b[33m\u001b[43m\u001b[5m%\u001b(B\u001b[m\u001b[33m\u001b[43m\u001b[1m.\u001b(B\u001b[m\u001b[37m\u001b[43m\u001b[5m@\u001b[33m\u001b[41m \u001b[43m.\u001b(B\u001b[m\u001b[33m\u001b[43m\u001b[1mt\u001b(B\u001b[m\u001b[33m\u001b[41m\u001b[5m:\u001b(B\u001b[m\u001b[33m\u001b[43m\u001b[1mS\u001b(B\u001b[m\u001b[33m\u001b[43m\u001b[5m:\u001b(B\u001b[m\u001b[31m\u001b[43m\u001b[1m8\u001b[33m\u001b[47m8\u001b(B\u001b[m\u001b[33m\u001b[40m\u001b[5m@\u001b(B\u001b[m\u001b[31m\u001b[40m;\u001b[34m:\u001b[33m\u001b[5m \u001b[30mS\u001b(B\u001b[m\u001b[31m\u001b[40m:\u001b[34m;\u001b[37m                  \u001b[39m\u001b[49m\r\n\u001b[37m\u001b[40m                     \u001b[34m.\u001b[33m\u001b[5mt\u001b(B\u001b[m\u001b[37m\u001b[47m\u001b[1m.\u001b[30m8\u001b(B\u001b[m\u001b[33m\u001b[41m\u001b[5mS\u001b(B\u001b[m\u001b[33m\u001b[43m\u001b[1mS\u001b(B\u001b[m\u001b[33m\u001b[43m\u001b[5mX\u001b(B\u001b[m\u001b[31m\u001b[43m\u001b[1m8\u001b(B\u001b[m\u001b[33m\u001b[43m\u001b[5mt\u001b(B\u001b[m\u001b[37m\u001b[43mS\u001b[33m\u001b[47m8\u001b[30m\u001b[1m8\u001b(B\u001b[m\u001b[37m\u001b[47m\u001b[5m8\u001b(B\u001b[m\u001b[37m\u001b[47m\u001b[1mXt\u001b(B\u001b[m\u001b[31m\u001b[40mS\u001b[34m;\u001b[30m\u001b[1m@\u001b(B\u001b[m\u001b[33m\u001b[40m\u001b[5m \u001b[30mX\u001b(B\u001b[m\u001b[32m\u001b[40m.\u001b[30m\u001b[1m8\u001b(B\u001b[m\u001b[37m\u001b[40m                 \u001b[39m\u001b[49m\r\n\u001b[37m\u001b[40m                    \u001b[30m\u001b[1m8\u001b(B\u001b[m\u001b[34m\u001b[40m.\u001b[35m\u001b[5m \u001b[37m\u001b[47m8\u001b(B\u001b[m\u001b[37m\u001b[47m\u001b[1mtS\u001b[30mX\u001b(B\u001b[m\u001b[33m\u001b[47m8\u001b[30m\u001b[1m88\u001b[37m ;\u001b(B\u001b[m\u001b[37m\u001b[47m\u001b[5m8X. \u001b(B\u001b[m"
    ],
    [
      6.7e-05,
      "\u001b[37m\u001b[47m\u001b[1mX\u001b(B\u001b[m\u001b[31m\u001b[40m;\u001b[32m:\u001b[34m:\u001b[32m.\u001b[34m..\u001b[30m\u001b[5m8\u001b(B\u001b[m\u001b[37m\u001b[40m                \u001b[39m\u001b[49m\r\n\u001b[1;29r\u001b[H\u001b[28d\u001b[1;28r\u001b[H\u001b[28d\u001b[37m\u001b[40m                   \u001b[30m\u001b[5m8\u001b(B\u001b[m\u001b[34m\u001b[40m.\u001b[33m\u001b[5m \u001b[37m\u001b[47m :8\u001b(B\u001b[m\u001b[37m\u001b[47m\u001b[1m%t;%\u001b(B\u001b[m\u001b[37m\u001b[47m\u001b[5m88t:... \u001b(B\u001b[m\u001b[37m\u001b[47m\u001b[1mX\u001b(B\u001b[m\u001b[31m\u001b[40m;\u001b[34m:\u001b[31m.\u001b[34m.\u001b[31m.\u001b[34m.\u001b[30m\u001b[5m8\u001b(B\u001b[m\u001b[37m\u001b[40m               \u001b[39m\u001b[49m\r\n\u001b[37m\u001b[40m                  \u001b[34m:\u001b[31m.\u001b[33m\u001b[5m \u001b[37m\u001b[47m   .:XS;:. . .   \u001b[40m8\u001b(B\u001b[m\u001b[32m\u001b[40m.\u001b[34m.\u001b[32m.\u001b[34m.\u001b[32m.\u001b[34m.\u001b[30m\u001b[1m8\u001b(B\u001b[m\u001b[37m\u001b[40m              \u001b[39m\u001b[49m\r\n\u001b[37m\u001b[40m                \u001b[36m\u001b[5m.\u001b(B\u001b[m\u001b[31m\u001b[40m .\u001b[30m\u001b[5m8\u001b[37m\u001b[47mX . . ... . . ...:\u001b(B\u001b[m\u001b[37m\u001b[47m\u001b[1m8\u001b(B\u001b[m\u001b[31m\u001b[40m:\u001b[34m:\u001b[32m.\u001b[34m.\u001b[31m.\u001b[34m..\u001b[31m:\u001b[37m             \u001b[39m\u001b[49m\r\n\u001b[37m\u001b[40m               \u001b[34mt\u001b[31m:\u001b[32m.\u001b[34m:\u001b[33m\u001b[5m \u001b(B\u001b[m\u001b[37m\u001b[47m\u001b[1m%\u001b(B\u001b[m\u001b[37m\u001b[47m\u001b[5mX;..tX%:...tX88\u001b(B\u001b[m\u001b[37m\u001b[47m\u001b[1m@@\u001b(B\u001b[m\u001b[37m\u001b[47m\u001b[5m8\u001b[33m\u001b[40m \u001b(B\u001b[m\u001b[32m\u001b[40m:\u001b[31m:\u001b[34m:\u001b[32m.\u001b[31m.\u001b[34m.\u001b[32m.\u001b[34m.\u001b[30m\u001b[5m8\u001b(B\u001b[m\u001b[37m\u001b[4"
    ],
    [
      4.3e-05,
      "0m           \u001b[39m\u001b[49m\r\n\u001b[37m\u001b[40m              \u001b[30m\u001b[1m8\u001b(B\u001b[m\u001b[32m\u001b[40m:\u001b[34m:\u001b[1;29r\u001b[H\u001b[28;18H\u001b(B\u001b[m\u001b[1;28r\u001b[H\u001b[28;18H\u001b[31m\u001b[40m:\u001b[30m\u001b[1m@\u001b[47m \u001b(B\u001b[m\u001b[37m\u001b[47m\u001b[5mX;... t..... :;%X8\u001b(B\u001b[m\u001b[37m\u001b[47m\u001b[1m@\u001b(B\u001b[m\u001b[37m\u001b[47m\u001b[5m8\u001b(B\u001b[m\u001b[30m\u001b[47m\u001b[1m%\u001b(B\u001b[m\u001b[34m\u001b[40m:\u001b[30m\u001b[1mXSX\u001b(B\u001b[m\u001b[34m\u001b[40m..\u001b[32m.\u001b[34m.\u001b[30m\u001b[1m8\u001b(B\u001b[m\u001b[37m\u001b[40m          \u001b[39m\u001b[49m\r\n\u001b[37m\u001b[40m              \u001b[34m.\u001b[30m\u001b[1m@\u001b(B\u001b[m\u001b[31m\u001b[40m;\u001b[32mt\u001b[37m\u001b[47m\u001b[1mS\u001b(B\u001b[m\u001b[37m\u001b[47m\u001b[5m:. . .. . . ... ...:X\u001b(B\u001b[m\u001b[37m\u001b[47m\u001b[1m8\u001b[30mS\u001b(B\u001b[m\u001b[31m\u001b[40m.\u001b[34m.\u001b[32mt\u001b[30m\u001b[1m8\u001b(B\u001b[m\u001b[31m\u001b[40m.\u001b[34m.\u001b[31m.\u001b[34m.\u001b[36m\u001b[5m \u001b(B\u001b[m\u001b[37m\u001b[40m         \u001b[39m\u001b[49m\r\n\u001b[37m\u001b[40m             \u001b[30m\u001b[1mX%X\u001b(B\u001b[m\u001b[34m\u001b[40m;\u001b[37m\u001b[47m\u001b[1mt\u001b(B\u001b[m\u001b[37m\u001b[47m\u001b[5m............. ... ... ::\u001b[33m\u001b[40mt\u001b(B\u001b[m\u001b[30m\u001b[40m\u001b[1mX\u001b(B\u001b[m\u001b[35m\u001b[40m\u001b[5mX\u001b(B\u001b[m\u001b[32m\u001b[40m;\u001b[30m\u001b[1m8\u001b(B\u001b[m\u001b[34m\u001b[40m:\u001b[32m.\u001b[34m:\u001b[31m;\u001b[37m         \u001b[39m\u001b[49m\r\n\u001b[37m\u001b[40m            \u001b[36m\u001b[5m \u001b(B\u001b[m\u001b[34m\u001b[40m;\u001b[30m\u001b[1m8\u001b(B\u001b[m\u001b[32m\u001b[40m.\u001b[30m\u001b[47m\u001b[1m8\u001b(B\u001b[m\u001b[37m\u001b[47m\u001b[5m.. .. ..t.. .... ... ...:\u001b(B\u001b[m\u001b[37"
    ],
    [
      3.7e-05,
      "m\u001b[47m\u001b[1mt\u001b(B\u001b[m\u001b[34m\u001b[40m.\u001b[32m.\u001b[34m.\u001b[30m\u001b[1mSS\u001b(B\u001b[m\u001b[31m\u001b[40m.\u001b[32m.\u001b[34m:\u001b[30m\u001b[5mS\u001b(B\u001b[m\u001b[37m\u001b[40m        \u001b[39m\u001b[49m\r\n\u001b[37m\u001b[40m            \u001b[34m.\u001b[30m\u001b[1m8\u001b(B\u001b[m\u001b[31m\u001b[40m.\u001b[30m\u001b[5m8\u001b[1;29r\u001b[H\u001b[28;17H\u001b(B\u001b[m\u001b[1;28r\u001b[H\u001b[28;17H\u001b[37m\u001b[47m\u001b[5m;.... ..;% .. .. ... .. ...\u001b(B\u001b[m\u001b[32m\u001b[40m;\u001b[34m:\u001b[31m.\u001b[34m.\u001b[30m\u001b[1m8\u001b(B\u001b[m\u001b[34m\u001b[40m..\u001b[32m.\u001b[34m.\u001b[37m        \u001b[39m\u001b[49m\r\n\u001b[37m\u001b[40m           \u001b[34m;\u001b[31m:\u001b[30m\u001b[1m8\u001b(B\u001b[m\u001b[32m\u001b[40m:\u001b[30m\u001b[47m\u001b[1m:\u001b(B\u001b[m\u001b[37m\u001b[47m\u001b[5m.. .... %%.... .. ... .....\u001b[30m\u001b[40m@\u001b(B\u001b[m\u001b[31m\u001b[40m.\u001b[34m.\u001b[32m:\u001b[30m\u001b[1mS\u001b(B\u001b[m\u001b[34m\u001b[40m.\u001b[31m.\u001b[34m.\u001b[31m.\u001b[37m        \u001b[39m\u001b[49m\r\n\u001b[37m\u001b[40m          \u001b[34m.\u001b[32m:;\u001b[30m\u001b[5mX\u001b(B\u001b[m\u001b[34m\u001b[40m:\u001b[37m\u001b[47m\u001b[5mX. .. ...%% . ... .. ... . .\u001b[30m\u001b[40mS\u001b(B\u001b[m\u001b[34m\u001b[40m.\u001b[31m.\u001b[30m\u001b[1m@\u001b(B\u001b[m\u001b[34m\u001b[40m:\u001b[31m.\u001b[32m.\u001b[34m..\u001b[33m\u001b[5m \u001b(B\u001b[m\u001b[37m\u001b[40m       \u001b[39m\u001b[49m\r\n\u001b[37m\u001b[40m         \u001b[5m@\u001b(B\u001b[m\u001b[34m\u001b[40m.\u001b[31m:\u001b[34m%\u001b[33m\u001b[5mt\u001b(B\u001b[m\u001b[34m\u001b[40mt\u001b[37m\u001b[47m\u001b[5m:..... ..S;.... ... .. .... \u001b[30m\u001b[40mX\u001b(B\u001b[m\u001b[31m\u001b[40m.\u001b[34m:\u001b[30m\u001b[1mX\u001b(B\u001b[m\u001b[31m\u001b[40m.\u001b[34m..\u001b"
    ],
    [
      8.5e-05,
      "[32m.\u001b[34m:\u001b[37m\u001b[5mX\u001b(B\u001b[m\u001b[37m\u001b[40m       \u001b[39m\u001b[49m\r\n\u001b[37m\u001b[40m          \u001b[31m8\u001b[30m\u001b[43m\u001b[1m;\u001b(B\u001b[m\u001b[31m\u001b[43m@\u001b[40m;\u001b[30m\u001b[5m8\u001b[37m\u001b[47mX. . ... S;.. ...... ... ..;\u001b[1;29r\u001b[H\u001b[28;44H\u001b(B\u001b[m\u001b[1;28r\u001b[H\u001b[28;44H\u001b[31m\u001b[40mt\u001b[32m%\u001b[30m\u001b[1mX\u001b(B\u001b[m\u001b[34m\u001b[40m.\u001b[32m;\u001b[30m\u001b[1mXX8\u001b(B\u001b[m\u001b[31m\u001b[40m:\u001b[37m        \u001b[39m\u001b[49m\r\n\u001b[37m\u001b[40m         \u001b[33m\u001b[47m\u001b[1m8\u001b(B\u001b[m\u001b[33m\u001b[43m\u001b[5mt:;t\u001b(B\u001b[m\u001b[33m\u001b[41m8\u001b[30m\u001b[40m\u001b[1m8\u001b[47mS\u001b(B\u001b[m\u001b[37m\u001b[47m\u001b[5m;... ..S;.... . . .. .;\u001b[33m\u001b[43m:\u001b[37m@\u001b[33m;\u001b[31m\u001b[40m8\u001b(B\u001b[m\u001b[34m\u001b[40m:.\u001b[31m.\u001b[34m:\u001b[31m.\u001b[34m;\u001b[30m\u001b[5m8\u001b[33m8\u001b(B\u001b[m\u001b[37m\u001b[40m        \u001b[39m\u001b[49m\r\n\u001b[37m\u001b[40m        \u001b[43m@\u001b[33m\u001b[5m.\u001b[41m;\u001b[43m:\u001b(B\u001b[m\u001b[31m\u001b[43m\u001b[1m8\u001b(B\u001b[m\u001b[33m\u001b[43m\u001b[5m :\u001b(B\u001b[m\u001b[30m\u001b[43m\u001b[1mS\u001b(B\u001b[m\u001b[31m\u001b[40m8\u001b[30m\u001b[1m@\u001b[47m8\u001b(B\u001b[m\u001b[37m\u001b[47m\u001b[5m%.. .;;. . .........@\u001b[33m\u001b[43m:\u001b(B\u001b[m\u001b[31m\u001b[43m\u001b[1m8\u001b(B\u001b[m\u001b[33m\u001b[43m\u001b[5m \u001b(B\u001b[m\u001b[31m\u001b[40m8\u001b[34m:\u001b[32m.\u001b[34m.\u001b[31m.\u001b[34m.\u001b[31m:\u001b[33m\u001b[41m8\u001b[43m\u001b[5m8;\u001b(B\u001b[m\u001b[37m\u001b[40m       \u001b[39m\u001b[49m\r\n\u001b[37m\u001b[40m   \u001b[33m\u001b[43m\u001b[1mt\u001b(B\u001b[m\u001b[33m\u001b[43m\u001b[5m:\u001b(B\u001b[m\u001b[33m\u001b[43m\u001b[1m;\u001b(B\u001b[m\u001b[33m\u001b[43m\u001b[5m :\u001b[41"
    ],
    [
      4.7e-05,
      "m\u001b[1m8\u001b(B\u001b[m\u001b[33m\u001b[43m\u001b[5m::  \u001b[41m \u001b[37m\u001b[43mS\u001b[33m \u001b(B\u001b[m\u001b[31m\u001b[43m\u001b[1m8\u001b(B\u001b[m\u001b[32m\u001b[40mX\u001b[31m;\u001b[32mt\u001b[37m\u001b[5m8\u001b[47m@.... .... . . ..\u001b(B\u001b[m\u001b[37m\u001b[47m\u001b[1m8:\u001b(B\u001b[m\u001b[33m\u001b[43m\u001b[5m  \u001b[41mS\u001b(B\u001b[m\u001b[30m\u001b[43m\u001b[1mX\u001b(B\u001b[m\u001b[31m\u001b[43m8\u001b[40m%\u001b[1;29r\u001b[H\u001b[28;47H\u001b(B\u001b[m\u001b[1;28r\u001b[H\u001b[28;47H\u001b[32m\u001b[40mS\u001b[31m8\u001b[30m\u001b[43m\u001b[1m;:\u001b[33mt\u001b(B\u001b[m\u001b[33m\u001b[43m\u001b[5m \u001b(B\u001b[m\u001b[33m\u001b[43m\u001b[1m.\u001b(B\u001b[m\u001b[37m\u001b[40m       \u001b[39m\u001b[49m\r\n\u001b[37m\u001b[40m   \u001b[33m\u001b[43m\u001b[1m%\u001b(B\u001b[m\u001b[33m\u001b[43m\u001b[5m \u001b[41m\u001b[1m8\u001b(B\u001b[m\u001b[33m\u001b[43m\u001b[5m \u001b[41m.\u001b[37m\u001b[43m%\u001b[33m.\u001b[41m:\u001b[37m\u001b[43mX\u001b[33m . \u001b[41m.\u001b[37m\u001b[43m.\u001b(B\u001b[m\u001b[33m\u001b[43m\u001b[1mS\u001b(B\u001b[m\u001b[31m\u001b[40m8\u001b[34m;\u001b[31m:\u001b[32m;\u001b[37m\u001b[5m8\u001b[47m.. ... ...... :\u001b(B\u001b[m\u001b[37m\u001b[47m\u001b[1m@ \u001b(B\u001b[m\u001b[33m\u001b[41m\u001b[5mt\u001b[43mt;\u001b(B\u001b[m\u001b[33m\u001b[43m\u001b[1m:;;\u001b(B\u001b[m\u001b[33m\u001b[43m\u001b[5m:\u001b(B\u001b[m\u001b[31m\u001b[43m\u001b[1m8\u001b[33m;\u001b(B\u001b[m\u001b[33m\u001b[43m\u001b[5m \u001b[31m\u001b[1m8\u001b(B\u001b[m\u001b[33m\u001b[43m\u001b[5m \u001b[31m\u001b[1m8\u001b(B\u001b[m\u001b[37m\u001b[43m\u001b[5mX\u001b(B\u001b[m\u001b[37m\u001b[40m      \u001b[39m\u001b[49m\r\n\u001b[37m\u001b[40m   \u001b[33m\u001b[43m\u001b[1m;\u001b(B\u001b[m\u001b[33m\u001b[43m\u001b[5m \u001b[41m \u001b[37m\u001b[43mS\u001b[33m..\u001b(B\u001b[m\u001b[33m\u001b[43m\u001b[1m:\u001b(B\u001b[m\u001b[37m\u001b[43m\u001b[5mS\u001b[31m\u001b[1m8\u001b(B\u001b[m\u001b[33m\u001b[43m\u001b[5m \u001b[41m:\u001b[37m\u001b[43mS\u001b[33m"
    ],
    [
      3.4e-05,
      ".  \u001b(B\u001b[m\u001b[33m\u001b[43m\u001b[1m:\u001b[30m\u001b[41m8\u001b(B\u001b[m\u001b[32m\u001b[40m.\u001b[34m.\u001b[31m:\u001b[37m\u001b[47m\u001b[1m:\u001b(B\u001b[m\u001b[37m\u001b[47m\u001b[5m... ... . ....\u001b(B\u001b[m\u001b[37m\u001b[47m\u001b[1m8\u001b[30m;\u001b[33m\u001b[43m%\u001b(B\u001b[m\u001b[33m\u001b[43m\u001b[5m.\u001b[41m \u001b[37m\u001b[43m%\u001b[33m \u001b[41m \u001b[43m;:\u001b[31m\u001b[1m8\u001b(B\u001b[m\u001b[33m\u001b[43m\u001b[5m.\u001b[41m.\u001b[37m\u001b[43mS\u001b[33m  \u001b[1;29r\u001b[H\u001b[28;55H\u001b(B\u001b[m\u001b[1;28r\u001b[H\u001b[28;55H\u001b[33m\u001b[43m\u001b[1m.\u001b[47mX\u001b(B\u001b[m\u001b[37m\u001b[40m    \u001b[39m\u001b[49m\r\n\u001b[37m\u001b[40m   \u001b[33m\u001b[43m\u001b[1m:\u001b(B\u001b[m\u001b[33m\u001b[43m\u001b[5m :.\u001b(B\u001b[m\u001b[31m\u001b[43m\u001b[1m8\u001b(B\u001b[m\u001b[37m\u001b[43m\u001b[5mS\u001b[31m\u001b[1m@\u001b(B\u001b[m\u001b[33m\u001b[43m\u001b[5m \u001b[31m\u001b[1m8\u001b(B\u001b[m\u001b[33m\u001b[43m\u001b[5m...\u001b[41m:\u001b[43m:  \u001b(B\u001b[m\u001b[31m\u001b[43m\u001b[1m8\u001b(B\u001b[m\u001b[33m\u001b[40m\u001b[5m8\u001b[30mX\u001b(B\u001b[m\u001b[30m\u001b[47m\u001b[1m@\u001b(B\u001b[m\u001b[37m\u001b[47m\u001b[5m;. ... .... ..8\u001b[33m\u001b[40m@\u001b(B\u001b[m\u001b[30m\u001b[41m8\u001b[33m\u001b[43m\u001b[1m.\u001b(B\u001b[m\u001b[33m\u001b[43m\u001b[5m .\u001b[31m\u001b[1m8\u001b(B\u001b[m\u001b[33m\u001b[43m\u001b[5m .\u001b(B\u001b[m\u001b[31m\u001b[43m\u001b[1m8\u001b(B\u001b[m\u001b[37m\u001b[43m\u001b[5mS\u001b[33m \u001b(B\u001b[m\u001b[33m\u001b[43m\u001b[1m.\u001b(B\u001b[m\u001b[37m\u001b[43m\u001b[5mS\u001b[33m \u001b[41m \u001b[43m \u001b[31m\u001b[1m@\u001b(B\u001b[m\u001b[33m\u001b[43m\u001b[5m  \u001b(B\u001b[m\u001b[33m\u001b[47m8\u001b[37m\u001b[40m  \u001b[39m\u001b[49m\r\n\u001b[37m\u001b[40m   \u001b[33m\u001b[43m\u001b[1m;\u001b(B\u001b[m\u001b[33m\u001b[41m\u001b[5m.\u001b[43m: \u001b[31m\u001b[1m8\u001b(B\u001b[m\u001b[33m\u001b[43m\u001b[5m \u001b[31m\u001b[1m8\u001b(B\u001b[m\u001b[33m\u001b[43m"
    ],
    [
      3.5e-05,
      "\u001b[5m \u001b[41m\u001b[1m8\u001b(B\u001b[m\u001b[33m\u001b[43m\u001b[5m:\u001b[41m:\u001b[37m\u001b[43mX\u001b[33m.\u001b(B\u001b[m\u001b[33m\u001b[43m\u001b[1m.\u001b[41m\u001b[5m8\u001b(B\u001b[m\u001b[37m\u001b[43m\u001b[5mX\u001b[33m.\u001b(B\u001b[m\u001b[33m\u001b[43m\u001b[1m.\u001b[37m\u001b[47m \u001b(B\u001b[m\u001b[37m\u001b[47m\u001b[5m.. .. ... ..:\u001b(B\u001b[m\u001b[37m\u001b[47m\u001b[1m:\u001b(B\u001b[m\u001b[33m\u001b[40m\u001b[5mS\u001b(B\u001b[m\u001b[31m\u001b[40m \u001b[34m \u001b[31m\u001b[43m8\u001b[1m8\u001b(B\u001b[m\u001b[33m\u001b[43m\u001b[5m:\u001b[41m:\u001b[37m\u001b[43mS\u001b[33m \u001b[31m\u001b[1m8\u001b(B\u001b[m\u001b[37m\u001b[43m\u001b[5mS\u001b[31m\u001b[1m88\u001b(B\u001b[m\u001b[37m\u001b[43m\u001b[5m%\u001b[31m\u001b[1m8\u001b(B\u001b[m\u001b[33m\u001b[43m\u001b[5m   \u001b[41m\u001b[1m8\u001b[1;29r\u001b[H\u001b[28;56H\u001b(B\u001b[m"
    ],
    [
      0.000214,
      "\u001b[1;28r\u001b[H\u001b[28;56H\u001b[33m\u001b[43m\u001b[5m \u001b[41m.\u001b[37m\u001b[43m%\u001b(B\u001b[m\u001b[37m\u001b[40m  \u001b[39m\u001b[49m\r\n\u001b[37m\u001b[40m  \u001b[33m\u001b[47m8\u001b[43m\u001b[5m :\u001b(B\u001b[m\u001b[31m\u001b[43m\u001b[1m8\u001b(B\u001b[m\u001b[37m\u001b[43m\u001b[5mX\u001b[33m \u001b[41m\u001b[1m8\u001b(B\u001b[m\u001b[37m\u001b[43m\u001b[5mS\u001b[31m\u001b[1m8\u001b(B\u001b[m\u001b[37m\u001b[43m\u001b[5mX\u001b[33m :.\u001b[31m\u001b[1m8\u001b(B\u001b[m\u001b[37m\u001b[43m\u001b[5m@\u001b[31m\u001b[1mX\u001b(B\u001b[m\u001b[33m\u001b[43m\u001b[5m \u001b[41m \u001b[43m \u001b(B\u001b[m\u001b[31m\u001b[43m\u001b[1m8\u001b[30m8\u001b[37m\u001b[47m.\u001b(B\u001b[m\u001b[37m\u001b[47m\u001b[5mX:....;\u001b(B\u001b[m\u001b[37m\u001b[47m\u001b[1m8\u001b[30m.\u001b(B\u001b[m\u001b[33m\u001b[40m\u001b[5m;\u001b(B\u001b[m\u001b[31m\u001b[40mt\u001b[32m.\u001b[34m ..\u001b[30m\u001b[43m\u001b[1m;%\u001b(B\u001b[m\u001b[33m\u001b[43m\u001b[5m ..\u001b[41m:\u001b[37m\u001b[43mS\u001b[33m  \u001b[31m\u001b[1m8\u001b(B\u001b[m\u001b[33m\u001b[43m\u001b[5m \u001b[31m\u001b[1m8\u001b(B\u001b[m\u001b[33m\u001b[43m\u001b[5m \u001b[41m:\u001b[37m\u001b[43mX\u001b(B\u001b[m\u001b[33m\u001b[43m\u001b[1m.\u001b[47m8\u001b(B\u001b[m\u001b[37m\u001b[40m    \u001b[39m\u001b[49m\r\n\u001b[37m\u001b[40m  \u001b[30m\u001b[43m\u001b[1m;\u001b[31m8\u001b(B\u001b[m\u001b[33m\u001b[43m\u001b[5m  \u001b[41m.\u001b[43m::\u001b[41m.\u001b[37m\u001b[43m%\u001b[33m \u001b[41m:\u001b[37m\u001b[43mX\u001b[33m \u001b[41m\u001b[1m8\u001b(B\u001b[m\u001b[33m\u001b[43m\u001b[5m \u001b[31m\u001b[1m8\u001b(B\u001b[m\u001b[33m\u001b[43m\u001b[5m :\u001b(B\u001b[m\u001b[33m\u001b[43m\u001b[1m;\u001b(B\u001b[m\u001b[33m\u001b[43m\u001b[5m.\u001b(B\u001b[m\u001b[33m\u001b[41mX\u001b[31m\u001b[40mS\u001b[32m:\u001b[31m;\u001b[30m\u001b[1mX@\u001b(B\u001b[m\u001b[31m\u001b[40mt\u001b[32m%\u001b[31m:.\u001b[32m...\u001b[34m..\u001b[31m.;\u001b[43m8\u001b[1m8\u001b(B\u001b[m\u001b[33m\u001b[43m\u001b[5m:\u001b[1;29r\u001b[H\u001b[28;43H\u001b"
    ],
    [
      2.1e-05,
      "(B\u001b[m"
    ],
    [
      0.00054,
      "\u001b[1;28r\u001b[H\u001b[28;43H\u001b[33m\u001b[41m\u001b[5m:\u001b[37m\u001b[43mS\u001b[33m .\u001b[41m.\u001b[43m.:\u001b[41m:\u001b[43mt\u001b(B\u001b[m\u001b[37m\u001b[43m@\u001b[33m\u001b[47m\u001b[1m8\u001b(B\u001b[m\u001b[37m\u001b[40m       \u001b[39m\u001b[49m\r\n\u001b[37m\u001b[40m    \u001b[33m\u001b[47m\u001b[1mS\u001b(B\u001b[m\u001b[33m\u001b[47m8\u001b[37m\u001b[43mX\u001b[31m\u001b[1m8\u001b[30m8\u001b(B\u001b[m\u001b[33m\u001b[43m\u001b[5m;\u001b(B\u001b[m\u001b[31m\u001b[43m\u001b[1m8\u001b[33m:\u001b(B\u001b[m\u001b[33m\u001b[43m\u001b[5m.\u001b[41mt\u001b[43mt:\u001b[41m.\u001b[37m\u001b[43mX\u001b[33m.\u001b[41m:\u001b[43mt\u001b(B\u001b[m\u001b[33m\u001b[41m@\u001b[30m\u001b[43m\u001b[1mX\u001b(B\u001b[m\u001b[31m\u001b[40m8\u001b[32m:\u001b[34m:\u001b[32m..\u001b[34m:\u001b[31m:\u001b[32m.\u001b[34m.\u001b[31m.\u001b[34m..\u001b[31m.\u001b[34m..\u001b[31mt\u001b[30m\u001b[43m\u001b[1mt\u001b(B\u001b[m\u001b[31m\u001b[43m%\u001b[33m\u001b[1m.\u001b(B\u001b[m\u001b[33m\u001b[43m\u001b[5m \u001b(B\u001b[m\u001b[33m\u001b[43m\u001b[1m.\u001b[31m\u001b[5m8\u001b(B\u001b[m\u001b[33m\u001b[43m\u001b[5m \u001b(B\u001b[m\u001b[33m\u001b[43m\u001b[1mt\u001b(B\u001b[m\u001b[33m\u001b[41m\u001b[5m \u001b[43m@\u001b(B\u001b[m\u001b[37m\u001b[43m@\u001b[40m          \u001b[39m\u001b[49m\r\n\u001b[37m\u001b[40m           \u001b[33m\u001b[47m8\u001b[30m\u001b[43m\u001b[1m88\u001b[31m8\u001b[30m8\u001b[33m%\u001b[31m8\u001b[30m8\u001b[33m.\u001b(B\u001b[m\u001b[31m\u001b[43m8\u001b[33m\u001b[41m8\u001b[40m\u001b[5mS\u001b(B\u001b[m\u001b[30m\u001b[47m\u001b[1m8\u001b(B\u001b[m\u001b[37m\u001b[40m               \u001b[30m\u001b[41m\u001b[1m8\u001b(B\u001b[m\u001b[31m\u001b[43m%\u001b[1m88\u001b(B\u001b[m\u001b[33m\u001b[43m\u001b[5m.\u001b[41m@\u001b(B\u001b[m\u001b[30m\u001b[43m\u001b[1m8\u001b(B\u001b[m\u001b[33m\u001b[43m\u001b[5m:\u001b(B\u001b[m\u001b[30m\u001b[43m\u001b[1m8\u001b(B\u001b[m\u001b[37m\u001b[40m            \u001b[39m\u001b[49m\r\n\u001b[1;29r\u001b[H\u001b[28d"
    ],
    [
      0.0014,
      "\u001b[1;28r\u001b[H\u001b[28d\u001b[37m\u001b[40m                \u001b[5m8\u001b(B\u001b[m\u001b[30m\u001b[43m\u001b[1m8\u001b(B\u001b[m\u001b[31m\u001b[43m88\u001b[37m\u001b[40m\u001b[5m%\u001b(B\u001b[m\u001b[37m\u001b[40m                   \u001b[30m\u001b[47m\u001b[1m@\u001b[43m8\u001b(B\u001b[m\u001b[31m\u001b[43m8\u001b[30m\u001b[41m\u001b[1m8\u001b[43m@8\u001b(B\u001b[m\u001b[37m\u001b[40m              \u001b[39m\u001b[49m\r\n\u001b[37m\u001b[40m                                                            \u001b[39m\u001b[49m\r\n$ \u001b[1;29r\u001b[H\u001b[28;3H"
    ],
    [
      0.5,
      "\u001b[?25l\r\n\u001b[30m\u001b[42m[5] 0:bash*                                                                          \"t450-vmbox\" 00:46 05-Jun-17\u001b(B\u001b[m\u001b[28;3H\u001b[?12l\u001b[?25h"
    ],
    [
      0.376587,
      "\u001b[1;28r\u001b[H\u001b[28;3He\u001b[1;29r\u001b[H\u001b[28;4H"
    ],
    [
      0.411472,
      "\u001b[1;28r\u001b[H\u001b[28;4Hx\u001b[1;29r\u001b[H\u001b[28;5H"
    ],
    [
      0.168402,
      "\u001b[1;28r\u001b[H\u001b[28;5Hi\u001b[1;29r\u001b[H\u001b[28;6H"
    ],
    [
      0.295832,
      "\u001b[1;28r\u001b[H\u001b[28;6Ht\u001b[1;29r\u001b[H\u001b[28;7H"
    ],
    [
      0.273508,
      "\u001b[1;28r\u001b[H\u001b[28d\nlogout\r\n\u001b[1;29r\u001b[H\u001b[28d"
    ],
    [
      0.004425,
      "\u001b[1;29r\u001b(B\u001b[m\u001b[?1l\u001b>\u001b[H\u001b[2J\u001b]112\u0007\u001b[?12l\u001b[?25h\u001b[?1000l\u001b[?1002l\u001b[?1006l\u001b[?1005l\u001b[?1049l"
    ],
    [
      0.00037,
      "[exited]\r\n"
    ]
  ],
  "command": "tmux"
}